{
  "content_id": "184356",
  "title": "Дэвид Линч: Жизнь в искусстве",
  "orig_title": "David Lynch The Art Life",
  "release_date": "2016",
  "orig_country": "США",
  "lang": "Английский",
  "restrict": "16+",
  "kinopoisk_id": "1001695",
  "kinopoisk_rating": "7.3",
  "imdb_rating": "7.2",
  "duration": "5307",
  "category": "Фильмы",
  "genres": "Биография,Документальные,Зарубежные",
  "vr_identifier": "Дэвид Линч: Жизнь в искусстве",
  "iframe": "https://www.ivi.ru/embeds/video/?subsite=1&autostart=0&videoid=184356"
}