{
  "content_id": "176691",
  "title": "Любовь без правил",
  "release_date": "2016",
  "orig_country": "Россия",
  "lang": "Русский",
  "restrict": "16+",
  "kinopoisk_id": "1002690",
  "kinopoisk_rating": "3.95",
  "duration": "5402",
  "category": "Фильмы",
  "genres": "Комедии,Русские",
  "vr_identifier": "Любовь без правил",
  "iframe": "https://www.ivi.ru/embeds/video/?subsite=1&autostart=0&videoid=176691"
}