{
  "content_id": "368395",
  "title": "Злой дух",
  "orig_title": "Pyewacket",
  "release_date": "2017",
  "orig_country": "Канада",
  "lang": "Английский",
  "restrict": "18+",
  "kinopoisk_id": "1004054",
  "kinopoisk_rating": "5.21",
  "imdb_rating": "5.8",
  "duration": "5262",
  "category": "Фильмы",
  "genres": "Драмы,Зарубежные,Триллеры,Ужасы",
  "vr_identifier": "Злой дух",
  "iframe": "https://www.ivi.ru/embeds/video/?subsite=1&autostart=0&videoid=368395"
}