{
  "content_id": "212176",
  "title": "Пришельцы в доме",
  "orig_title": "Luis & the Aliens",
  "release_date": "2018",
  "orig_country": "Германия",
  "lang": "Английский",
  "restrict": "6+",
  "kinopoisk_id": "1007469",
  "kinopoisk_rating": "6.31",
  "imdb_rating": "6",
  "duration": "5134",
  "category": "Мультфильмы",
  "genres": "Для всей семьи,Для детей,Западные мультфильмы,Зарубежные,Комедия,Полнометражные,Приключения,Фантастика",
  "vr_identifier": "Пришельцы в доме",
  "iframe": "https://www.ivi.ru/embeds/video/?subsite=1&autostart=0&videoid=212176"
}