{
  "content_id": "67341",
  "title": "Цель",
  "release_date": "1989",
  "orig_country": "СССР",
  "lang": "Русский",
  "restrict": "6+",
  "kinopoisk_id": "1007603",
  "duration": "521",
  "category": "Мультфильмы",
  "genres": "Для всей семьи,Для детей,Комедия,Русские,Русские мультфильмы,Советские",
  "vr_identifier": "Цель",
  "iframe": "https://www.ivi.ru/embeds/video/?subsite=1&autostart=0&videoid=67341"
}