{
  "content_id": "186791",
  "title": "Кроткая",
  "release_date": "2017",
  "orig_country": "Россия",
  "lang": "Русский",
  "restrict": "16+",
  "kinopoisk_id": "1007433",
  "kinopoisk_rating": "6.2",
  "imdb_rating": "6.6",
  "duration": "8254",
  "category": "Фильмы",
  "genres": "Драмы,Комедии,Русские",
  "vr_identifier": "Кроткая",
  "iframe": "https://www.ivi.ru/embeds/video/?subsite=1&autostart=0&videoid=186791"
}