{
  "content_id": "414935",
  "title": "Party-zan фильм",
  "release_date": "2016",
  "orig_country": "Беларусь",
  "lang": "Русский",
  "restrict": "16+",
  "kinopoisk_id": "1007823",
  "duration": "5689",
  "category": "Фильмы",
  "genres": "Зарубежные,Комедии",
  "vr_identifier": "Party-zan фильм",
  "iframe": "https://www.ivi.ru/embeds/video/?subsite=1&autostart=0&videoid=414935"
}