{
  "content_id": "191281",
  "title": "Опять замуж",
  "release_date": "2016",
  "orig_country": "Россия",
  "lang": "Русский",
  "restrict": "12+",
  "kinopoisk_id": "1008360",
  "kinopoisk_rating": "6.27",
  "duration": "5298",
  "category": "Фильмы",
  "genres": "Мелодрамы,Русские",
  "vr_identifier": "Опять замуж",
  "iframe": "https://www.ivi.ru/embeds/video/?subsite=1&autostart=0&videoid=191281"
}