{
  "content_id": "186828",
  "title": "Последний беспредел",
  "orig_title": "Autoreiji saishusho",
  "release_date": "2017",
  "orig_country": "Япония",
  "lang": "Японский",
  "restrict": "18+",
  "kinopoisk_id": "1008240",
  "kinopoisk_rating": "6.39",
  "imdb_rating": "6",
  "duration": "5994",
  "category": "Фильмы",
  "genres": "Боевики,Драмы,Зарубежные,Криминал",
  "vr_identifier": "Последний беспредел",
  "iframe": "https://www.ivi.ru/embeds/video/?subsite=1&autostart=0&videoid=186828"
}