{
  "content_id": "213883",
  "title": "Последний шанс",
  "release_date": "2018",
  "orig_country": "Россия",
  "lang": "Русский",
  "restrict": "16+",
  "kinopoisk_id": "1009074",
  "kinopoisk_rating": "0",
  "duration": "5522",
  "category": "Фильмы",
  "genres": "Боевики,Русские",
  "vr_identifier": "последний шанс",
  "iframe": "https://www.ivi.ru/embeds/video/?subsite=1&autostart=0&videoid=213883"
}