{
  "content_id": "70349",
  "title": "Нерон и Поппея",
  "orig_title": "Nerone e Poppea",
  "release_date": "1982",
  "orig_country": "Франция",
  "lang": "Французский",
  "restrict": "18+",
  "kinopoisk_id": "101099",
  "kinopoisk_rating": "0",
  "imdb_rating": "4.6",
  "duration": "5798",
  "category": "Фильмы",
  "genres": "Эротика",
  "vr_identifier": "NERO AND POPPEA",
  "iframe": "https://www.ivi.ru/embeds/video/?subsite=1&autostart=0&videoid=70349"
}