{
  "content_id": "205857",
  "title": "Чего хочет Джульетта",
  "orig_title": "L'embarras du choix",
  "release_date": "2017",
  "orig_country": "Франция",
  "lang": "Французский",
  "restrict": "16+",
  "kinopoisk_id": "1015785",
  "kinopoisk_rating": "5.9",
  "imdb_rating": "5.5",
  "duration": "5644",
  "category": "Фильмы",
  "genres": "Зарубежные,Комедии,Мелодрамы",
  "vr_identifier": "Чего хочет Джульетта",
  "iframe": "https://www.ivi.ru/embeds/video/?subsite=1&autostart=0&videoid=205857"
}