{
  "content_id": "222465",
  "title": "Город на границе",
  "orig_title": "Bordertown",
  "release_date": "2006",
  "orig_country": "США",
  "lang": "Английский",
  "restrict": "16+",
  "kinopoisk_id": "102133",
  "kinopoisk_rating": "6.74",
  "imdb_rating": "6.1",
  "duration": "6450",
  "category": "Фильмы",
  "genres": "Детективы,Драмы,Зарубежные,Криминал,Триллеры",
  "vr_identifier": "BORDER TOWN",
  "iframe": "https://www.ivi.ru/embeds/video/?subsite=1&autostart=0&videoid=222465"
}