{
  "content_id": "191517",
  "title": "Любовь, которой не было",
  "release_date": "2015",
  "orig_country": "Россия",
  "lang": "Русский",
  "restrict": "12+",
  "kinopoisk_id": "1026161",
  "kinopoisk_rating": "0",
  "duration": "5365",
  "category": "Фильмы",
  "genres": "Мелодрамы,Русские",
  "vr_identifier": "Любовь, которой не было",
  "iframe": "https://www.ivi.ru/embeds/video/?subsite=1&autostart=0&videoid=191517"
}