{
  "content_id": "224254",
  "title": "Темное зеркало",
  "orig_title": "Look Away",
  "release_date": "2018",
  "orig_country": "США",
  "lang": "Английский",
  "restrict": "18+",
  "kinopoisk_id": "1027785",
  "kinopoisk_rating": "5.34",
  "imdb_rating": "6.3",
  "duration": "5988",
  "category": "Фильмы",
  "genres": "Зарубежные,Триллеры,Ужасы",
  "vr_identifier": "Темное зеркало",
  "iframe": "https://www.ivi.ru/embeds/video/?subsite=1&autostart=0&videoid=224254"
}