{
  "content_id": "213568",
  "title": "Второй трагический Фантоцци",
  "orig_title": "Il secondo tragico Fantozzi",
  "release_date": "1976",
  "orig_country": "Италия",
  "lang": "Итальянский",
  "restrict": "16+",
  "kinopoisk_id": "103356",
  "kinopoisk_rating": "7.58",
  "imdb_rating": "7.8",
  "duration": "6301",
  "category": "Фильмы",
  "genres": "Зарубежные,Комедии,Экранизации",
  "vr_identifier": "Второй трагический Фантоцци",
  "iframe": "https://www.ivi.ru/embeds/video/?subsite=1&autostart=0&videoid=213568"
}