{
  "content_id": "224296",
  "title": "Святая Агата",
  "orig_title": "St. Agatha",
  "release_date": "2018",
  "orig_country": "США",
  "lang": "Английский",
  "restrict": "18+",
  "kinopoisk_id": "1037328",
  "kinopoisk_rating": "4.75",
  "imdb_rating": "5.4",
  "duration": "6174",
  "category": "Фильмы",
  "genres": "Драмы,Зарубежные,Триллеры,Ужасы",
  "vr_identifier": "Святая Агата",
  "iframe": "https://www.ivi.ru/embeds/video/?subsite=1&autostart=0&videoid=224296"
}