{
  "content_id": "352529",
  "title": "Лес",
  "release_date": "2018",
  "orig_country": "Россия",
  "lang": "Русский",
  "restrict": "18+",
  "kinopoisk_id": "1041718",
  "kinopoisk_rating": "6.29",
  "imdb_rating": "6.4",
  "duration": "6056",
  "category": "Фильмы",
  "genres": "Драмы,Русские",
  "vr_identifier": "Лес",
  "iframe": "https://www.ivi.ru/embeds/video/?subsite=1&autostart=0&videoid=352529"
}