{
  "content_id": "186920",
  "title": "Сердечная недостаточность",
  "release_date": "2016",
  "orig_country": "Россия",
  "lang": "Русский",
  "restrict": "12+",
  "kinopoisk_id": "1043778",
  "kinopoisk_rating": "0",
  "duration": "5445",
  "category": "Фильмы",
  "genres": "Драмы,Русские",
  "vr_identifier": "Сердечная недостаточность",
  "iframe": "https://www.ivi.ru/embeds/video/?subsite=1&autostart=0&videoid=186920"
}