{
  "content_id": "220808",
  "title": "Ой, ребята, та-ра-ра",
  "release_date": "1992",
  "orig_country": "Россия",
  "lang": "Русский",
  "restrict": "6+",
  "kinopoisk_id": "1044202",
  "duration": "3114",
  "category": "Мультфильмы",
  "genres": "Для всей семьи,Для детей,Русские,Русские мультфильмы,Сказки",
  "vr_identifier": "Ой, ребята, та-ра-ра",
  "iframe": "https://www.ivi.ru/embeds/video/?subsite=1&autostart=0&videoid=220808"
}