{
  "content_id": "209648",
  "title": "Глубокие реки (на кабардино-черкесском языке с русскими субтитрами)",
  "release_date": "2018",
  "orig_country": "Россия",
  "lang": "Русский",
  "restrict": "16+",
  "kinopoisk_id": "1044099",
  "kinopoisk_rating": "6.48",
  "duration": "4427",
  "category": "Фильмы",
  "genres": "Артхаус,Драмы,Русские",
  "vr_identifier": "Глубокие реки",
  "iframe": "https://www.ivi.ru/embeds/video/?subsite=1&autostart=0&videoid=209648"
}