{
  "content_id": "220692",
  "title": "Будь здоров зеленый лес",
  "release_date": "1976",
  "orig_country": "СССР",
  "lang": "Русский",
  "restrict": "0+",
  "kinopoisk_id": "1044849",
  "duration": "606",
  "category": "Мультфильмы",
  "genres": "Для всей семьи,Для детей,Приключения,Русские мультфильмы,Советские",
  "vr_identifier": "Будь здоров зеленый лес",
  "iframe": "https://www.ivi.ru/embeds/video/?subsite=1&autostart=0&videoid=220692"
}