{
  "content_id": "202264",
  "title": "Она",
  "orig_title": "Alone",
  "release_date": "2017",
  "orig_country": "Казахстан",
  "lang": "Русский",
  "restrict": "16+",
  "kinopoisk_id": "1045492",
  "kinopoisk_rating": "5.33",
  "imdb_rating": "6.3",
  "duration": "3847",
  "category": "Фильмы",
  "genres": "Драмы,Русские,Триллеры",
  "vr_identifier": "Она",
  "iframe": "https://www.ivi.ru/embeds/video/?subsite=1&autostart=0&videoid=202264"
}