{
  "content_id": "408227",
  "title": "Брат или Брак",
  "release_date": "2017",
  "orig_country": "Казахстан",
  "lang": "Русский",
  "restrict": "12+",
  "kinopoisk_id": "1045812",
  "kinopoisk_rating": "6.18",
  "duration": "5186",
  "category": "Фильмы",
  "genres": "Для всей семьи,Зарубежные,Комедии",
  "vr_identifier": "Брат или Брак",
  "iframe": "https://www.ivi.ru/embeds/video/?subsite=1&autostart=0&videoid=408227"
}