{
  "content_id": "185849",
  "title": "Непрощенный",
  "release_date": "2018",
  "orig_country": "Россия",
  "lang": "Русский",
  "restrict": "16+",
  "kinopoisk_id": "1045777",
  "kinopoisk_rating": "6.67",
  "imdb_rating": "6.3",
  "duration": "6254",
  "category": "Фильмы",
  "genres": "Драмы,Русские",
  "vr_identifier": "Непрощенный",
  "iframe": "https://www.ivi.ru/embeds/video/?subsite=1&autostart=0&videoid=185849"
}