{
  "content_id": "192692",
  "title": "На Париж",
  "release_date": "2019",
  "orig_country": "Россия",
  "lang": "Русский",
  "restrict": "18+",
  "kinopoisk_id": "1046486",
  "kinopoisk_rating": "5.19",
  "imdb_rating": "3.3",
  "duration": "5711",
  "category": "Фильмы",
  "genres": "Военные,Исторические,Комедии,Приключения,Русские",
  "vr_identifier": "На Париж",
  "iframe": "https://www.ivi.ru/embeds/video/?subsite=1&autostart=0&videoid=192692"
}