{
  "content_id": "191493",
  "title": "Проигранное место",
  "release_date": "2018",
  "orig_country": "Россия",
  "lang": "Русский",
  "restrict": "16+",
  "kinopoisk_id": "1046197",
  "kinopoisk_rating": "4.05",
  "imdb_rating": "2.8",
  "duration": "5506",
  "category": "Фильмы",
  "genres": "Русские,Триллеры,Ужасы",
  "vr_identifier": "Проигранное место",
  "iframe": "https://www.ivi.ru/embeds/video/?subsite=1&autostart=0&videoid=191493"
}