{
  "content_id": "223853",
  "title": "Из жизни марионеток",
  "orig_title": "Aus dem Leben der Marionetten",
  "release_date": "1980",
  "orig_country": "Швеция",
  "lang": "Шведский",
  "restrict": "18+",
  "kinopoisk_id": "104824",
  "kinopoisk_rating": "7.7",
  "imdb_rating": "7.5",
  "duration": "5964",
  "category": "Фильмы",
  "genres": "Драмы,Зарубежные,Мировая классика,Триллеры",
  "vr_identifier": "Из жизни марионеток",
  "iframe": "https://www.ivi.ru/embeds/video/?subsite=1&autostart=0&videoid=223853"
}