{
  "content_id": "198759",
  "title": "Пышка",
  "orig_title": "Dumplin'",
  "release_date": "2018",
  "orig_country": "США",
  "lang": "Английский",
  "restrict": "16+",
  "kinopoisk_id": "1048333",
  "kinopoisk_rating": "5.86",
  "imdb_rating": "6.7",
  "duration": "6310",
  "category": "Фильмы",
  "genres": "Драмы,Зарубежные,Комедии",
  "vr_identifier": "Пышка",
  "iframe": "https://www.ivi.ru/embeds/video/?subsite=1&autostart=0&videoid=198759"
}