{
  "content_id": "198783",
  "title": "Женщины против мужчин: Крымские каникулы",
  "release_date": "2018",
  "orig_country": "Россия",
  "lang": "Русский",
  "restrict": "16+",
  "kinopoisk_id": "1049561",
  "kinopoisk_rating": "3.89",
  "imdb_rating": "6.7",
  "duration": "4547",
  "category": "Фильмы",
  "genres": "Комедии,Русские",
  "vr_identifier": "Женщины против мужчин: Крымские каникулы",
  "iframe": "https://www.ivi.ru/embeds/video/?subsite=1&autostart=0&videoid=198783"
}