{
  "content_id": "192051",
  "title": "Блюз для сентября",
  "release_date": "2016",
  "orig_country": "Россия",
  "lang": "Русский",
  "restrict": "12+",
  "kinopoisk_id": "1049528",
  "kinopoisk_rating": "5.63",
  "duration": "5474",
  "category": "Фильмы",
  "genres": "Мелодрамы,Русские",
  "vr_identifier": "Блюз для сентября",
  "iframe": "https://www.ivi.ru/embeds/video/?subsite=1&autostart=0&videoid=192051"
}