{
  "content_id": "225408",
  "title": "Правило Кубертена",
  "release_date": "2017",
  "orig_country": "Россия",
  "lang": "Русский",
  "restrict": "0+",
  "kinopoisk_id": "1049295",
  "kinopoisk_rating": "0",
  "duration": "3256",
  "category": "Фильмы",
  "genres": "Документальные,Русские",
  "vr_identifier": "Правило Кубертена",
  "iframe": "https://www.ivi.ru/embeds/video/?subsite=1&autostart=0&videoid=225408"
}