{
  "content_id": "202239",
  "title": "Морис Ришар",
  "orig_title": "Maurice Richard",
  "release_date": "2005",
  "orig_country": "Канада",
  "lang": "Французский",
  "restrict": "16+",
  "kinopoisk_id": "105925",
  "kinopoisk_rating": "7.68",
  "imdb_rating": "7.7",
  "duration": "7415",
  "category": "Фильмы",
  "genres": "Биография,Драмы,Зарубежные,Спорт",
  "vr_identifier": "Морис Ришар. Ракета",
  "iframe": "https://www.ivi.ru/embeds/video/?subsite=1&autostart=0&videoid=202239"
}