{
  "content_id": "138106",
  "title": "Рисующий кровью",
  "orig_title": "Drawn in Blood",
  "release_date": "2006",
  "orig_country": "Германия",
  "restrict": "16+",
  "kinopoisk_id": "105964",
  "kinopoisk_rating": "0",
  "imdb_rating": "5.6",
  "duration": "5549",
  "category": "Фильмы",
  "genres": "Детективы,Драмы,Зарубежные,Триллеры",
  "vr_identifier": "Рисующий кровью",
  "iframe": "https://www.ivi.ru/embeds/video/?subsite=1&autostart=0&videoid=138106"
}