{
  "content_id": "154336",
  "title": "Музыкальная шкатулка",
  "orig_title": "The Music Box",
  "release_date": "2018",
  "orig_country": "Италия",
  "lang": "Английский",
  "restrict": "18+",
  "kinopoisk_id": "1060428",
  "duration": "5080",
  "category": "Фильмы",
  "genres": "Зарубежные,Триллеры",
  "vr_identifier": "Музыкальная шкатулка",
  "iframe": "https://www.ivi.ru/embeds/video/?subsite=1&autostart=0&videoid=154336"
}