{
  "content_id": "212210",
  "title": "Свинья",
  "orig_title": "The Pig",
  "release_date": "2018",
  "orig_country": "Иран",
  "restrict": "18+",
  "kinopoisk_id": "1062316",
  "kinopoisk_rating": "6.43",
  "imdb_rating": "6.2",
  "duration": "6502",
  "category": "Фильмы",
  "genres": "Драмы,Зарубежные,Комедии,Триллеры",
  "vr_identifier": "Свинья",
  "iframe": "https://www.ivi.ru/embeds/video/?subsite=1&autostart=0&videoid=212210"
}