{
  "content_id": "220631",
  "title": "Ангел",
  "orig_title": "El Ángel",
  "release_date": "2018",
  "orig_country": "Аргентина",
  "lang": "Испанский",
  "restrict": "18+",
  "kinopoisk_id": "1064391",
  "kinopoisk_rating": "6.69",
  "imdb_rating": "7.1",
  "duration": "6869",
  "category": "Фильмы",
  "genres": "Биография,Драмы,Зарубежные,Криминал",
  "vr_identifier": "Ангел",
  "iframe": "https://www.ivi.ru/embeds/video/?subsite=1&autostart=0&videoid=220631"
}