{
  "content_id": "412063",
  "title": "Мой друг Зигмунд Фрейд",
  "orig_title": "Der Trafikant",
  "release_date": "2018",
  "orig_country": "Австрия",
  "lang": "Немецкий",
  "restrict": "18+",
  "kinopoisk_id": "1092238",
  "imdb_rating": "6.5",
  "duration": "6794",
  "category": "Фильмы",
  "genres": "Драмы,Зарубежные,Исторические",
  "vr_identifier": "Мой друг - Зигмунд Фрейд",
  "iframe": "https://www.ivi.ru/embeds/video/?subsite=1&autostart=0&videoid=412063"
}