{
  "content_id": "226618",
  "title": "Под водой",
  "release_date": "2018",
  "orig_country": "Россия",
  "lang": "Русский",
  "restrict": "16+",
  "kinopoisk_id": "1103853",
  "kinopoisk_rating": "5.77",
  "duration": "286",
  "category": "Фильмы",
  "genres": "Короткометражки,Мистические,Русские,Триллеры",
  "vr_identifier": "Под водой",
  "iframe": "https://www.ivi.ru/embeds/video/?subsite=1&autostart=0&videoid=226618"
}