{
  "content_id": "412960",
  "title": "Подделка",
  "orig_title": "Counterfeit Kunkoo",
  "release_date": "2018",
  "orig_country": "Индия",
  "lang": "Хинди",
  "restrict": "12+",
  "kinopoisk_id": "1107097",
  "duration": "897",
  "category": "Фильмы",
  "genres": "Короткометражки",
  "vr_identifier": "Подделка",
  "iframe": "https://www.ivi.ru/embeds/video/?subsite=1&autostart=0&videoid=412960"
}