{
  "content_id": "192058",
  "title": "Сказки рублевского леса",
  "release_date": "2017",
  "orig_country": "Россия",
  "lang": "Русский",
  "restrict": "12+",
  "kinopoisk_id": "1111661",
  "kinopoisk_rating": "5.26",
  "duration": "5478",
  "category": "Фильмы",
  "genres": "Мелодрамы,Русские",
  "vr_identifier": "Сказки Рублевского леса",
  "iframe": "https://www.ivi.ru/embeds/video/?subsite=1&autostart=0&videoid=192058"
}