{
  "content_id": "212257",
  "title": "Мама навсегда",
  "release_date": "2018",
  "orig_country": "Россия",
  "lang": "Русский",
  "restrict": "18+",
  "kinopoisk_id": "1112993",
  "kinopoisk_rating": "6.54",
  "duration": "4696",
  "category": "Фильмы",
  "genres": "Драмы,Русские",
  "vr_identifier": "Мама навсегда",
  "iframe": "https://www.ivi.ru/embeds/video/?subsite=1&autostart=0&videoid=212257"
}