{
  "content_id": "184329",
  "title": "Виолончель",
  "release_date": "2008",
  "orig_country": "Россия",
  "lang": "Русский",
  "restrict": "6+",
  "kinopoisk_id": "1112270",
  "duration": "387",
  "category": "Мультфильмы",
  "genres": "Для детей,Русские,Русские мультфильмы",
  "vr_identifier": "Виолончель",
  "iframe": "https://www.ivi.ru/embeds/video/?subsite=1&autostart=0&videoid=184329"
}