{
  "content_id": "210571",
  "title": "Секс мода диско (на английском языке с русскими субтитрами)",
  "orig_title": "Antonio Lopez 1970: Sex Fashion & Disco",
  "release_date": "2017",
  "orig_country": "США",
  "lang": "Английский",
  "restrict": "18+",
  "kinopoisk_id": "1112379",
  "kinopoisk_rating": "0",
  "imdb_rating": "6.7",
  "duration": "5724",
  "category": "Фильмы",
  "genres": "Биография,Документальные,Зарубежные",
  "vr_identifier": "Секс мода диско",
  "iframe": "https://www.ivi.ru/embeds/video/?subsite=1&autostart=0&videoid=210571"
}