{
  "content_id": "224375",
  "title": "Честный человек",
  "orig_title": "L'homme fidele",
  "release_date": "2018",
  "orig_country": "Франция",
  "lang": "Французский",
  "restrict": "18+",
  "kinopoisk_id": "1113122",
  "kinopoisk_rating": "6.4",
  "imdb_rating": "6.3",
  "duration": "4503",
  "category": "Фильмы",
  "genres": "Драмы,Зарубежные,Комедии,Мелодрамы",
  "vr_identifier": "Честный человек",
  "iframe": "https://www.ivi.ru/embeds/video/?subsite=1&autostart=0&videoid=224375"
}