{
  "content_id": "193398",
  "title": "Решение о ликвидации",
  "release_date": "2018",
  "orig_country": "Россия",
  "lang": "Русский",
  "restrict": "12+",
  "kinopoisk_id": "1118194",
  "kinopoisk_rating": "5.99",
  "imdb_rating": "5.5",
  "duration": "5535",
  "category": "Фильмы",
  "genres": "Боевики,Военные,Драмы,Русские",
  "vr_identifier": "Решение о ликвидации",
  "iframe": "https://www.ivi.ru/embeds/video/?subsite=1&autostart=0&videoid=193398"
}