{
  "content_id": "154337",
  "title": "Кровь викингов",
  "orig_title": "Viking Blood",
  "release_date": "2019",
  "orig_country": "Дания",
  "lang": "Датский",
  "restrict": "18+",
  "kinopoisk_id": "1128258",
  "duration": "5322",
  "category": "Фильмы",
  "genres": "Боевики,Зарубежные",
  "vr_identifier": "Кровь викингов",
  "iframe": "https://www.ivi.ru/embeds/video/?subsite=1&autostart=0&videoid=154337"
}