{
  "content_id": "412942",
  "title": "Все эти создания",
  "orig_title": "All these creatures",
  "release_date": "2018",
  "orig_country": "Австралия",
  "lang": "Английский",
  "restrict": "12+",
  "kinopoisk_id": "1142509",
  "duration": "790",
  "category": "Фильмы",
  "genres": "Короткометражки",
  "vr_identifier": "Все эти создания",
  "iframe": "https://www.ivi.ru/embeds/video/?subsite=1&autostart=0&videoid=412942"
}