{
  "content_id": "227715",
  "title": "Серия 1",
  "compilation_id": "11943",
  "compilation": "Кем мы не станем",
  "release_date": "2018",
  "orig_country": "Россия",
  "lang": "Русский",
  "restrict": "12+",
  "kinopoisk_id": "1142530",
  "episode": "1",
  "duration": "2686",
  "category": "Фильмы",
  "genres": "Мелодрамы,Русские",
  "vr_identifier": "Кем мы не станем",
  "iframe": "https://www.ivi.ru/embeds/video/?subsite=1&autostart=0&videoid=227715"
}