{
  "content_id": "86876",
  "title": "Буги Бой",
  "orig_title": "Boogie Boy",
  "release_date": "1998",
  "orig_country": "США",
  "lang": "Английский",
  "restrict": "16+",
  "kinopoisk_id": "11482",
  "kinopoisk_rating": "5.82",
  "imdb_rating": "5.3",
  "duration": "6180",
  "category": "Фильмы",
  "genres": "Детективы,Зарубежные,Триллеры",
  "vr_identifier": "Буги Бой",
  "iframe": "https://www.ivi.ru/embeds/video/?subsite=1&autostart=0&videoid=86876"
}