{
  "content_id": "236624",
  "title": "Прибой",
  "release_date": "2018",
  "orig_country": "Россия",
  "lang": "Русский",
  "restrict": "12+",
  "kinopoisk_id": "1161775",
  "kinopoisk_rating": "7.3",
  "duration": "4724",
  "category": "Фильмы",
  "genres": "Документальные,Приключения,Русские",
  "vr_identifier": "Прибой",
  "iframe": "https://www.ivi.ru/embeds/video/?subsite=1&autostart=0&videoid=236624"
}