{
  "content_id": "13941",
  "title": "Прекрасная ложь",
  "orig_title": "La hermosa mentira",
  "release_date": "1958",
  "orig_country": "Аргентина",
  "lang": "Испанский",
  "restrict": "12+",
  "kinopoisk_id": "117245",
  "kinopoisk_rating": "6.14",
  "imdb_rating": "6.3",
  "duration": "5788",
  "category": "Фильмы",
  "genres": "Зарубежные,Комедии,Мюзикл",
  "vr_identifier": "Прекрасная ложь",
  "iframe": "https://www.ivi.ru/embeds/video/?subsite=1&autostart=0&videoid=13941"
}