{
  "content_id": "154329",
  "title": "Война викингов",
  "orig_title": "The Viking War",
  "release_date": "2019",
  "orig_country": "Великобритания",
  "lang": "Английский",
  "restrict": "18+",
  "kinopoisk_id": "1175193",
  "duration": "5966",
  "category": "Фильмы",
  "genres": "Боевики,Зарубежные,Исторические",
  "vr_identifier": "Война викингов",
  "iframe": "https://www.ivi.ru/embeds/video/?subsite=1&autostart=0&videoid=154329"
}