{
  "content_id": "222145",
  "title": "Лев Яшин – №1",
  "release_date": "2018",
  "orig_country": "Россия",
  "lang": "Русский",
  "restrict": "6+",
  "kinopoisk_id": "1177720",
  "kinopoisk_rating": "0",
  "duration": "4133",
  "category": "Фильмы",
  "genres": "Документальные,Русские,Спорт",
  "vr_identifier": "Лев Яшин – №1",
  "iframe": "https://www.ivi.ru/embeds/video/?subsite=1&autostart=0&videoid=222145"
}