{
  "content_id": "363157",
  "title": "Бизнесмены",
  "orig_title": "Biznesmeny",
  "release_date": "2018",
  "orig_country": "Казахстан",
  "lang": "Русский",
  "restrict": "16+",
  "kinopoisk_id": "1190148",
  "kinopoisk_rating": "6.51",
  "imdb_rating": "7.4",
  "duration": "5656",
  "category": "Фильмы",
  "genres": "Драмы,Криминал",
  "vr_identifier": "Бизнесмены",
  "iframe": "https://www.ivi.ru/embeds/video/?subsite=1&autostart=0&videoid=363157"
}