{
  "content_id": "226619",
  "title": "Метафора",
  "release_date": "2013",
  "orig_country": "Россия",
  "lang": "Русский",
  "restrict": "12+",
  "kinopoisk_id": "1195475",
  "kinopoisk_rating": "0",
  "duration": "660",
  "category": "Фильмы",
  "genres": "Драмы,Короткометражки,Русские",
  "vr_identifier": "Метафора",
  "iframe": "https://www.ivi.ru/embeds/video/?subsite=1&autostart=0&videoid=226619"
}