{
  "content_id": "234873",
  "title": "Водяная",
  "release_date": "2019",
  "orig_country": "Россия",
  "lang": "Русский",
  "restrict": "12+",
  "kinopoisk_id": "1199801",
  "kinopoisk_rating": "4.22",
  "duration": "5127",
  "category": "Фильмы",
  "genres": "Для всей семьи,Для детей,Приключения,Русские,Фэнтези",
  "vr_identifier": "Водяная",
  "iframe": "https://www.ivi.ru/embeds/video/?subsite=1&autostart=0&videoid=234873"
}