{
  "content_id": "314195",
  "title": "Русское краткое. Выпуск 2",
  "release_date": "2018",
  "orig_country": "Россия",
  "lang": "Русский",
  "restrict": "18+",
  "kinopoisk_id": "1214053",
  "kinopoisk_rating": "5.68",
  "duration": "5889",
  "category": "Фильмы",
  "genres": "Драмы,Комедии,Русские,Ужасы",
  "vr_identifier": "Русское краткое. Выпуск 2",
  "iframe": "https://www.ivi.ru/embeds/video/?subsite=1&autostart=0&videoid=314195"
}