{
  "content_id": "154326",
  "title": "Не попадись",
  "orig_title": "Don't Get Caught",
  "release_date": "2018",
  "orig_country": "США",
  "lang": "Английский",
  "restrict": "18+",
  "kinopoisk_id": "1219680",
  "duration": "4705",
  "category": "Фильмы",
  "genres": "Боевики,Зарубежные,Комедии",
  "vr_identifier": "Не попадись",
  "iframe": "https://www.ivi.ru/embeds/video/?subsite=1&autostart=0&videoid=154326"
}