{
  "content_id": "390509",
  "title": "Русское краткое. Выпуск 3",
  "release_date": "2019",
  "orig_country": "Россия",
  "lang": "Русский",
  "restrict": "16+",
  "kinopoisk_id": "1231421",
  "kinopoisk_rating": "5.47",
  "duration": "6091",
  "category": "Фильмы",
  "genres": "Драмы,Комедии,Русские",
  "vr_identifier": "Русское Краткое. Выпуск 3",
  "iframe": "https://www.ivi.ru/embeds/video/?subsite=1&autostart=0&videoid=390509"
}