{
  "content_id": "154322",
  "title": "Налет Грейхаундов",
  "orig_title": "Greyhound Attack",
  "release_date": "2019",
  "orig_country": "США",
  "lang": "Английский",
  "restrict": "18+",
  "kinopoisk_id": "1237800",
  "duration": "4810",
  "category": "Фильмы",
  "genres": "Боевики,Военные,Драмы",
  "vr_identifier": "Налет Грейхаундов",
  "iframe": "https://www.ivi.ru/embeds/video/?subsite=1&autostart=0&videoid=154322"
}