{
  "content_id": "54862",
  "title": "Территория тьмы 3D",
  "orig_title": "Dark Country",
  "release_date": "2009",
  "orig_country": "США",
  "lang": "Английский",
  "restrict": "16+",
  "kinopoisk_id": "124716",
  "kinopoisk_rating": "5.18",
  "imdb_rating": "5.3",
  "duration": "5280",
  "category": "Фильмы",
  "genres": "Детективы,Зарубежные,Криминал,Триллеры",
  "vr_identifier": "Территория тьмы",
  "iframe": "https://www.ivi.ru/embeds/video/?subsite=1&autostart=0&videoid=54862"
}