{
  "content_id": "411594",
  "title": "Вертинский. Одинокий странник",
  "release_date": "2019",
  "orig_country": "Россия",
  "lang": "Русский",
  "restrict": "12+",
  "kinopoisk_id": "1259222",
  "duration": "3120",
  "category": "Фильмы",
  "genres": "Биография,Документальные,Русские",
  "vr_identifier": "Вертинский. Одинокий странник",
  "iframe": "https://www.ivi.ru/embeds/video/?subsite=1&autostart=0&videoid=411594"
}