{
  "content_id": "52698",
  "title": "Антарктида",
  "orig_title": "Antártida",
  "release_date": "1995",
  "orig_country": "Испания",
  "lang": "Испанский",
  "restrict": "16+",
  "kinopoisk_id": "135428",
  "kinopoisk_rating": "0",
  "imdb_rating": "6.3",
  "duration": "5846",
  "category": "Фильмы",
  "genres": "Драмы,Зарубежные",
  "vr_identifier": "Антарктида",
  "iframe": "https://www.ivi.ru/embeds/video/?subsite=1&autostart=0&videoid=52698"
}