{
  "content_id": "132447",
  "title": "Васаби",
  "orig_title": "Wasabi",
  "release_date": "2001",
  "orig_country": "Франция",
  "lang": "Французский",
  "restrict": "16+",
  "kinopoisk_id": "14288",
  "kinopoisk_rating": "7.64",
  "imdb_rating": "6.7",
  "duration": "5640",
  "category": "Фильмы",
  "genres": "Боевики,Драмы,Зарубежные,Комедии,Криминал,Триллеры",
  "vr_identifier": "Васаби",
  "iframe": "https://www.ivi.ru/embeds/video/?subsite=1&autostart=0&videoid=132447"
}