{
  "content_id": "87647",
  "title": "Фанфан-тюльпан",
  "orig_title": "Fanfan la Tulipe",
  "release_date": "2003",
  "orig_country": "Франция",
  "lang": "Французский",
  "restrict": "12+",
  "kinopoisk_id": "14336",
  "kinopoisk_rating": "6.6",
  "imdb_rating": "5.7",
  "duration": "5820",
  "category": "Фильмы",
  "genres": "Для всей семьи,Зарубежные,Комедии,Мелодрамы,Приключения",
  "vr_identifier": "Фанфан-тюльпан",
  "iframe": "https://www.ivi.ru/embeds/video/?subsite=1&autostart=0&videoid=87647"
}