{
  "content_id": "60540",
  "title": "Эйр Америка",
  "orig_title": "Air America",
  "release_date": "1990",
  "orig_country": "США",
  "lang": "Английский",
  "restrict": "16+",
  "kinopoisk_id": "15060",
  "kinopoisk_rating": "7.03",
  "imdb_rating": "5.8",
  "duration": "6480",
  "category": "Фильмы",
  "genres": "Боевики,Зарубежные,Комедии",
  "vr_identifier": "Эйр Америка",
  "iframe": "https://www.ivi.ru/embeds/video/?subsite=1&autostart=0&videoid=60540"
}