{
  "content_id": "223851",
  "title": "Страсть",
  "orig_title": "En passion",
  "release_date": "1969",
  "orig_country": "Швеция",
  "lang": "Шведский",
  "restrict": "16+",
  "kinopoisk_id": "15174",
  "kinopoisk_rating": "7.72",
  "imdb_rating": "7.8",
  "duration": "5774",
  "category": "Фильмы",
  "genres": "Драмы,Зарубежные,Мировая классика",
  "vr_identifier": "Страсть",
  "iframe": "https://www.ivi.ru/embeds/video/?subsite=1&autostart=0&videoid=223851"
}