{
  "content_id": "70379",
  "title": "Эммануэль в тюрьме",
  "orig_title": "Blade Violent - I violenti",
  "release_date": "1983",
  "orig_country": "Италия",
  "lang": "Французский",
  "restrict": "16+",
  "kinopoisk_id": "159789",
  "kinopoisk_rating": "4.3",
  "imdb_rating": "4.9",
  "duration": "5340",
  "category": "Фильмы",
  "genres": "Боевики,Драмы,Зарубежные,Мелодрамы",
  "vr_identifier": "BLADE VIOLENT",
  "iframe": "https://www.ivi.ru/embeds/video/?subsite=1&autostart=0&videoid=70379"
}