{
  "content_id": "315547",
  "title": "Ворчун",
  "orig_title": "Il burbero",
  "release_date": "1986",
  "orig_country": "Италия",
  "lang": "Итальянский",
  "restrict": "12+",
  "kinopoisk_id": "160953",
  "kinopoisk_rating": "7.71",
  "imdb_rating": "6.3",
  "duration": "6037",
  "category": "Фильмы",
  "genres": "Зарубежные,Комедии,Приключения",
  "vr_identifier": "Ворчун",
  "iframe": "https://www.ivi.ru/embeds/video/?subsite=1&autostart=0&videoid=315547"
}