{
  "content_id": "89621",
  "title": "Библиотекарь: В поисках копья судьбы",
  "orig_title": "The Librarian: Quest for the Spear",
  "release_date": "2004",
  "orig_country": "США",
  "lang": "Английский",
  "restrict": "12+",
  "kinopoisk_id": "161030",
  "kinopoisk_rating": "6.69",
  "imdb_rating": "6.3",
  "duration": "5640",
  "category": "Фильмы",
  "genres": "Зарубежные,Комедии,Приключения,Фэнтези",
  "vr_identifier": "Библиотекарь: В поисках копья судьбы",
  "iframe": "https://www.ivi.ru/embeds/video/?subsite=1&autostart=0&videoid=89621"
}