{
  "content_id": "165532",
  "title": "Только мертвые знают",
  "orig_title": "The Dead Will Tell",
  "release_date": "2004",
  "orig_country": "США",
  "lang": "Английский",
  "restrict": "16+",
  "kinopoisk_id": "161031",
  "kinopoisk_rating": "5.75",
  "imdb_rating": "5",
  "duration": "5410",
  "category": "Фильмы",
  "genres": "Детективы,Драмы,Зарубежные,Триллеры",
  "vr_identifier": "DEAD WILL TELL, THE",
  "iframe": "https://www.ivi.ru/embeds/video/?subsite=1&autostart=0&videoid=165532"
}