{
  "content_id": "2657",
  "title": "Никто не знает про секс",
  "release_date": "2006",
  "orig_country": "Россия",
  "lang": "Русский",
  "restrict": "16+",
  "kinopoisk_id": "161100",
  "kinopoisk_rating": "3.02",
  "imdb_rating": "3.4",
  "duration": "6010",
  "category": "Фильмы",
  "genres": "Комедии,Русские",
  "vr_identifier": "CP0251",
  "iframe": "https://www.ivi.ru/embeds/video/?subsite=1&autostart=0&videoid=2657"
}