{
  "content_id": "307339",
  "title": "Тройное эхо",
  "orig_title": "The Triple Echo",
  "release_date": "1972",
  "orig_country": "Великобритания",
  "lang": "Английский",
  "restrict": "16+",
  "kinopoisk_id": "17524",
  "kinopoisk_rating": "0",
  "imdb_rating": "7.4",
  "duration": "5359",
  "category": "Фильмы",
  "genres": "Военные,Драмы,Зарубежные",
  "vr_identifier": "Тройное эхо",
  "iframe": "https://www.ivi.ru/embeds/video/?subsite=1&autostart=0&videoid=307339"
}