{
  "content_id": "218208",
  "title": "Дорога никуда",
  "release_date": "1992",
  "orig_country": "Украина",
  "lang": "Русский",
  "restrict": "12+",
  "kinopoisk_id": "179304",
  "kinopoisk_rating": "6.51",
  "imdb_rating": "5.5",
  "duration": "4252",
  "category": "Фильмы",
  "genres": "Драмы,Зарубежные,Экранизации",
  "vr_identifier": "Дорога никуда",
  "iframe": "https://www.ivi.ru/embeds/video/?subsite=1&autostart=0&videoid=218208"
}