{
  "content_id": "96723",
  "title": "Жареные зеленые помидоры",
  "orig_title": "Fried Green Tomatoes",
  "release_date": "1991",
  "orig_country": "США",
  "lang": "Английский",
  "restrict": "12+",
  "kinopoisk_id": "18139",
  "kinopoisk_rating": "7.7",
  "imdb_rating": "7.7",
  "duration": "7854",
  "category": "Фильмы",
  "genres": "Драмы,Зарубежные",
  "vr_identifier": "Жареные зеленые помидоры",
  "iframe": "https://www.ivi.ru/embeds/video/?subsite=1&autostart=0&videoid=96723"
}