{
  "content_id": "114791",
  "title": "Легионер",
  "orig_title": "Legionnaire",
  "release_date": "1998",
  "orig_country": "США",
  "lang": "Английский",
  "restrict": "16+",
  "kinopoisk_id": "18847",
  "kinopoisk_rating": "6.78",
  "imdb_rating": "5.4",
  "duration": "5672",
  "category": "Фильмы",
  "genres": "Боевики,Военные,Драмы,Зарубежные,Приключения",
  "vr_identifier": "Легионер",
  "iframe": "https://www.ivi.ru/embeds/video/?subsite=1&autostart=0&videoid=114791"
}