{
  "content_id": "87667",
  "title": "Черное Рождество",
  "orig_title": "Black Christmas",
  "release_date": "2006",
  "orig_country": "США",
  "lang": "Английский",
  "restrict": "16+",
  "kinopoisk_id": "189713",
  "kinopoisk_rating": "5.19",
  "imdb_rating": "4.6",
  "duration": "4872",
  "category": "Фильмы",
  "genres": "Зарубежные,Триллеры,Ужасы",
  "vr_identifier": "Черное рождество",
  "iframe": "https://www.ivi.ru/embeds/video/?subsite=1&autostart=0&videoid=87667"
}