{
  "content_id": "57318",
  "title": "Шаманы пустыни",
  "orig_title": "Desert Saints",
  "release_date": "2002",
  "orig_country": "США",
  "lang": "Английский",
  "restrict": "16+",
  "kinopoisk_id": "1955",
  "kinopoisk_rating": "6.52",
  "imdb_rating": "6",
  "duration": "5090",
  "category": "Фильмы",
  "genres": "Боевики,Зарубежные,Триллеры",
  "vr_identifier": "Шаманы пустыни",
  "iframe": "https://www.ivi.ru/embeds/video/?subsite=1&autostart=0&videoid=57318"
}