{
  "content_id": "15085",
  "title": "Двенадцатая ночь",
  "release_date": "1955",
  "orig_country": "СССР",
  "lang": "Русский",
  "restrict": "12+",
  "kinopoisk_id": "195661",
  "kinopoisk_rating": "7.91",
  "imdb_rating": "7.3",
  "duration": "5118",
  "category": "Фильмы",
  "genres": "Для всей семьи,Комедии,Мелодрамы,Советское кино",
  "vr_identifier": "Двенадцатая ночь",
  "iframe": "https://www.ivi.ru/embeds/video/?subsite=1&autostart=0&videoid=15085"
}