{
  "content_id": "31859",
  "title": "Переход товарища Чкалова через Северный полюс",
  "release_date": "1990",
  "orig_country": "СССР",
  "lang": "Русский",
  "restrict": "12+",
  "kinopoisk_id": "197502",
  "kinopoisk_rating": "6.39",
  "imdb_rating": "6.5",
  "duration": "1363",
  "category": "Фильмы",
  "genres": "Комедии,Советское кино",
  "vr_identifier": "Переход товарища Чкалова через Северный полюс",
  "iframe": "https://www.ivi.ru/embeds/video/?subsite=1&autostart=0&videoid=31859"
}