{
  "content_id": "70186",
  "title": "Черный пес",
  "orig_title": "Black Dog",
  "release_date": "1998",
  "orig_country": "США",
  "lang": "Английский",
  "restrict": "12+",
  "kinopoisk_id": "1985",
  "kinopoisk_rating": "6.96",
  "imdb_rating": "5.4",
  "duration": "5096",
  "category": "Фильмы",
  "genres": "Боевики,Детективы,Драмы,Зарубежные,Триллеры",
  "vr_identifier": "Черный пес",
  "iframe": "https://www.ivi.ru/embeds/video/?subsite=1&autostart=0&videoid=70186"
}