{
  "content_id": "85127",
  "title": "Тени",
  "orig_title": "Shades",
  "release_date": "1999",
  "orig_country": "Бельгия",
  "restrict": "16+",
  "kinopoisk_id": "21586",
  "kinopoisk_rating": "5.69",
  "imdb_rating": "5.4",
  "duration": "5753",
  "category": "Фильмы",
  "genres": "Драмы,Зарубежные,Комедии",
  "vr_identifier": "Тени",
  "iframe": "https://www.ivi.ru/embeds/video/?subsite=1&autostart=0&videoid=85127"
}