{
  "content_id": "315563",
  "title": "Не отступать и не сдаваться",
  "orig_title": "No Retreat, No Surrender",
  "release_date": "1986",
  "orig_country": "США",
  "lang": "Английский",
  "restrict": "16+",
  "kinopoisk_id": "22081",
  "kinopoisk_rating": "6.74",
  "imdb_rating": "5.7",
  "duration": "5666",
  "category": "Фильмы",
  "genres": "Боевики,Драмы,Зарубежные,Криминал",
  "vr_identifier": "Не отступать и не сдаваться",
  "iframe": "https://www.ivi.ru/embeds/video/?subsite=1&autostart=0&videoid=315563"
}