{
  "content_id": "223839",
  "title": "К радости",
  "orig_title": "Till glädje",
  "release_date": "1950",
  "orig_country": "Швеция",
  "lang": "Шведский",
  "restrict": "16+",
  "kinopoisk_id": "220954",
  "kinopoisk_rating": "7.06",
  "imdb_rating": "7.3",
  "duration": "5668",
  "category": "Фильмы",
  "genres": "Драмы,Зарубежные",
  "vr_identifier": "К радости",
  "iframe": "https://www.ivi.ru/embeds/video/?subsite=1&autostart=0&videoid=223839"
}