{
  "content_id": "59465",
  "title": "Замыкая круг",
  "orig_title": "Closing the Ring",
  "release_date": "2007",
  "orig_country": "Великобритания",
  "lang": "Английский",
  "restrict": "16+",
  "kinopoisk_id": "220953",
  "kinopoisk_rating": "7.03",
  "imdb_rating": "6.6",
  "duration": "7080",
  "category": "Фильмы",
  "genres": "Драмы,Зарубежные,Мелодрамы",
  "vr_identifier": "Замыкая круг",
  "iframe": "https://www.ivi.ru/embeds/video/?subsite=1&autostart=0&videoid=59465"
}