{
  "content_id": "414779",
  "title": "Маша (2004)",
  "release_date": "2004",
  "orig_country": "Россия",
  "lang": "Русский",
  "restrict": "12+",
  "kinopoisk_id": "222209",
  "duration": "5141",
  "category": "Фильмы",
  "genres": "Драмы,Комедии,Русские",
  "vr_identifier": "Маша",
  "iframe": "https://www.ivi.ru/embeds/video/?subsite=1&autostart=0&videoid=414779"
}