{
  "content_id": "70373",
  "title": "Похоть",
  "orig_title": "L'alcova",
  "release_date": "1984",
  "orig_country": "Италия",
  "lang": "Итальянский",
  "restrict": "18+",
  "kinopoisk_id": "223337",
  "kinopoisk_rating": "4.58",
  "imdb_rating": "5",
  "duration": "5406",
  "category": "Фильмы",
  "genres": "Эротика",
  "vr_identifier": "THE ALCOVE",
  "iframe": "https://www.ivi.ru/embeds/video/?subsite=1&autostart=0&videoid=70373"
}