{
  "content_id": "218203",
  "title": "Дипломаты поневоле",
  "release_date": "1977",
  "orig_country": "СССР",
  "lang": "Русский",
  "restrict": "12+",
  "kinopoisk_id": "224301",
  "kinopoisk_rating": "0",
  "duration": "3858",
  "category": "Фильмы",
  "genres": "Комедии,Музыкальные,Советское кино",
  "vr_identifier": "Дипломаты поневоле",
  "iframe": "https://www.ivi.ru/embeds/video/?subsite=1&autostart=0&videoid=218203"
}