{
  "content_id": "167874",
  "title": "Дай лапу, Друг",
  "release_date": "1967",
  "orig_country": "СССР",
  "restrict": "12+",
  "kinopoisk_id": "225362",
  "kinopoisk_rating": "7.35",
  "imdb_rating": "7",
  "duration": "3893",
  "category": "Фильмы",
  "genres": "Для всей семьи,Советское кино",
  "vr_identifier": "Дай лапу, Друг",
  "iframe": "https://www.ivi.ru/embeds/video/?subsite=1&autostart=0&videoid=167874"
}