{
  "content_id": "49992",
  "title": "Приключения мышонка Переса",
  "orig_title": "El ratón Pérez",
  "release_date": "2006",
  "orig_country": "Аргентина",
  "lang": "Испанский",
  "restrict": "0+",
  "kinopoisk_id": "230520",
  "kinopoisk_rating": "5.37",
  "imdb_rating": "5.2",
  "duration": "5436",
  "category": "Фильмы",
  "genres": "Для всей семьи,Зарубежные,Комедии,Приключения,Фильмы",
  "vr_identifier": "Приключения мышонка Переса",
  "iframe": "https://www.ivi.ru/embeds/video/?subsite=1&autostart=0&videoid=49992"
}