{
  "content_id": "59502",
  "title": "Глава 27",
  "orig_title": "Chapter 27",
  "release_date": "2007",
  "orig_country": "США",
  "lang": "Английский",
  "restrict": "16+",
  "kinopoisk_id": "231080",
  "kinopoisk_rating": "6.82",
  "imdb_rating": "5.7",
  "duration": "5067",
  "category": "Фильмы",
  "genres": "Биография,Детективы,Драмы,Зарубежные,Исторические",
  "vr_identifier": "Глава 27",
  "iframe": "https://www.ivi.ru/embeds/video/?subsite=1&autostart=0&videoid=59502"
}