{
  "content_id": "100031",
  "title": "Казино",
  "orig_title": "Casino",
  "release_date": "1995",
  "orig_country": "США",
  "lang": "Английский",
  "restrict": "16+",
  "kinopoisk_id": "2494",
  "kinopoisk_rating": "8.13",
  "imdb_rating": "8.2",
  "duration": "10261",
  "category": "Фильмы",
  "genres": "Драмы,Зарубежные,Криминал",
  "vr_identifier": "Казино",
  "iframe": "https://www.ivi.ru/embeds/video/?subsite=1&autostart=0&videoid=100031"
}