{
  "content_id": "138135",
  "title": "Братство крови",
  "orig_title": "Brotherhood of Blood",
  "release_date": "2007",
  "orig_country": "США",
  "lang": "Английский",
  "restrict": "16+",
  "kinopoisk_id": "249562",
  "kinopoisk_rating": "3.78",
  "imdb_rating": "4.8",
  "duration": "5280",
  "category": "Фильмы",
  "genres": "Зарубежные,Триллеры,Ужасы",
  "vr_identifier": "Братство крови",
  "iframe": "https://www.ivi.ru/embeds/video/?subsite=1&autostart=0&videoid=138135"
}