{
  "content_id": "53434",
  "title": "У опасной черты",
  "release_date": "1983",
  "orig_country": "СССР",
  "lang": "Русский",
  "restrict": "12+",
  "kinopoisk_id": "25077",
  "kinopoisk_rating": "6.39",
  "imdb_rating": "5.8",
  "duration": "5326",
  "category": "Фильмы",
  "genres": "Боевики,Военные,Советское кино",
  "vr_identifier": "У опасной черты",
  "iframe": "https://www.ivi.ru/embeds/video/?subsite=1&autostart=0&videoid=53434"
}