{
  "content_id": "218222",
  "title": "Затерянные в песках",
  "release_date": "1984",
  "orig_country": "СССР",
  "lang": "Русский",
  "restrict": "12+",
  "kinopoisk_id": "25105",
  "kinopoisk_rating": "0",
  "duration": "3794",
  "category": "Фильмы",
  "genres": "Драмы,Советское кино",
  "vr_identifier": "Затерянные в песках",
  "iframe": "https://www.ivi.ru/embeds/video/?subsite=1&autostart=0&videoid=218222"
}