{
  "content_id": "54213",
  "title": "Четыре таксиста и собака",
  "release_date": "2004",
  "orig_country": "Россия",
  "lang": "Русский",
  "restrict": "12+",
  "kinopoisk_id": "252034",
  "kinopoisk_rating": "5.89",
  "imdb_rating": "5.3",
  "duration": "6282",
  "category": "Фильмы",
  "genres": "Комедии,Русские",
  "vr_identifier": "Четыре таксиста и собака",
  "iframe": "https://www.ivi.ru/embeds/video/?subsite=1&autostart=0&videoid=54213"
}