{
  "content_id": "109891",
  "title": "Жизнь врасплох",
  "release_date": "2007",
  "orig_country": "Россия",
  "lang": "Русский",
  "restrict": "16+",
  "kinopoisk_id": "252300",
  "kinopoisk_rating": "5.78",
  "imdb_rating": "5.8",
  "duration": "4983",
  "category": "Фильмы",
  "genres": "Драмы,Русские",
  "vr_identifier": "Жизнь врасплох",
  "iframe": "https://www.ivi.ru/embeds/video/?subsite=1&autostart=0&videoid=109891"
}