{
  "content_id": "53422",
  "title": "Двое – это слишком",
  "orig_title": "Two Much",
  "release_date": "1995",
  "orig_country": "США",
  "lang": "Английский",
  "restrict": "12+",
  "kinopoisk_id": "2525",
  "kinopoisk_rating": "6.66",
  "imdb_rating": "5.4",
  "duration": "6771",
  "category": "Фильмы",
  "genres": "Зарубежные,Комедии,Мелодрамы",
  "vr_identifier": "Двое это слишком",
  "iframe": "https://www.ivi.ru/embeds/video/?subsite=1&autostart=0&videoid=53422"
}