{
  "content_id": "409121",
  "title": "Без изъяна",
  "orig_title": "Flawless",
  "release_date": "2007",
  "orig_country": "Великобритания",
  "lang": "Английский",
  "restrict": "16+",
  "kinopoisk_id": "252502",
  "duration": "6516",
  "category": "Фильмы",
  "genres": "Драмы,Зарубежные,Криминал,Триллеры",
  "vr_identifier": "Flawless",
  "iframe": "https://www.ivi.ru/embeds/video/?subsite=1&autostart=0&videoid=409121"
}