{
  "content_id": "100354",
  "title": "Повелитель эфира",
  "release_date": "2004",
  "orig_country": "Россия",
  "lang": "Русский",
  "restrict": "12+",
  "kinopoisk_id": "255049",
  "kinopoisk_rating": "4.72",
  "duration": "4980",
  "category": "Фильмы",
  "genres": "Комедии,Мелодрамы,Русские",
  "vr_identifier": "Повелитель эфира",
  "iframe": "https://www.ivi.ru/embeds/video/?subsite=1&autostart=0&videoid=100354"
}