{
  "content_id": "220689",
  "title": "Братья Лю",
  "release_date": "1953",
  "orig_country": "СССР",
  "lang": "Русский",
  "restrict": "6+",
  "kinopoisk_id": "255159",
  "kinopoisk_rating": "7.49",
  "imdb_rating": "6.9",
  "duration": "1641",
  "category": "Мультфильмы",
  "genres": "Приключения,Про животных,Русские,Русские мультфильмы,Сказки,Советские,Фэнтези",
  "vr_identifier": "Братья Лю",
  "iframe": "https://www.ivi.ru/embeds/video/?subsite=1&autostart=0&videoid=220689"
}