{
  "content_id": "50986",
  "title": "Кушать подано!",
  "release_date": "2005",
  "orig_country": "Украина",
  "lang": "Русский",
  "restrict": "16+",
  "kinopoisk_id": "257825",
  "kinopoisk_rating": "7.33",
  "imdb_rating": "7.1",
  "duration": "5100",
  "category": "Фильмы",
  "genres": "Зарубежные,Комедии",
  "vr_identifier": "Кушать подано, или Осторожно, любовь!",
  "iframe": "https://www.ivi.ru/embeds/video/?subsite=1&autostart=0&videoid=50986"
}