{
  "content_id": "220839",
  "title": "Ровно в три пятнадцать...",
  "release_date": "1959",
  "orig_country": "СССР",
  "lang": "Русский",
  "restrict": "0+",
  "kinopoisk_id": "257961",
  "kinopoisk_rating": "7.1",
  "imdb_rating": "6.5",
  "duration": "1201",
  "category": "Мультфильмы",
  "genres": "Для всей семьи,Для детей,Русские мультфильмы,Советские",
  "vr_identifier": "Ровно в 3:15",
  "iframe": "https://www.ivi.ru/embeds/video/?subsite=1&autostart=0&videoid=220839"
}