{
  "content_id": "109954",
  "title": "Нулевой километр",
  "release_date": "2007",
  "orig_country": "Россия",
  "lang": "Русский",
  "restrict": "16+",
  "kinopoisk_id": "258128",
  "kinopoisk_rating": "6.85",
  "imdb_rating": "6.1",
  "duration": "5160",
  "category": "Фильмы",
  "genres": "Драмы,Мелодрамы,Русские,Триллеры",
  "vr_identifier": "Нулевой километр",
  "iframe": "https://www.ivi.ru/embeds/video/?subsite=1&autostart=0&videoid=109954"
}