{
  "content_id": "75861",
  "title": "Мы умрем вместе",
  "release_date": "2004",
  "orig_country": "Россия",
  "lang": "Русский",
  "restrict": "16+",
  "kinopoisk_id": "258150",
  "kinopoisk_rating": "6.71",
  "imdb_rating": "5.6",
  "duration": "5920",
  "category": "Фильмы",
  "genres": "Драмы,Русские,Триллеры",
  "vr_identifier": "Мы умрем вместе",
  "iframe": "https://www.ivi.ru/embeds/video/?subsite=1&autostart=0&videoid=75861"
}