{
  "content_id": "66780",
  "title": "Зимняя сказка",
  "release_date": "1981",
  "orig_country": "СССР",
  "lang": "Русский",
  "restrict": "0+",
  "kinopoisk_id": "258636",
  "kinopoisk_rating": "7.75",
  "imdb_rating": "7.2",
  "duration": "561",
  "category": "Мультфильмы",
  "genres": "Для детей,Русские,Советские",
  "vr_identifier": "Зимняя сказка",
  "iframe": "https://www.ivi.ru/embeds/video/?subsite=1&autostart=0&videoid=66780"
}