{
  "content_id": "138102",
  "title": "Сид: Месть восставшего",
  "orig_title": "Seed",
  "release_date": "2006",
  "orig_country": "Канада",
  "lang": "Английский",
  "restrict": "18+",
  "kinopoisk_id": "258761",
  "kinopoisk_rating": "3.51",
  "imdb_rating": "3",
  "duration": "5168",
  "category": "Фильмы",
  "genres": "Зарубежные,Ужасы",
  "vr_identifier": "Сид: Месть восставшего",
  "iframe": "https://www.ivi.ru/embeds/video/?subsite=1&autostart=0&videoid=138102"
}