{
  "content_id": "220945",
  "title": "Я жду птенца",
  "release_date": "1966",
  "orig_country": "СССР",
  "lang": "Русский",
  "restrict": "6+",
  "kinopoisk_id": "259933",
  "kinopoisk_rating": "5.48",
  "duration": "937",
  "category": "Мультфильмы",
  "genres": "Для всей семьи,Для детей,Русские мультфильмы,Советские",
  "vr_identifier": "Я жду птенца",
  "iframe": "https://www.ivi.ru/embeds/video/?subsite=1&autostart=0&videoid=220945"
}