{
  "content_id": "220697",
  "title": "В лесной чаще",
  "release_date": "1954",
  "orig_country": "СССР",
  "lang": "Русский",
  "restrict": "6+",
  "kinopoisk_id": "260065",
  "kinopoisk_rating": "7.79",
  "imdb_rating": "6.6",
  "duration": "1146",
  "category": "Мультфильмы",
  "genres": "Для всей семьи,Для детей,Приключения,Про животных,Русские,Русские мультфильмы,Советские",
  "vr_identifier": "В лесной чаще",
  "iframe": "https://www.ivi.ru/embeds/video/?subsite=1&autostart=0&videoid=220697"
}