{
  "content_id": "220707",
  "title": "Веселый огород",
  "release_date": "1947",
  "orig_country": "СССР",
  "lang": "Русский",
  "restrict": "0+",
  "kinopoisk_id": "260120",
  "kinopoisk_rating": "7.09",
  "duration": "631",
  "category": "Мультфильмы",
  "genres": "Для всей семьи,Для детей,Советские",
  "vr_identifier": "Веселый огород",
  "iframe": "https://www.ivi.ru/embeds/video/?subsite=1&autostart=0&videoid=220707"
}