{
  "content_id": "60255",
  "title": "Неизвестные страницы из жизни разведчика",
  "release_date": "1990",
  "orig_country": "СССР",
  "lang": "Русский",
  "restrict": "16+",
  "kinopoisk_id": "260824",
  "kinopoisk_rating": "6.35",
  "duration": "5392",
  "category": "Фильмы",
  "genres": "Военные,Драмы,Советское кино",
  "vr_identifier": "Неизвестные страницы из жизни разведчика",
  "iframe": "https://www.ivi.ru/embeds/video/?subsite=1&autostart=0&videoid=60255"
}