{
  "content_id": "87676",
  "title": "Солдат Джейн",
  "orig_title": "G.I. Jane",
  "release_date": "1997",
  "orig_country": "США",
  "lang": "Английский",
  "restrict": "16+",
  "kinopoisk_id": "2609",
  "kinopoisk_rating": "7.18",
  "imdb_rating": "5.9",
  "duration": "7222",
  "category": "Фильмы",
  "genres": "Боевики,Военные,Драмы,Зарубежные",
  "vr_identifier": "Солдат Джейн",
  "iframe": "https://www.ivi.ru/embeds/video/?subsite=1&autostart=0&videoid=87676"
}