{
  "content_id": "54230",
  "title": "Коля – Перекати поле",
  "release_date": "2005",
  "orig_country": "Россия",
  "lang": "Русский",
  "restrict": "12+",
  "kinopoisk_id": "261011",
  "kinopoisk_rating": "7.39",
  "imdb_rating": "6.8",
  "duration": "5806",
  "category": "Фильмы",
  "genres": "Драмы,Русские",
  "vr_identifier": "Коля - перекати поле",
  "iframe": "https://www.ivi.ru/embeds/video/?subsite=1&autostart=0&videoid=54230"
}