{
  "content_id": "60799",
  "title": "Конан-варвар",
  "orig_title": "Conan the Barbarian",
  "release_date": "2011",
  "orig_country": "США",
  "lang": "Английский",
  "restrict": "16+",
  "kinopoisk_id": "261271",
  "kinopoisk_rating": "5.61",
  "imdb_rating": "5.2",
  "duration": "6467",
  "category": "Фильмы",
  "genres": "Боевики,Зарубежные,Приключения,Фэнтези",
  "vr_identifier": "Конан-варвар",
  "iframe": "https://www.ivi.ru/embeds/video/?subsite=1&autostart=0&videoid=60799"
}