{
  "content_id": "42107",
  "title": "Скрытая любовь",
  "orig_title": "L'amore nascosto",
  "release_date": "2007",
  "orig_country": "Италия",
  "lang": "Французский",
  "restrict": "16+",
  "kinopoisk_id": "261492",
  "kinopoisk_rating": "6.15",
  "imdb_rating": "5.5",
  "duration": "5535",
  "category": "Фильмы",
  "genres": "Драмы,Зарубежные",
  "vr_identifier": "Скрытая любовь",
  "iframe": "https://www.ivi.ru/embeds/video/?subsite=1&autostart=0&videoid=42107"
}