{
  "content_id": "75252",
  "title": "Бриллиантовые псы",
  "orig_title": "Diamond Dogs",
  "release_date": "2007",
  "orig_country": "Канада",
  "lang": "Английский",
  "restrict": "18+",
  "kinopoisk_id": "261664",
  "duration": "5440",
  "category": "Фильмы",
  "genres": "Боевики,Зарубежные,Приключения",
  "vr_identifier": "Бриллиантовые псы",
  "iframe": "https://www.ivi.ru/embeds/video/?subsite=1&autostart=0&videoid=75252"
}