{
  "content_id": "218202",
  "title": "Десятый шаг",
  "release_date": "1967",
  "orig_country": "СССР",
  "lang": "Русский",
  "restrict": "16+",
  "kinopoisk_id": "263382",
  "kinopoisk_rating": "0",
  "duration": "5628",
  "category": "Фильмы",
  "genres": "Драмы,Приключения,Советское кино",
  "vr_identifier": "Десятый шаг",
  "iframe": "https://www.ivi.ru/embeds/video/?subsite=1&autostart=0&videoid=218202"
}