{
  "content_id": "42112",
  "title": "Кармо",
  "orig_title": "Carmo",
  "release_date": "2008",
  "orig_country": "Бразилия",
  "lang": "Испанский",
  "restrict": "16+",
  "kinopoisk_id": "266632",
  "kinopoisk_rating": "6.43",
  "imdb_rating": "5.8",
  "duration": "5907",
  "category": "Фильмы",
  "genres": "Артхаус,Зарубежные,Мелодрамы,Приключения",
  "vr_identifier": "Кармо",
  "iframe": "https://www.ivi.ru/embeds/video/?subsite=1&autostart=0&videoid=42112"
}