{
  "content_id": "110684",
  "title": "Флэш.ка",
  "release_date": "2006",
  "orig_country": "Россия",
  "lang": "Русский",
  "restrict": "16+",
  "kinopoisk_id": "266950",
  "kinopoisk_rating": "4.29",
  "imdb_rating": "4.4",
  "duration": "6304",
  "category": "Фильмы",
  "genres": "Драмы,Криминал,Русские,Триллеры",
  "vr_identifier": "ФЛЭШ.КА",
  "iframe": "https://www.ivi.ru/embeds/video/?subsite=1&autostart=0&videoid=110684"
}