{
  "content_id": "26602",
  "title": "Лялька-Руслан и его друг Санька",
  "release_date": "1980",
  "orig_country": "СССР",
  "lang": "Русский",
  "restrict": "6+",
  "kinopoisk_id": "271508",
  "kinopoisk_rating": "7.44",
  "imdb_rating": "7.3",
  "duration": "3928",
  "category": "Фильмы",
  "genres": "Для детей,Драмы,Советское кино,Фильмы",
  "vr_identifier": "Лялька-Руслан и его друг Санька...",
  "iframe": "https://www.ivi.ru/embeds/video/?subsite=1&autostart=0&videoid=26602"
}