{
  "content_id": "54229",
  "title": "Смеситель",
  "release_date": "2003",
  "orig_country": "Россия",
  "lang": "Русский",
  "restrict": "16+",
  "kinopoisk_id": "271516",
  "kinopoisk_rating": "4.51",
  "duration": "4593",
  "category": "Фильмы",
  "genres": "Русские,Триллеры",
  "vr_identifier": "Смеситель",
  "iframe": "https://www.ivi.ru/embeds/video/?subsite=1&autostart=0&videoid=54229"
}