{
  "content_id": "13903",
  "title": "Эмма",
  "orig_title": "Emma",
  "release_date": "1996",
  "orig_country": "Великобритания",
  "lang": "Английский",
  "restrict": "16+",
  "kinopoisk_id": "271712",
  "kinopoisk_rating": "7.27",
  "imdb_rating": "7.1",
  "duration": "6392",
  "category": "Фильмы",
  "genres": "Драмы,Зарубежные,Комедии,Мелодрамы",
  "vr_identifier": "Эмма",
  "iframe": "https://www.ivi.ru/embeds/video/?subsite=1&autostart=0&videoid=13903"
}