{
  "content_id": "85117",
  "title": "Горячая точка",
  "release_date": "1998",
  "orig_country": "Россия",
  "lang": "Русский",
  "restrict": "16+",
  "kinopoisk_id": "271703",
  "kinopoisk_rating": "6.18",
  "imdb_rating": "6.6",
  "duration": "4200",
  "category": "Фильмы",
  "genres": "Боевики,Приключения,Русские",
  "vr_identifier": "Горячая точка",
  "iframe": "https://www.ivi.ru/embeds/video/?subsite=1&autostart=0&videoid=85117"
}