{
  "content_id": "50353",
  "title": "100 футов",
  "orig_title": "100 Feet",
  "release_date": "2008",
  "orig_country": "США",
  "lang": "Английский",
  "restrict": "16+",
  "kinopoisk_id": "274192",
  "kinopoisk_rating": "5.78",
  "imdb_rating": "5.5",
  "duration": "6240",
  "category": "Фильмы",
  "genres": "Детективы,Зарубежные,Триллеры,Ужасы",
  "vr_identifier": "100 футов",
  "iframe": "https://www.ivi.ru/embeds/video/?subsite=1&autostart=0&videoid=50353"
}