{
  "content_id": "66806",
  "title": "Добро пожаловать",
  "release_date": "1986",
  "orig_country": "СССР",
  "lang": "Русский",
  "restrict": "0+",
  "kinopoisk_id": "278395",
  "kinopoisk_rating": "8.09",
  "imdb_rating": "7.7",
  "duration": "596",
  "category": "Мультфильмы",
  "genres": "Для детей,Русские,Советские",
  "vr_identifier": "Добро пожаловать",
  "iframe": "https://www.ivi.ru/embeds/video/?subsite=1&autostart=0&videoid=66806"
}