{
  "content_id": "70172",
  "title": "Узкая грань",
  "orig_title": "Narrow Margin",
  "release_date": "1990",
  "orig_country": "США",
  "lang": "Английский",
  "restrict": "16+",
  "kinopoisk_id": "2785",
  "kinopoisk_rating": "6.7",
  "imdb_rating": "6.6",
  "duration": "5595",
  "category": "Фильмы",
  "genres": "Боевики,Детективы,Зарубежные,Триллеры",
  "vr_identifier": "Узкая грань",
  "iframe": "https://www.ivi.ru/embeds/video/?subsite=1&autostart=0&videoid=70172"
}