{
  "content_id": "60800",
  "title": "Монстр в Париже",
  "orig_title": "Un monstre à Paris",
  "release_date": "2010",
  "orig_country": "Франция",
  "lang": "Французский",
  "restrict": "12+",
  "kinopoisk_id": "279685",
  "kinopoisk_rating": "7.41",
  "imdb_rating": "6.7",
  "duration": "5373",
  "category": "Мультфильмы",
  "genres": "Для взрослых,Для детей,Западные мультфильмы,Зарубежные,Полнометражные",
  "vr_identifier": "Монстр в Париже",
  "iframe": "https://www.ivi.ru/embeds/video/?subsite=1&autostart=0&videoid=60800"
}