{
  "content_id": "42256",
  "title": "Адмиралъ",
  "release_date": "2008",
  "orig_country": "Россия",
  "lang": "Русский",
  "restrict": "16+",
  "kinopoisk_id": "280938",
  "kinopoisk_rating": "7.02",
  "imdb_rating": "6.8",
  "duration": "7139",
  "category": "Фильмы",
  "genres": "Биография,Военные,Драмы,Исторические,Русские",
  "vr_identifier": "Адмиралъ",
  "iframe": "https://www.ivi.ru/embeds/video/?subsite=1&autostart=0&videoid=42256"
}