{
  "content_id": "199405",
  "title": "Город греха 1",
  "orig_title": "Private: Sex City 1",
  "release_date": "2006",
  "orig_country": "Испания",
  "lang": "Английский",
  "restrict": "18+",
  "kinopoisk_id": "283956",
  "kinopoisk_rating": "5.63",
  "imdb_rating": "6",
  "duration": "6146",
  "category": "Фильмы",
  "genres": "Эротика",
  "vr_identifier": "Город греха 1",
  "iframe": "https://www.ivi.ru/embeds/video/?subsite=1&autostart=0&videoid=199405"
}