{
  "content_id": "199421",
  "title": "Звездные порновойны 2",
  "orig_title": "Private Gold 83: Porn Wars - Episode 2",
  "release_date": "2006",
  "orig_country": "Швеция",
  "lang": "Английский",
  "restrict": "18+",
  "kinopoisk_id": "286416",
  "kinopoisk_rating": "5.75",
  "imdb_rating": "5.6",
  "duration": "5560",
  "category": "Фильмы",
  "genres": "Эротика",
  "vr_identifier": "Звездные порновойны 2",
  "iframe": "https://www.ivi.ru/embeds/video/?subsite=1&autostart=0&videoid=199421"
}