{
  "content_id": "52270",
  "title": "Попали!",
  "orig_title": "Doghouse",
  "release_date": "2009",
  "orig_country": "Великобритания",
  "lang": "Английский",
  "restrict": "18+",
  "kinopoisk_id": "310734",
  "kinopoisk_rating": "6.6",
  "imdb_rating": "6",
  "duration": "5107",
  "category": "Фильмы",
  "genres": "Зарубежные,Комедии,Ужасы,Фантастика",
  "vr_identifier": "Попали!",
  "iframe": "https://www.ivi.ru/embeds/video/?subsite=1&autostart=0&videoid=52270"
}