{
  "content_id": "59752",
  "title": "Душа",
  "orig_title": "Vinyan",
  "release_date": "2008",
  "orig_country": "Франция",
  "lang": "Французский",
  "restrict": "16+",
  "kinopoisk_id": "312877",
  "kinopoisk_rating": "5.11",
  "imdb_rating": "5.3",
  "duration": "5543",
  "category": "Фильмы",
  "genres": "Драмы,Зарубежные,Триллеры,Ужасы",
  "vr_identifier": "Душа",
  "iframe": "https://www.ivi.ru/embeds/video/?subsite=1&autostart=0&videoid=59752"
}