{
  "content_id": "218322",
  "title": "Родник для жаждущих (на украинском языке)",
  "release_date": "1965",
  "orig_country": "СССР",
  "lang": "Украинский",
  "restrict": "12+",
  "kinopoisk_id": "314254",
  "kinopoisk_rating": "7.72",
  "imdb_rating": "7.2",
  "duration": "4075",
  "category": "Фильмы",
  "genres": "Драмы,Советское кино",
  "vr_identifier": "Родник для жаждущих",
  "iframe": "https://www.ivi.ru/embeds/video/?subsite=1&autostart=0&videoid=218322"
}