{
  "content_id": "220919",
  "title": "Человек в рамке",
  "release_date": "1966",
  "orig_country": "СССР",
  "lang": "Русский",
  "restrict": "0+",
  "kinopoisk_id": "314355",
  "kinopoisk_rating": "7.59",
  "imdb_rating": "7",
  "duration": "607",
  "category": "Мультфильмы",
  "genres": "Для взрослых,Русские,Советские",
  "vr_identifier": "Человек в рамке",
  "iframe": "https://www.ivi.ru/embeds/video/?subsite=1&autostart=0&videoid=220919"
}