{
  "content_id": "128857",
  "title": "Птичье молоко",
  "release_date": "1975",
  "orig_country": "СССР",
  "lang": "Русский",
  "restrict": "0+",
  "kinopoisk_id": "317149",
  "kinopoisk_rating": "0",
  "duration": "2678",
  "category": "Фильмы",
  "genres": "Драмы,Советское кино",
  "vr_identifier": "Птичье молоко",
  "iframe": "https://www.ivi.ru/embeds/video/?subsite=1&autostart=0&videoid=128857"
}