{
  "content_id": "45761",
  "title": "Александра",
  "release_date": "2007",
  "orig_country": "Россия",
  "lang": "Русский",
  "restrict": "12+",
  "kinopoisk_id": "318349",
  "kinopoisk_rating": "6.79",
  "imdb_rating": "7",
  "duration": "5468",
  "category": "Фильмы",
  "genres": "Военные,Драмы,Русские",
  "vr_identifier": "Александра",
  "iframe": "https://www.ivi.ru/embeds/video/?subsite=1&autostart=0&videoid=45761"
}