{
  "content_id": "59747",
  "title": "Съемки в Палермо",
  "orig_title": "Palermo Shooting",
  "release_date": "2008",
  "orig_country": "Германия",
  "lang": "Немецкий",
  "restrict": "16+",
  "kinopoisk_id": "325489",
  "kinopoisk_rating": "6.74",
  "imdb_rating": "6.3",
  "duration": "6213",
  "category": "Фильмы",
  "genres": "Драмы,Зарубежные",
  "vr_identifier": "Съемки в Палермо",
  "iframe": "https://www.ivi.ru/embeds/video/?subsite=1&autostart=0&videoid=59747"
}