{
  "content_id": "160626",
  "title": "Почему не спросили Эванс?",
  "orig_title": "Why Didn't They Ask Evans?",
  "release_date": "1980",
  "orig_country": "Великобритания",
  "lang": "Английский",
  "restrict": "12+",
  "kinopoisk_id": "327578",
  "kinopoisk_rating": "7.03",
  "imdb_rating": "7.2",
  "duration": "11152",
  "category": "Фильмы",
  "genres": "Детективы,Зарубежные,Криминал,Мелодрамы,Триллеры",
  "vr_identifier": "AGATHA CHRISTIE'S WHY DIDN'T THEY ASK EVANS?",
  "iframe": "https://www.ivi.ru/embeds/video/?subsite=1&autostart=0&videoid=160626"
}