{
  "content_id": "315458",
  "title": "Универсальный агент",
  "orig_title": "Agent Red",
  "release_date": "2000",
  "orig_country": "США",
  "lang": "Английский",
  "restrict": "16+",
  "kinopoisk_id": "32771",
  "kinopoisk_rating": "4.68",
  "imdb_rating": "3.3",
  "duration": "5490",
  "category": "Фильмы",
  "genres": "Боевики,Зарубежные,Триллеры",
  "vr_identifier": "Универсальный агент",
  "iframe": "https://www.ivi.ru/embeds/video/?subsite=1&autostart=0&videoid=315458"
}