{
  "content_id": "60283",
  "title": "Пакет",
  "release_date": "1965",
  "orig_country": "СССР",
  "lang": "Русский",
  "restrict": "0+",
  "kinopoisk_id": "331748",
  "kinopoisk_rating": "7.6",
  "imdb_rating": "8.2",
  "duration": "4066",
  "category": "Фильмы",
  "genres": "Комедии,Приключения,Советское кино",
  "vr_identifier": "Пакет",
  "iframe": "https://www.ivi.ru/embeds/video/?subsite=1&autostart=0&videoid=60283"
}