{
  "content_id": "130190",
  "title": "Бабушки надвое сказали...",
  "release_date": "1979",
  "orig_country": "СССР",
  "lang": "Русский",
  "restrict": "12+",
  "kinopoisk_id": "331864",
  "kinopoisk_rating": "6.13",
  "imdb_rating": "4.9",
  "duration": "4586",
  "category": "Фильмы",
  "genres": "Комедии",
  "vr_identifier": "Бабушки надвое сказали...",
  "iframe": "https://www.ivi.ru/embeds/video/?subsite=1&autostart=0&videoid=130190"
}