{
  "content_id": "160629",
  "title": "Тайный противник",
  "orig_title": "The Secret Adversary",
  "release_date": "1983",
  "orig_country": "Великобритания",
  "restrict": "16+",
  "kinopoisk_id": "341702",
  "kinopoisk_rating": "7.03",
  "imdb_rating": "7.3",
  "duration": "6882",
  "category": "Фильмы",
  "genres": "Детективы,Драмы,Зарубежные,Криминал,Мелодрамы,Приключения",
  "vr_identifier": "AGATHA CHRISTIE'S THE SECRET ADVERSARY",
  "iframe": "https://www.ivi.ru/embeds/video/?subsite=1&autostart=0&videoid=160629"
}