{
  "content_id": "60545",
  "title": "Лос-Анджелесская история",
  "orig_title": "L.A. Story",
  "release_date": "1991",
  "orig_country": "США",
  "lang": "Английский",
  "restrict": "12+",
  "kinopoisk_id": "3481",
  "kinopoisk_rating": "6.56",
  "imdb_rating": "6.7",
  "duration": "5476",
  "category": "Фильмы",
  "genres": "Драмы,Зарубежные,Комедии,Мелодрамы",
  "vr_identifier": "Лос-Анджелесская история",
  "iframe": "https://www.ivi.ru/embeds/video/?subsite=1&autostart=0&videoid=60545"
}