{
  "content_id": "199463",
  "title": "Сeкcтpuллep",
  "orig_title": "Private Gold 69: Sex Thriller",
  "release_date": "2005",
  "orig_country": "США",
  "lang": "Английский",
  "restrict": "18+",
  "kinopoisk_id": "358814",
  "imdb_rating": "5.3",
  "duration": "5750",
  "category": "Фильмы",
  "genres": "Эротика",
  "vr_identifier": "Секс-триллер",
  "iframe": "https://www.ivi.ru/embeds/video/?subsite=1&autostart=0&videoid=199463"
}