{
  "content_id": "114676",
  "title": "Доберман",
  "orig_title": "Dobermann",
  "release_date": "1997",
  "orig_country": "Франция",
  "lang": "Французский",
  "restrict": "18+",
  "kinopoisk_id": "3718",
  "kinopoisk_rating": "7.13",
  "imdb_rating": "6.6",
  "duration": "5938",
  "category": "Фильмы",
  "genres": "Боевики,Зарубежные,Криминал,Триллеры",
  "vr_identifier": "Доберман",
  "iframe": "https://www.ivi.ru/embeds/video/?subsite=1&autostart=0&videoid=114676"
}