{
  "content_id": "75094",
  "title": "Саботаж",
  "orig_title": "Sabotage",
  "release_date": "1996",
  "orig_country": "Канада",
  "lang": "Английский",
  "restrict": "16+",
  "kinopoisk_id": "3763",
  "duration": "5722",
  "category": "Фильмы",
  "genres": "Боевики,Зарубежные,Триллеры",
  "vr_identifier": "Саботаж",
  "iframe": "https://www.ivi.ru/embeds/video/?subsite=1&autostart=0&videoid=75094"
}