{
  "content_id": "127583",
  "title": "В любви все средства хороши",
  "orig_title": "All's Faire in Love",
  "release_date": "2009",
  "orig_country": "США",
  "lang": "Английский",
  "restrict": "12+",
  "kinopoisk_id": "388685",
  "kinopoisk_rating": "5.55",
  "imdb_rating": "5",
  "duration": "6240",
  "category": "Фильмы",
  "genres": "Комедии",
  "vr_identifier": "В любви все средства хороши",
  "iframe": "https://www.ivi.ru/embeds/video/?subsite=1&autostart=0&videoid=127583"
}