{
  "content_id": "19794",
  "title": "Пять моих бывших подружек",
  "orig_title": "My Last Five Girlfriends",
  "release_date": "2009",
  "orig_country": "Великобритания",
  "lang": "Английский",
  "restrict": "16+",
  "kinopoisk_id": "391901",
  "kinopoisk_rating": "5.91",
  "imdb_rating": "5.8",
  "duration": "5220",
  "category": "Фильмы",
  "genres": "Комедии",
  "vr_identifier": "Пять моих бывших подружек",
  "iframe": "https://www.ivi.ru/embeds/video/?subsite=1&autostart=0&videoid=19794"
}