{
  "content_id": "138069",
  "title": "Паранормальные явления: За гранью страха",
  "orig_title": "Beyond Remedy",
  "release_date": "2009",
  "orig_country": "Германия",
  "lang": "Английский",
  "restrict": "16+",
  "kinopoisk_id": "392950",
  "kinopoisk_rating": "3.85",
  "imdb_rating": "2.8",
  "duration": "5443",
  "category": "Фильмы",
  "genres": "Зарубежные,Ужасы",
  "vr_identifier": "Паранормальные явления: За гранью страха",
  "iframe": "https://www.ivi.ru/embeds/video/?subsite=1&autostart=0&videoid=138069"
}