{
  "content_id": "53042",
  "title": "Приключения Аленушки и Еремы",
  "orig_title": "Приключения Алёнушки и Ерёмы",
  "release_date": "2008",
  "orig_country": "Россия",
  "lang": "Русский",
  "restrict": "0+",
  "kinopoisk_id": "394065",
  "kinopoisk_rating": "3.29",
  "imdb_rating": "4",
  "duration": "5774",
  "category": "Мультфильмы",
  "genres": "Для детей,Полнометражные,Русские,Русские мультфильмы",
  "vr_identifier": "Приключения Аленушки и Еремы",
  "iframe": "https://www.ivi.ru/embeds/video/?subsite=1&autostart=0&videoid=53042"
}