{
  "content_id": "66745",
  "title": "Крошка Енот",
  "release_date": "1974",
  "orig_country": "СССР",
  "lang": "Русский",
  "restrict": "0+",
  "kinopoisk_id": "395343",
  "kinopoisk_rating": "7.93",
  "imdb_rating": "7.6",
  "duration": "532",
  "category": "Мультфильмы",
  "genres": "Для всей семьи,Для детей,Про животных,Русские мультфильмы,Советские",
  "vr_identifier": "Крошка Енот",
  "iframe": "https://www.ivi.ru/embeds/video/?subsite=1&autostart=0&videoid=66745"
}