{
  "content_id": "31366",
  "title": "Игра",
  "release_date": "2008",
  "orig_country": "Россия",
  "lang": "Русский",
  "restrict": "12+",
  "kinopoisk_id": "395689",
  "kinopoisk_rating": "4.37",
  "imdb_rating": "5.3",
  "duration": "5556",
  "category": "Фильмы",
  "genres": "Комедии,Русские,Спорт",
  "vr_identifier": "Игра",
  "iframe": "https://www.ivi.ru/embeds/video/?subsite=1&autostart=0&videoid=31366"
}