{
  "content_id": "51800",
  "title": "Стиляги",
  "release_date": "2008",
  "orig_country": "Россия",
  "lang": "Русский",
  "restrict": "16+",
  "kinopoisk_id": "395690",
  "kinopoisk_rating": "6.85",
  "imdb_rating": "7.1",
  "duration": "8160",
  "category": "Фильмы",
  "genres": "Драмы,Мелодрамы,Музыкальные,Мюзикл,Русские",
  "vr_identifier": "Стиляги",
  "iframe": "https://www.ivi.ru/embeds/video/?subsite=1&autostart=0&videoid=51800"
}