{
  "content_id": "59559",
  "title": "Пылающая равнина",
  "orig_title": "The Burning Plain",
  "release_date": "2008",
  "orig_country": "США",
  "lang": "Английский",
  "restrict": "16+",
  "kinopoisk_id": "395714",
  "kinopoisk_rating": "6.97",
  "imdb_rating": "6.8",
  "duration": "6136",
  "category": "Фильмы",
  "genres": "Драмы,Зарубежные,Криминал,Мелодрамы",
  "vr_identifier": "Пылающая равнина",
  "iframe": "https://www.ivi.ru/embeds/video/?subsite=1&autostart=0&videoid=59559"
}