{
  "content_id": "60786",
  "title": "Харви Милк",
  "orig_title": "Milk",
  "release_date": "2008",
  "orig_country": "США",
  "lang": "Английский",
  "restrict": "16+",
  "kinopoisk_id": "395773",
  "kinopoisk_rating": "7.1",
  "imdb_rating": "7.6",
  "duration": "7691",
  "category": "Фильмы",
  "genres": "Биография,Драмы,Зарубежные",
  "vr_identifier": "Харви Милк",
  "iframe": "https://www.ivi.ru/embeds/video/?subsite=1&autostart=0&videoid=60786"
}