{
  "content_id": "41176",
  "title": "Очень синяя борода",
  "release_date": "1979",
  "orig_country": "СССР",
  "lang": "Русский",
  "restrict": "16+",
  "kinopoisk_id": "397268",
  "kinopoisk_rating": "7.82",
  "imdb_rating": "7.9",
  "duration": "1217",
  "category": "Мультфильмы",
  "genres": "Для взрослых,Русские,Советские",
  "vr_identifier": "Очень синяя борода",
  "iframe": "https://www.ivi.ru/embeds/video/?subsite=1&autostart=0&videoid=41176"
}