{
  "content_id": "54214",
  "title": "С.С.Д.",
  "release_date": "2008",
  "orig_country": "Россия",
  "lang": "Русский",
  "restrict": "16+",
  "kinopoisk_id": "397246",
  "kinopoisk_rating": "4.73",
  "imdb_rating": "4.6",
  "duration": "5599",
  "category": "Фильмы",
  "genres": "Русские,Ужасы",
  "vr_identifier": "С.С.Д.",
  "iframe": "https://www.ivi.ru/embeds/video/?subsite=1&autostart=0&videoid=54214"
}