{
  "content_id": "218269",
  "title": "Мы, двое мужчин",
  "release_date": "1962",
  "orig_country": "СССР",
  "lang": "Русский",
  "restrict": "16+",
  "kinopoisk_id": "397454",
  "kinopoisk_rating": "7.73",
  "imdb_rating": "7.8",
  "duration": "4735",
  "category": "Фильмы",
  "genres": "Драмы,Советское кино",
  "vr_identifier": "Мы, двое мужчин",
  "iframe": "https://www.ivi.ru/embeds/video/?subsite=1&autostart=0&videoid=218269"
}