{
  "content_id": "42099",
  "title": "3 дня",
  "orig_title": "Tres días",
  "release_date": "2008",
  "orig_country": "Испания",
  "lang": "Испанский",
  "restrict": "16+",
  "kinopoisk_id": "397547",
  "kinopoisk_rating": "5.64",
  "imdb_rating": "6.1",
  "duration": "5593",
  "category": "Фильмы",
  "genres": "Драмы,Зарубежные,Криминал,Триллеры,Фантастика",
  "vr_identifier": "Три дня",
  "iframe": "https://www.ivi.ru/embeds/video/?subsite=1&autostart=0&videoid=42099"
}