{
  "content_id": "89629",
  "title": "Ж.К.В.Д.",
  "orig_title": "JCVD",
  "release_date": "2008",
  "orig_country": "Бельгия",
  "lang": "Французский",
  "restrict": "16+",
  "kinopoisk_id": "397670",
  "kinopoisk_rating": "6.71",
  "imdb_rating": "7.2",
  "duration": "5788",
  "category": "Фильмы",
  "genres": "Детективы,Драмы,Зарубежные,Комедии",
  "vr_identifier": "JCVD",
  "iframe": "https://www.ivi.ru/embeds/video/?subsite=1&autostart=0&videoid=89629"
}