{
  "content_id": "223797",
  "title": "Вырви это сердце",
  "orig_title": "Arráncame la vida",
  "release_date": "2008",
  "orig_country": "Мексика",
  "lang": "Испанский",
  "restrict": "16+",
  "kinopoisk_id": "398038",
  "duration": "6361",
  "category": "Фильмы",
  "genres": "Драмы,Зарубежные",
  "vr_identifier": "Вырви это сердце",
  "iframe": "https://www.ivi.ru/embeds/video/?subsite=1&autostart=0&videoid=223797"
}