{
  "content_id": "54216",
  "title": "Особенности национальной подледной ловли, или Отрыв по полной",
  "release_date": "2007",
  "orig_country": "Россия",
  "lang": "Русский",
  "restrict": "16+",
  "kinopoisk_id": "398468",
  "kinopoisk_rating": "4.62",
  "imdb_rating": "5",
  "duration": "4524",
  "category": "Фильмы",
  "genres": "Комедии,Русские",
  "vr_identifier": "Отрыв по полной",
  "iframe": "https://www.ivi.ru/embeds/video/?subsite=1&autostart=0&videoid=54216"
}