{
  "content_id": "75855",
  "title": "Невинные создания",
  "release_date": "2008",
  "orig_country": "Россия",
  "lang": "Русский",
  "restrict": "6+",
  "kinopoisk_id": "399887",
  "kinopoisk_rating": "5.79",
  "duration": "4560",
  "category": "Фильмы",
  "genres": "Комедии,Мелодрамы,Русские",
  "vr_identifier": "Невинные создания",
  "iframe": "https://www.ivi.ru/embeds/video/?subsite=1&autostart=0&videoid=75855"
}