{
  "content_id": "70032",
  "title": "Профессор в законе",
  "release_date": "2006",
  "orig_country": "Украина",
  "lang": "Русский",
  "restrict": "16+",
  "kinopoisk_id": "400102",
  "kinopoisk_rating": "6.75",
  "imdb_rating": "7",
  "duration": "6939",
  "category": "Фильмы",
  "genres": "Зарубежные,Комедии,Криминал",
  "vr_identifier": "Профессор в законе",
  "iframe": "https://www.ivi.ru/embeds/video/?subsite=1&autostart=0&videoid=70032"
}