{
  "content_id": "69997",
  "title": "Вечерняя сказка",
  "release_date": "2007",
  "orig_country": "Украина",
  "lang": "Русский",
  "restrict": "12+",
  "kinopoisk_id": "400475",
  "kinopoisk_rating": "6.76",
  "duration": "5689",
  "category": "Фильмы",
  "genres": "Для всей семьи,Зарубежные,Мелодрамы",
  "vr_identifier": "Вечерняя сказка",
  "iframe": "https://www.ivi.ru/embeds/video/?subsite=1&autostart=0&videoid=69997"
}