{
  "content_id": "102228",
  "title": "Грешники и святые",
  "orig_title": "Sinners and Saints",
  "release_date": "2010",
  "orig_country": "США",
  "lang": "Английский",
  "restrict": "16+",
  "kinopoisk_id": "401172",
  "kinopoisk_rating": "6.53",
  "imdb_rating": "6.2",
  "duration": "5981",
  "category": "Фильмы",
  "genres": "Боевики,Зарубежные,Криминал,Триллеры",
  "vr_identifier": "Грешники и святые",
  "iframe": "https://www.ivi.ru/embeds/video/?subsite=1&autostart=0&videoid=102228"
}