{
  "content_id": "106249",
  "title": "Игра их жизни",
  "orig_title": "The Game of Their Lives",
  "release_date": "2005",
  "orig_country": "США",
  "lang": "Английский",
  "restrict": "12+",
  "kinopoisk_id": "4014",
  "kinopoisk_rating": "6.61",
  "imdb_rating": "6.2",
  "duration": "5828",
  "category": "Фильмы",
  "genres": "Драмы,Зарубежные,Исторические,Спорт",
  "vr_identifier": "Игра их жизни",
  "iframe": "https://www.ivi.ru/embeds/video/?subsite=1&autostart=0&videoid=106249"
}