{
  "content_id": "31367",
  "title": "День радио",
  "release_date": "2008",
  "orig_country": "Россия",
  "lang": "Русский",
  "restrict": "16+",
  "kinopoisk_id": "402979",
  "kinopoisk_rating": "7.58",
  "imdb_rating": "7.4",
  "duration": "6175",
  "category": "Фильмы",
  "genres": "Комедии,Русские",
  "vr_identifier": "День радио",
  "iframe": "https://www.ivi.ru/embeds/video/?subsite=1&autostart=0&videoid=31367"
}