{
  "content_id": "11727",
  "title": "Грех",
  "release_date": "2007",
  "orig_country": "Россия",
  "lang": "Русский",
  "restrict": "16+",
  "kinopoisk_id": "403820",
  "kinopoisk_rating": "6.98",
  "imdb_rating": "7.1",
  "duration": "5573",
  "category": "Фильмы",
  "genres": "Драмы,Русские",
  "vr_identifier": "Грех",
  "iframe": "https://www.ivi.ru/embeds/video/?subsite=1&autostart=0&videoid=11727"
}