{
  "content_id": "60812",
  "title": "Будь что будет",
  "orig_title": "Whatever Works",
  "release_date": "2009",
  "orig_country": "США",
  "lang": "Английский",
  "restrict": "12+",
  "kinopoisk_id": "404333",
  "kinopoisk_rating": "7.05",
  "imdb_rating": "7.2",
  "duration": "5274",
  "category": "Фильмы",
  "genres": "Зарубежные,Комедии,Мелодрамы",
  "vr_identifier": "Будь что будет",
  "iframe": "https://www.ivi.ru/embeds/video/?subsite=1&autostart=0&videoid=60812"
}