{
  "content_id": "87716",
  "title": "Незаконное вторжение",
  "orig_title": "Unlawful Entry",
  "release_date": "1992",
  "orig_country": "США",
  "lang": "Английский",
  "restrict": "16+",
  "kinopoisk_id": "4055",
  "kinopoisk_rating": "7.01",
  "imdb_rating": "6.3",
  "duration": "6360",
  "category": "Фильмы",
  "genres": "Драмы,Зарубежные,Криминал,Триллеры",
  "vr_identifier": "Незаконное вторжение",
  "iframe": "https://www.ivi.ru/embeds/video/?subsite=1&autostart=0&videoid=87716"
}