{
  "content_id": "55116",
  "title": "Царь",
  "release_date": "2009",
  "orig_country": "Россия",
  "lang": "Русский",
  "restrict": "16+",
  "kinopoisk_id": "407285",
  "kinopoisk_rating": "6.91",
  "imdb_rating": "6.9",
  "duration": "7111",
  "category": "Фильмы",
  "genres": "Драмы,Исторические,Русские",
  "vr_identifier": "Царь",
  "iframe": "https://www.ivi.ru/embeds/video/?subsite=1&autostart=0&videoid=55116"
}