{
  "content_id": "84949",
  "title": "Юрьев день",
  "release_date": "2008",
  "orig_country": "Россия",
  "lang": "Русский",
  "restrict": "14+",
  "kinopoisk_id": "407329",
  "kinopoisk_rating": "6.9",
  "imdb_rating": "7.1",
  "duration": "7996",
  "category": "Фильмы",
  "genres": "Детективы,Драмы,Русские",
  "vr_identifier": "Юрьев день",
  "iframe": "https://www.ivi.ru/embeds/video/?subsite=1&autostart=0&videoid=84949"
}