{
  "content_id": "31968",
  "title": "Русская симфония",
  "release_date": "1994",
  "orig_country": "Россия",
  "lang": "Русский",
  "restrict": "18+",
  "kinopoisk_id": "40730",
  "kinopoisk_rating": "6.55",
  "imdb_rating": "6.8",
  "duration": "6900",
  "category": "Фильмы",
  "genres": "Драмы",
  "vr_identifier": "Русская симфония",
  "iframe": "https://www.ivi.ru/embeds/video/?subsite=1&autostart=0&videoid=31968"
}