{
  "content_id": "60548",
  "title": "Рэмбо: Первая кровь",
  "orig_title": "First Blood",
  "release_date": "1982",
  "orig_country": "США",
  "lang": "Английский",
  "restrict": "16+",
  "kinopoisk_id": "4087",
  "kinopoisk_rating": "7.73",
  "imdb_rating": "7.7",
  "duration": "5359",
  "category": "Фильмы",
  "genres": "Боевики,Драмы,Зарубежные,Приключения",
  "vr_identifier": "Рэмбо: Первая кровь",
  "iframe": "https://www.ivi.ru/embeds/video/?subsite=1&autostart=0&videoid=60548"
}