{
  "content_id": "59485",
  "title": "Бешеная кровь",
  "orig_title": "Sanguepazzo",
  "release_date": "2008",
  "orig_country": "Франция",
  "lang": "Французский",
  "restrict": "16+",
  "kinopoisk_id": "408960",
  "kinopoisk_rating": "6.99",
  "imdb_rating": "6.3",
  "duration": "8858",
  "category": "Фильмы",
  "genres": "Биография,Драмы,Зарубежные",
  "vr_identifier": "Бешеная кровь",
  "iframe": "https://www.ivi.ru/embeds/video/?subsite=1&autostart=0&videoid=59485"
}