{
  "content_id": "62636",
  "title": "Пленный",
  "release_date": "2008",
  "orig_country": "Россия",
  "lang": "Русский",
  "restrict": "16+",
  "kinopoisk_id": "409027",
  "kinopoisk_rating": "6.33",
  "imdb_rating": "6.1",
  "duration": "4819",
  "category": "Фильмы",
  "genres": "Военные,Драмы,Русские,Экранизации",
  "vr_identifier": "Пленный",
  "iframe": "https://www.ivi.ru/embeds/video/?subsite=1&autostart=0&videoid=62636"
}