{
  "content_id": "138092",
  "title": "Бладрейн 3",
  "orig_title": "BloodRayne: The Third Reich",
  "release_date": "2010",
  "orig_country": "США",
  "lang": "Английский",
  "restrict": "16+",
  "kinopoisk_id": "409168",
  "kinopoisk_rating": "2.55",
  "imdb_rating": "3",
  "duration": "4551",
  "category": "Фильмы",
  "genres": "Боевики,Зарубежные,Приключения,Ужасы,Фэнтези",
  "vr_identifier": "Бладрейн 3",
  "iframe": "https://www.ivi.ru/embeds/video/?subsite=1&autostart=0&videoid=138092"
}