{
  "content_id": "31875",
  "title": "Принципиальный и жалостливый взгляд",
  "release_date": "1996",
  "orig_country": "Россия",
  "lang": "Русский",
  "restrict": "16+",
  "kinopoisk_id": "40959",
  "kinopoisk_rating": "5.93",
  "imdb_rating": "6.1",
  "duration": "6078",
  "category": "Фильмы",
  "genres": "Мелодрамы,Русские",
  "vr_identifier": "Принципиальный и жалостливый взгляд",
  "iframe": "https://www.ivi.ru/embeds/video/?subsite=1&autostart=0&videoid=31875"
}