{
  "content_id": "114739",
  "title": "Сочинение ко дню победы",
  "release_date": "1998",
  "orig_country": "Россия",
  "lang": "Русский",
  "restrict": "12+",
  "kinopoisk_id": "41076",
  "kinopoisk_rating": "7.22",
  "imdb_rating": "6.8",
  "duration": "6427",
  "category": "Фильмы",
  "genres": "Драмы,Комедии,Русские",
  "vr_identifier": "Сочинение ко Дню Победы",
  "iframe": "https://www.ivi.ru/embeds/video/?subsite=1&autostart=0&videoid=114739"
}