{
  "content_id": "54218",
  "title": "Кавказская рулетка",
  "release_date": "2002",
  "orig_country": "Россия",
  "lang": "Русский",
  "restrict": "16+",
  "kinopoisk_id": "41233",
  "kinopoisk_rating": "6.28",
  "imdb_rating": "6.2",
  "duration": "4980",
  "category": "Фильмы",
  "genres": "Военные,Драмы,Криминал,Русские",
  "vr_identifier": "Кавказская рулетка",
  "iframe": "https://www.ivi.ru/embeds/video/?subsite=1&autostart=0&videoid=54218"
}