{
  "content_id": "89571",
  "title": "Руслан",
  "orig_title": "Driven to Kill",
  "release_date": "2009",
  "orig_country": "США",
  "lang": "Английский",
  "restrict": "18+",
  "kinopoisk_id": "412315",
  "kinopoisk_rating": "5.32",
  "imdb_rating": "5.2",
  "duration": "5883",
  "category": "Фильмы",
  "genres": "Боевики,Зарубежные,Криминал,Триллеры",
  "vr_identifier": "DRIVEN TO KILL",
  "iframe": "https://www.ivi.ru/embeds/video/?subsite=1&autostart=0&videoid=89571"
}