{
  "content_id": "71439",
  "title": "Возвращение",
  "orig_title": "The Return",
  "compilation_id": "7966",
  "compilation": "Робинзон Крузо",
  "release_date": "2008",
  "orig_country": "США",
  "lang": "Английский",
  "restrict": "12+",
  "kinopoisk_id": "412371",
  "kinopoisk_rating": "7.25",
  "imdb_rating": "6.9",
  "season": "1",
  "episode": "13",
  "duration": "2577",
  "category": "Сериалы",
  "genres": "Драмы,Зарубежные,Приключения",
  "vr_identifier": "Серия 13##Крузо",
  "iframe": "https://www.ivi.ru/embeds/video/?subsite=1&autostart=0&videoid=71439"
}