{
  "content_id": "168073",
  "title": "Таланты и поклонники",
  "release_date": "1973",
  "orig_country": "СССР",
  "lang": "Русский",
  "restrict": "12+",
  "kinopoisk_id": "412492",
  "kinopoisk_rating": "6.63",
  "imdb_rating": "6.7",
  "duration": "5100",
  "category": "Фильмы",
  "genres": "Драмы,Советское кино",
  "vr_identifier": "Таланты и поклонники",
  "iframe": "https://www.ivi.ru/embeds/video/?subsite=1&autostart=0&videoid=168073"
}