{
  "content_id": "45154",
  "title": "Лукоморье. Няня",
  "release_date": "2000",
  "orig_country": "Россия",
  "lang": "Русский",
  "restrict": "0+",
  "kinopoisk_id": "41298",
  "duration": "1000",
  "category": "Мультфильмы",
  "genres": "Для детей,Русские,Русские мультфильмы",
  "vr_identifier": "Лукоморье. Няня",
  "iframe": "https://www.ivi.ru/embeds/video/?subsite=1&autostart=0&videoid=45154"
}