{
  "content_id": "49995",
  "title": "Женская собственность",
  "release_date": "1999",
  "orig_country": "Россия",
  "lang": "Русский",
  "restrict": "16+",
  "kinopoisk_id": "41340",
  "kinopoisk_rating": "7.41",
  "imdb_rating": "7.1",
  "duration": "5340",
  "category": "Фильмы",
  "genres": "Драмы,Мелодрамы,Русские",
  "vr_identifier": "Женская собственность",
  "iframe": "https://www.ivi.ru/embeds/video/?subsite=1&autostart=0&videoid=49995"
}