{
  "content_id": "87592",
  "title": "Старая добрая оргия",
  "orig_title": "A Good Old Fashioned Orgy",
  "release_date": "2011",
  "orig_country": "США",
  "lang": "Английский",
  "restrict": "16+",
  "kinopoisk_id": "413579",
  "kinopoisk_rating": "6.05",
  "imdb_rating": "6.2",
  "duration": "5675",
  "category": "Фильмы",
  "genres": "Зарубежные,Комедии",
  "vr_identifier": "Старая добрая оргия",
  "iframe": "https://www.ivi.ru/embeds/video/?subsite=1&autostart=0&videoid=87592"
}