{
  "content_id": "414536",
  "title": "Вернуть Веру",
  "release_date": "2006",
  "orig_country": "Украина",
  "lang": "Русский",
  "restrict": "16+",
  "kinopoisk_id": "414651",
  "duration": "5007",
  "category": "Фильмы",
  "genres": "Драмы,Мелодрамы",
  "vr_identifier": "Вернуть Веру",
  "iframe": "https://www.ivi.ru/embeds/video/?subsite=1&autostart=0&videoid=414536"
}