{
  "content_id": "114778",
  "title": "Не послать ли нам... гонца?",
  "release_date": "1998",
  "orig_country": "Россия",
  "lang": "Русский",
  "restrict": "12+",
  "kinopoisk_id": "41548",
  "kinopoisk_rating": "6.98",
  "imdb_rating": "6.2",
  "duration": "5945",
  "category": "Фильмы",
  "genres": "Детективы,Драмы,Комедии,Приключения,Русские",
  "vr_identifier": "Не послать ли нам... гонца?",
  "iframe": "https://www.ivi.ru/embeds/video/?subsite=1&autostart=0&videoid=114778"
}