{
  "content_id": "74858",
  "title": "Небо в алмазах",
  "release_date": "1999",
  "orig_country": "Россия",
  "lang": "Русский",
  "restrict": "16+",
  "kinopoisk_id": "41552",
  "kinopoisk_rating": "5.74",
  "imdb_rating": "5.7",
  "duration": "6900",
  "category": "Фильмы",
  "genres": "Комедии,Русские",
  "vr_identifier": "Небо в алмазах",
  "iframe": "https://www.ivi.ru/embeds/video/?subsite=1&autostart=0&videoid=74858"
}