{
  "content_id": "89646",
  "title": "Девушка по вызову",
  "orig_title": "The Girlfriend Experience",
  "release_date": "2009",
  "orig_country": "США",
  "lang": "Английский",
  "restrict": "16+",
  "kinopoisk_id": "415616",
  "kinopoisk_rating": "4.74",
  "imdb_rating": "5.5",
  "duration": "4616",
  "category": "Фильмы",
  "genres": "Драмы,Зарубежные",
  "vr_identifier": "GIRLFRIEND EXPERIENCE, THE",
  "iframe": "https://www.ivi.ru/embeds/video/?subsite=1&autostart=0&videoid=89646"
}