{
  "content_id": "60444",
  "title": "Дорогой Джон",
  "orig_title": "Dear John",
  "release_date": "2010",
  "orig_country": "США",
  "lang": "Английский",
  "restrict": "12+",
  "kinopoisk_id": "415687",
  "kinopoisk_rating": "7.27",
  "imdb_rating": "6.3",
  "duration": "6453",
  "category": "Фильмы",
  "genres": "Военные,Драмы,Зарубежные,Мелодрамы",
  "vr_identifier": "Дорогой Джон",
  "iframe": "https://www.ivi.ru/embeds/video/?subsite=1&autostart=0&videoid=60444"
}