{
  "content_id": "26604",
  "title": "Молох",
  "release_date": "1999",
  "orig_country": "Россия",
  "lang": "Русский",
  "restrict": "18+",
  "kinopoisk_id": "41625",
  "kinopoisk_rating": "6.93",
  "imdb_rating": "6.8",
  "duration": "7376",
  "category": "Фильмы",
  "genres": "Драмы",
  "vr_identifier": "Молох",
  "iframe": "https://www.ivi.ru/embeds/video/?subsite=1&autostart=0&videoid=26604"
}