{
  "content_id": "91658",
  "title": "Родные и близкие",
  "release_date": "2007",
  "orig_country": "Россия",
  "lang": "Русский",
  "restrict": "16+",
  "kinopoisk_id": "417790",
  "duration": "5639",
  "category": "Фильмы",
  "genres": "Драмы,Мелодрамы,Русские",
  "vr_identifier": "Родные и близкие",
  "iframe": "https://www.ivi.ru/embeds/video/?subsite=1&autostart=0&videoid=91658"
}