{
  "content_id": "218290",
  "title": "Осторожно! Красная ртуть!",
  "release_date": "1995",
  "orig_country": "Украина",
  "lang": "Русский",
  "restrict": "16+",
  "kinopoisk_id": "417887",
  "kinopoisk_rating": "4.34",
  "duration": "4510",
  "category": "Фильмы",
  "genres": "Детективы,Зарубежные,Криминал",
  "vr_identifier": "Осторожно, красная ртуть",
  "iframe": "https://www.ivi.ru/embeds/video/?subsite=1&autostart=0&videoid=218290"
}