{
  "content_id": "41191",
  "title": "Каникулы строгого режима",
  "release_date": "2009",
  "orig_country": "Россия",
  "lang": "Русский",
  "restrict": "6+",
  "kinopoisk_id": "417840",
  "kinopoisk_rating": "7.06",
  "imdb_rating": "6.4",
  "duration": "6588",
  "category": "Фильмы",
  "genres": "Для всей семьи,Драмы,Комедии,Приключения,Русские",
  "vr_identifier": "Каникулы строгого режима",
  "iframe": "https://www.ivi.ru/embeds/video/?subsite=1&autostart=0&videoid=41191"
}