{
  "content_id": "18156",
  "title": "Ижорский батальон",
  "release_date": "1972",
  "orig_country": "СССР",
  "lang": "Русский",
  "restrict": "6+",
  "kinopoisk_id": "419608",
  "kinopoisk_rating": "6.78",
  "imdb_rating": "6.7",
  "duration": "5310",
  "category": "Фильмы",
  "genres": "Военные,Драмы,Советское кино",
  "vr_identifier": "Ижорский батальон",
  "iframe": "https://www.ivi.ru/embeds/video/?subsite=1&autostart=0&videoid=18156"
}