{
  "content_id": "218373",
  "title": "Эксперимент доктора Абста",
  "release_date": "1968",
  "orig_country": "СССР",
  "lang": "Русский",
  "restrict": "0+",
  "kinopoisk_id": "41984",
  "kinopoisk_rating": "5.59",
  "imdb_rating": "5.3",
  "duration": "5046",
  "category": "Фильмы",
  "genres": "Боевики,Военные,Приключения,Советское кино",
  "vr_identifier": "Эксперимент доктора Абста",
  "iframe": "https://www.ivi.ru/embeds/video/?subsite=1&autostart=0&videoid=218373"
}