{
  "content_id": "54857",
  "title": "Призраки Молли Хартли",
  "orig_title": "The Haunting of Molly Hartley",
  "release_date": "2008",
  "orig_country": "США",
  "lang": "Английский",
  "restrict": "16+",
  "kinopoisk_id": "420180",
  "kinopoisk_rating": "5.02",
  "imdb_rating": "3.9",
  "duration": "4892",
  "category": "Фильмы",
  "genres": "Драмы,Зарубежные,Триллеры,Ужасы",
  "vr_identifier": "Призраки Молли Хартли",
  "iframe": "https://www.ivi.ru/embeds/video/?subsite=1&autostart=0&videoid=54857"
}