{
  "content_id": "109707",
  "title": "Любовь Авроры",
  "release_date": "2007",
  "orig_country": "Украина",
  "lang": "Русский",
  "restrict": "16+",
  "kinopoisk_id": "420297",
  "duration": "5331",
  "category": "Фильмы",
  "genres": "Комедии,Мелодрамы",
  "vr_identifier": "Любовь Авроры",
  "iframe": "https://www.ivi.ru/embeds/video/?subsite=1&autostart=0&videoid=109707"
}