{
  "content_id": "99869",
  "title": "Варенька",
  "release_date": "2006",
  "orig_country": "Россия",
  "lang": "Русский",
  "restrict": "16+",
  "kinopoisk_id": "420369",
  "kinopoisk_rating": "5.38",
  "duration": "5400",
  "category": "Фильмы",
  "genres": "Для всей семьи,Мелодрамы,Русские",
  "vr_identifier": "Варенька",
  "iframe": "https://www.ivi.ru/embeds/video/?subsite=1&autostart=0&videoid=99869"
}