{
  "content_id": "218320",
  "title": "Разведчики",
  "release_date": "1968",
  "orig_country": "СССР",
  "lang": "Русский",
  "restrict": "12+",
  "kinopoisk_id": "42073",
  "kinopoisk_rating": "7.16",
  "imdb_rating": "6.8",
  "duration": "4494",
  "category": "Фильмы",
  "genres": "Военные,Драмы,Приключения,Советское кино",
  "vr_identifier": "Разведчики",
  "iframe": "https://www.ivi.ru/embeds/video/?subsite=1&autostart=0&videoid=218320"
}