{
  "content_id": "2613",
  "title": "М+Ж (Я Люблю Тебя)",
  "release_date": "2009",
  "orig_country": "Россия",
  "lang": "Русский",
  "restrict": "12+",
  "kinopoisk_id": "421056",
  "kinopoisk_rating": "5.91",
  "imdb_rating": "5.8",
  "duration": "4593",
  "category": "Фильмы",
  "genres": "Комедии,Мелодрамы,Русские",
  "vr_identifier": "CP0205",
  "iframe": "https://www.ivi.ru/embeds/video/?subsite=1&autostart=0&videoid=2613"
}