{
  "content_id": "31794",
  "title": "Рудольфио",
  "release_date": "1969",
  "orig_country": "СССР",
  "lang": "Русский",
  "restrict": "16+",
  "kinopoisk_id": "42139",
  "kinopoisk_rating": "7.28",
  "imdb_rating": "7",
  "duration": "1411",
  "category": "Фильмы",
  "genres": "Драмы,Короткометражки,Советское кино",
  "vr_identifier": "Рудольфио",
  "iframe": "https://www.ivi.ru/embeds/video/?subsite=1&autostart=0&videoid=31794"
}