{
  "content_id": "168216",
  "title": "Рыжик",
  "release_date": "1960",
  "orig_country": "СССР",
  "lang": "Русский",
  "restrict": "0+",
  "kinopoisk_id": "42162",
  "kinopoisk_rating": "7.02",
  "imdb_rating": "7.6",
  "duration": "5053",
  "category": "Фильмы",
  "genres": "Для всей семьи,Драмы,Приключения,Советское кино",
  "vr_identifier": "Рыжик",
  "iframe": "https://www.ivi.ru/embeds/video/?subsite=1&autostart=0&videoid=168216"
}