{
  "content_id": "45860",
  "title": "Трембита",
  "release_date": "1968",
  "orig_country": "СССР",
  "lang": "Русский",
  "restrict": "0+",
  "kinopoisk_id": "42284",
  "kinopoisk_rating": "7.33",
  "imdb_rating": "7.1",
  "duration": "5520",
  "category": "Фильмы",
  "genres": "Комедии,Мелодрамы,Музыкальные,Советское кино",
  "vr_identifier": "Трембита",
  "iframe": "https://www.ivi.ru/embeds/video/?subsite=1&autostart=0&videoid=45860"
}