{
  "content_id": "85493",
  "title": "Прилетит вдруг волшебник",
  "release_date": "2008",
  "orig_country": "Россия",
  "lang": "Русский",
  "restrict": "16+",
  "kinopoisk_id": "422949",
  "kinopoisk_rating": "5.74",
  "duration": "5511",
  "category": "Фильмы",
  "genres": "Мелодрамы,Русские",
  "vr_identifier": "Прилетит вдруг волшебник",
  "iframe": "https://www.ivi.ru/embeds/video/?subsite=1&autostart=0&videoid=85493"
}