{
  "content_id": "218350",
  "title": "Тревожный месяц вересень",
  "release_date": "1977",
  "orig_country": "СССР",
  "lang": "Русский",
  "restrict": "12+",
  "kinopoisk_id": "42295",
  "kinopoisk_rating": "6.29",
  "imdb_rating": "6.6",
  "duration": "5372",
  "category": "Фильмы",
  "genres": "Боевики,Военные,Русские,Советское кино",
  "vr_identifier": "Тревожный месяц вересень",
  "iframe": "https://www.ivi.ru/embeds/video/?subsite=1&autostart=0&videoid=218350"
}