{
  "content_id": "50650",
  "title": "Игры в солдатики",
  "release_date": "2007",
  "orig_country": "Украина",
  "lang": "Русский",
  "restrict": "16+",
  "kinopoisk_id": "423025",
  "kinopoisk_rating": "4.67",
  "duration": "6040",
  "category": "Фильмы",
  "genres": "Драмы,Мелодрамы",
  "vr_identifier": "Игры в солдатики",
  "iframe": "https://www.ivi.ru/embeds/video/?subsite=1&autostart=0&videoid=50650"
}