{
  "content_id": "2659",
  "title": "Невеста любой ценой",
  "release_date": "2009",
  "orig_country": "Россия",
  "lang": "Русский",
  "restrict": "16+",
  "kinopoisk_id": "423006",
  "kinopoisk_rating": "4.62",
  "imdb_rating": "4.8",
  "duration": "5830",
  "category": "Фильмы",
  "genres": "Комедии,Русские",
  "vr_identifier": "CP0240",
  "iframe": "https://www.ivi.ru/embeds/video/?subsite=1&autostart=0&videoid=2659"
}