{
  "content_id": "34325",
  "title": "Царевич Проша",
  "release_date": "1974",
  "orig_country": "СССР",
  "lang": "Русский",
  "restrict": "12+",
  "kinopoisk_id": "42333",
  "kinopoisk_rating": "7.07",
  "imdb_rating": "6.8",
  "duration": "5081",
  "category": "Фильмы",
  "genres": "Для всей семьи,Для детей,Советское кино,Фильмы,Фэнтези",
  "vr_identifier": "Царевич Проша",
  "iframe": "https://www.ivi.ru/embeds/video/?subsite=1&autostart=0&videoid=34325"
}