{
  "content_id": "168233",
  "title": "Я вас любил...",
  "release_date": "1967",
  "orig_country": "СССР",
  "restrict": "12+",
  "kinopoisk_id": "42406",
  "kinopoisk_rating": "7.62",
  "imdb_rating": "7.4",
  "duration": "5142",
  "category": "Фильмы",
  "genres": "Комедии,Мелодрамы,Советское кино",
  "vr_identifier": "Я Вас любил",
  "iframe": "https://www.ivi.ru/embeds/video/?subsite=1&autostart=0&videoid=168233"
}