{
  "content_id": "60690",
  "title": "Книга Илая",
  "orig_title": "The Book of Eli",
  "release_date": "2009",
  "orig_country": "США",
  "lang": "Английский",
  "restrict": "16+",
  "kinopoisk_id": "424266",
  "kinopoisk_rating": "7.14",
  "imdb_rating": "6.9",
  "duration": "7020",
  "category": "Фильмы",
  "genres": "Боевики,Драмы,Зарубежные,Приключения,Триллеры",
  "vr_identifier": "Книга Илая",
  "iframe": "https://www.ivi.ru/embeds/video/?subsite=1&autostart=0&videoid=60690"
}