{
  "content_id": "60880",
  "title": "Универсальный солдат 3: Возрождение",
  "orig_title": "Universal Soldier: Regeneration",
  "release_date": "2009",
  "orig_country": "США",
  "lang": "Английский",
  "restrict": "16+",
  "kinopoisk_id": "424403",
  "kinopoisk_rating": "4.46",
  "imdb_rating": "5.2",
  "duration": "5812",
  "category": "Фильмы",
  "genres": "Боевики,Зарубежные,Приключения,Триллеры,Фантастика",
  "vr_identifier": "Universal Soldier: Regeneration",
  "iframe": "https://www.ivi.ru/embeds/video/?subsite=1&autostart=0&videoid=60880"
}