{
  "content_id": "18152",
  "title": "Евгений Онегин",
  "release_date": "1958",
  "orig_country": "СССР",
  "lang": "Русский",
  "restrict": "12+",
  "kinopoisk_id": "42455",
  "kinopoisk_rating": "7.99",
  "imdb_rating": "7.4",
  "duration": "6114",
  "category": "Фильмы",
  "genres": "Драмы,Музыкальные,Советское кино,Фильмы-спектакли",
  "vr_identifier": "Евгений Онегин",
  "iframe": "https://www.ivi.ru/embeds/video/?subsite=1&autostart=0&videoid=18152"
}