{
  "content_id": "167503",
  "title": "Юность Бемби",
  "release_date": "1986",
  "orig_country": "СССР",
  "restrict": "12+",
  "kinopoisk_id": "42466",
  "kinopoisk_rating": "6.24",
  "imdb_rating": "5.6",
  "duration": "3922",
  "category": "Фильмы",
  "genres": "Для всей семьи,Приключения,Сказки,Советское кино,Фильмы,Фэнтези",
  "vr_identifier": "Юность Бемби",
  "iframe": "https://www.ivi.ru/embeds/video/?subsite=1&autostart=0&videoid=167503"
}