{
  "content_id": "53417",
  "title": "Бэндслэм",
  "orig_title": "Bandslam",
  "release_date": "2009",
  "orig_country": "США",
  "lang": "Английский",
  "restrict": "6+",
  "kinopoisk_id": "425085",
  "kinopoisk_rating": "6.76",
  "imdb_rating": "6.3",
  "duration": "6393",
  "category": "Фильмы",
  "genres": "Для всей семьи,Драмы,Зарубежные,Комедии,Мелодрамы,Музыкальные",
  "vr_identifier": "Бэндслэм",
  "iframe": "https://www.ivi.ru/embeds/video/?subsite=1&autostart=0&videoid=53417"
}