{
  "content_id": "50710",
  "title": "Ван Гог не виноват",
  "release_date": "2007",
  "orig_country": "Украина",
  "lang": "Русский",
  "restrict": "16+",
  "kinopoisk_id": "425079",
  "kinopoisk_rating": "5",
  "duration": "5304",
  "category": "Фильмы",
  "genres": "Зарубежные,Комедии,Мелодрамы",
  "vr_identifier": "Ван Гог не виноват",
  "iframe": "https://www.ivi.ru/embeds/video/?subsite=1&autostart=0&videoid=50710"
}