{
  "content_id": "218359",
  "title": "Украинская рапсодия",
  "release_date": "1961",
  "orig_country": "СССР",
  "lang": "Русский",
  "restrict": "12+",
  "kinopoisk_id": "42511",
  "kinopoisk_rating": "6.07",
  "imdb_rating": "6.5",
  "duration": "5000",
  "category": "Фильмы",
  "genres": "Военные,Драмы,Музыкальные,Советское кино",
  "vr_identifier": "Украинская рапсодия",
  "iframe": "https://www.ivi.ru/embeds/video/?subsite=1&autostart=0&videoid=218359"
}