{
  "content_id": "31850",
  "title": "Под каменным небом",
  "release_date": "1974",
  "orig_country": "СССР",
  "lang": "Русский",
  "restrict": "12+",
  "kinopoisk_id": "42523",
  "kinopoisk_rating": "5.67",
  "imdb_rating": "6.7",
  "duration": "5039",
  "category": "Фильмы",
  "genres": "Военные,Драмы,Советское кино",
  "vr_identifier": "Под каменным небом",
  "iframe": "https://www.ivi.ru/embeds/video/?subsite=1&autostart=0&videoid=31850"
}