{
  "content_id": "54670",
  "title": "Увольнение на берег",
  "release_date": "1962",
  "orig_country": "СССР",
  "lang": "Русский",
  "restrict": "0+",
  "kinopoisk_id": "42548",
  "kinopoisk_rating": "7.84",
  "imdb_rating": "7.6",
  "duration": "4983",
  "category": "Фильмы",
  "genres": "Мелодрамы,Советское кино",
  "vr_identifier": "Увольнение на берег",
  "iframe": "https://www.ivi.ru/embeds/video/?subsite=1&autostart=0&videoid=54670"
}