{
  "content_id": "18161",
  "title": "Игрок",
  "release_date": "1972",
  "orig_country": "СССР",
  "lang": "Русский",
  "restrict": "12+",
  "kinopoisk_id": "42582",
  "kinopoisk_rating": "7.18",
  "imdb_rating": "7.1",
  "duration": "5642",
  "category": "Фильмы",
  "genres": "Драмы,Советское кино",
  "vr_identifier": "Игрок",
  "iframe": "https://www.ivi.ru/embeds/video/?subsite=1&autostart=0&videoid=18161"
}