{
  "content_id": "18162",
  "title": "Интервенция",
  "release_date": "1967",
  "orig_country": "СССР",
  "lang": "Русский",
  "restrict": "12+",
  "kinopoisk_id": "42612",
  "kinopoisk_rating": "7.11",
  "imdb_rating": "6.8",
  "duration": "6089",
  "category": "Фильмы",
  "genres": "Комедии,Приключения,Советское кино",
  "vr_identifier": "Интервенция",
  "iframe": "https://www.ivi.ru/embeds/video/?subsite=1&autostart=0&videoid=18162"
}