{
  "content_id": "211589",
  "title": "Ищи ветра…",
  "release_date": "1979",
  "orig_country": "СССР",
  "lang": "Русский",
  "restrict": "12+",
  "kinopoisk_id": "42620",
  "kinopoisk_rating": "7.1",
  "imdb_rating": "7.1",
  "duration": "4515",
  "category": "Фильмы",
  "genres": "Драмы,Исторические,Приключения,Советское кино",
  "vr_identifier": "Ищи ветра",
  "iframe": "https://www.ivi.ru/embeds/video/?subsite=1&autostart=0&videoid=211589"
}