{
  "content_id": "54199",
  "title": "Исход",
  "release_date": "1968",
  "orig_country": "СССР",
  "lang": "Русский",
  "restrict": "12+",
  "kinopoisk_id": "42626",
  "kinopoisk_rating": "6.18",
  "imdb_rating": "7.2",
  "duration": "5094",
  "category": "Фильмы",
  "genres": "Военные,Драмы,Советское кино,Триллеры",
  "vr_identifier": "Исход",
  "iframe": "https://www.ivi.ru/embeds/video/?subsite=1&autostart=0&videoid=54199"
}