{
  "content_id": "218230",
  "title": "Иванна",
  "release_date": "1960",
  "orig_country": "СССР",
  "lang": "Русский",
  "restrict": "16+",
  "kinopoisk_id": "42665",
  "kinopoisk_rating": "6.27",
  "imdb_rating": "7.1",
  "duration": "5408",
  "category": "Фильмы",
  "genres": "Драмы,Советское кино",
  "vr_identifier": "Иванна",
  "iframe": "https://www.ivi.ru/embeds/video/?subsite=1&autostart=0&videoid=218230"
}