{
  "content_id": "168150",
  "title": "Из жизни начальника уголовного розыска",
  "release_date": "1983",
  "orig_country": "СССР",
  "lang": "Русский",
  "restrict": "16+",
  "kinopoisk_id": "42673",
  "kinopoisk_rating": "7.18",
  "imdb_rating": "6.1",
  "duration": "5946",
  "category": "Фильмы",
  "genres": "Драмы,Криминал,Советское кино",
  "vr_identifier": "Из жизни начальника уголовного розыска",
  "iframe": "https://www.ivi.ru/embeds/video/?subsite=1&autostart=0&videoid=168150"
}