{
  "content_id": "211601",
  "title": "Один и без оружия",
  "release_date": "1984",
  "orig_country": "СССР",
  "lang": "Русский",
  "restrict": "16+",
  "kinopoisk_id": "42717",
  "kinopoisk_rating": "6.74",
  "imdb_rating": "5.8",
  "duration": "4352",
  "category": "Фильмы",
  "genres": "Боевики,Криминал,Приключения,Советское кино,Экранизации",
  "vr_identifier": "Один и без оружия",
  "iframe": "https://www.ivi.ru/embeds/video/?subsite=1&autostart=0&videoid=211601"
}