{
  "content_id": "218287",
  "title": "Одинокая женщина желает познакомиться",
  "release_date": "1986",
  "orig_country": "СССР",
  "lang": "Русский",
  "restrict": "16+",
  "kinopoisk_id": "42725",
  "kinopoisk_rating": "7.39",
  "imdb_rating": "6.7",
  "duration": "5066",
  "category": "Фильмы",
  "genres": "Мелодрамы,Советское кино",
  "vr_identifier": "Одинокая женщина желает познакомиться",
  "iframe": "https://www.ivi.ru/embeds/video/?subsite=1&autostart=0&videoid=218287"
}