{
  "content_id": "26553",
  "title": "Одинокий голос человека",
  "release_date": "1978",
  "orig_country": "СССР",
  "lang": "Русский",
  "restrict": "12+",
  "kinopoisk_id": "42726",
  "kinopoisk_rating": "6.94",
  "imdb_rating": "7.2",
  "duration": "4935",
  "category": "Фильмы",
  "genres": "Драмы,Советское кино",
  "vr_identifier": "Одинокий голос человека",
  "iframe": "https://www.ivi.ru/embeds/video/?subsite=1&autostart=0&videoid=26553"
}