{
  "content_id": "74865",
  "title": "Из Парижа с любовью",
  "orig_title": "From Paris with Love",
  "release_date": "2009",
  "orig_country": "Франция",
  "lang": "Английский",
  "restrict": "16+",
  "kinopoisk_id": "427202",
  "kinopoisk_rating": "7.29",
  "imdb_rating": "6.5",
  "duration": "5559",
  "category": "Фильмы",
  "genres": "Боевики,Детективы,Зарубежные,Комедии",
  "vr_identifier": "Из Парижа с любовью",
  "iframe": "https://www.ivi.ru/embeds/video/?subsite=1&autostart=0&videoid=74865"
}