{
  "content_id": "89569",
  "title": "Хранитель",
  "orig_title": "The Keeper",
  "release_date": "2009",
  "orig_country": "США",
  "lang": "Английский",
  "restrict": "16+",
  "kinopoisk_id": "427208",
  "kinopoisk_rating": "5.81",
  "imdb_rating": "5.2",
  "duration": "5420",
  "category": "Фильмы",
  "genres": "Боевики,Детективы,Зарубежные,Триллеры",
  "vr_identifier": "KEEPER",
  "iframe": "https://www.ivi.ru/embeds/video/?subsite=1&autostart=0&videoid=89569"
}