{
  "content_id": "211602",
  "title": "Однофамилец",
  "release_date": "1978",
  "orig_country": "СССР",
  "lang": "Русский",
  "restrict": "0+",
  "kinopoisk_id": "42733",
  "kinopoisk_rating": "6.39",
  "duration": "7495",
  "category": "Фильмы",
  "genres": "Мелодрамы,Советское кино,Экранизации",
  "vr_identifier": "Однофамилец",
  "iframe": "https://www.ivi.ru/embeds/video/?subsite=1&autostart=0&videoid=211602"
}