{
  "content_id": "166956",
  "title": "Огонь, вода и ... медные трубы",
  "release_date": "1967",
  "orig_country": "СССР",
  "restrict": "6+",
  "kinopoisk_id": "42747",
  "kinopoisk_rating": "7.88",
  "imdb_rating": "7.2",
  "duration": "4858",
  "category": "Фильмы",
  "genres": "Для всей семьи,Мелодрамы,Музыкальные,Сказки,Советское кино,Фильмы",
  "vr_identifier": "Огонь, вода и медные трубы",
  "iframe": "https://www.ivi.ru/embeds/video/?subsite=1&autostart=0&videoid=166956"
}