{
  "content_id": "60265",
  "title": "Огненные версты",
  "release_date": "1957",
  "orig_country": "СССР",
  "lang": "Русский",
  "restrict": "12+",
  "kinopoisk_id": "42741",
  "kinopoisk_rating": "6.25",
  "imdb_rating": "6.2",
  "duration": "4776",
  "category": "Фильмы",
  "genres": "Военные,Советское кино",
  "vr_identifier": "Огненные версты",
  "iframe": "https://www.ivi.ru/embeds/video/?subsite=1&autostart=0&videoid=60265"
}