{
  "content_id": "26536",
  "title": "Она защищает Родину",
  "release_date": "1943",
  "orig_country": "СССР",
  "lang": "Русский",
  "restrict": "6+",
  "kinopoisk_id": "42767",
  "kinopoisk_rating": "6.75",
  "imdb_rating": "6.6",
  "duration": "4501",
  "category": "Фильмы",
  "genres": "Военные,Драмы,Советское кино",
  "vr_identifier": "Она защищает Родину",
  "iframe": "https://www.ivi.ru/embeds/video/?subsite=1&autostart=0&videoid=26536"
}