{
  "content_id": "218289",
  "title": "Олеся",
  "release_date": "1971",
  "orig_country": "СССР",
  "lang": "Русский",
  "restrict": "12+",
  "kinopoisk_id": "42762",
  "kinopoisk_rating": "7.3",
  "imdb_rating": "7.2",
  "duration": "4845",
  "category": "Фильмы",
  "genres": "Драмы,Советское кино",
  "vr_identifier": "Олеся",
  "iframe": "https://www.ivi.ru/embeds/video/?subsite=1&autostart=0&videoid=218289"
}