{
  "content_id": "51952",
  "title": "Поп",
  "release_date": "2009",
  "orig_country": "Россия",
  "lang": "Русский",
  "restrict": "16+",
  "kinopoisk_id": "427887",
  "kinopoisk_rating": "7.36",
  "imdb_rating": "7.1",
  "duration": "7414",
  "category": "Фильмы",
  "genres": "Военные,Драмы,Русские",
  "vr_identifier": "Поп",
  "iframe": "https://www.ivi.ru/embeds/video/?subsite=1&autostart=0&videoid=51952"
}