{
  "content_id": "49079",
  "title": "Тайна в его глазах",
  "orig_title": "El secreto de sus ojos",
  "release_date": "2009",
  "orig_country": "Испания",
  "lang": "Испанский",
  "restrict": "16+",
  "kinopoisk_id": "428003",
  "kinopoisk_rating": "7.47",
  "imdb_rating": "8.2",
  "duration": "7419",
  "category": "Фильмы",
  "genres": "Детективы,Драмы,Зарубежные,Триллеры,Экранизации",
  "vr_identifier": "Тайна в его глазах",
  "iframe": "https://www.ivi.ru/embeds/video/?subsite=1&autostart=0&videoid=49079"
}