{
  "content_id": "26556",
  "title": "Отцы и дети",
  "release_date": "1958",
  "orig_country": "СССР",
  "lang": "Русский",
  "restrict": "12+",
  "kinopoisk_id": "42855",
  "kinopoisk_rating": "6.83",
  "imdb_rating": "6.6",
  "duration": "5790",
  "category": "Фильмы",
  "genres": "Драмы,Советское кино",
  "vr_identifier": "Отцы и дети",
  "iframe": "https://www.ivi.ru/embeds/video/?subsite=1&autostart=0&videoid=26556"
}