{
  "content_id": "40528",
  "title": "Падал прошлогодний снег",
  "release_date": "1983",
  "orig_country": "СССР",
  "lang": "Русский",
  "restrict": "12+",
  "kinopoisk_id": "42866",
  "kinopoisk_rating": "8.77",
  "imdb_rating": "8.5",
  "duration": "1195",
  "category": "Мультфильмы",
  "genres": "Для детей,Русские,Советские",
  "vr_identifier": "Падал прошлогодний снег",
  "iframe": "https://www.ivi.ru/embeds/video/?subsite=1&autostart=0&videoid=40528"
}