{
  "content_id": "60287",
  "title": "Пена",
  "release_date": "1979",
  "orig_country": "СССР",
  "lang": "Русский",
  "restrict": "16+",
  "kinopoisk_id": "42915",
  "kinopoisk_rating": "6.28",
  "imdb_rating": "6.4",
  "duration": "4717",
  "category": "Фильмы",
  "genres": "Комедии,Советское кино",
  "vr_identifier": "Пена",
  "iframe": "https://www.ivi.ru/embeds/video/?subsite=1&autostart=0&videoid=60287"
}