{
  "content_id": "45971",
  "title": "Перед рассветом",
  "release_date": "1989",
  "orig_country": "СССР",
  "lang": "Русский",
  "restrict": "16+",
  "kinopoisk_id": "42919",
  "kinopoisk_rating": "7.65",
  "imdb_rating": "6.9",
  "duration": "5100",
  "category": "Фильмы",
  "genres": "Боевики,Военные,Советское кино",
  "vr_identifier": "Перед рассветом",
  "iframe": "https://www.ivi.ru/embeds/video/?subsite=1&autostart=0&videoid=45971"
}