{
  "content_id": "60290",
  "title": "Первое свидание",
  "release_date": "1960",
  "orig_country": "СССР",
  "lang": "Русский",
  "restrict": "12+",
  "kinopoisk_id": "42943",
  "kinopoisk_rating": "6.78",
  "imdb_rating": "6.6",
  "duration": "5193",
  "category": "Фильмы",
  "genres": "Мелодрамы,Советское кино",
  "vr_identifier": "Первое свидание",
  "iframe": "https://www.ivi.ru/embeds/video/?subsite=1&autostart=0&videoid=60290"
}