{
  "content_id": "166961",
  "title": "Пираты ХХ века",
  "release_date": "1979",
  "orig_country": "СССР",
  "restrict": "12+",
  "kinopoisk_id": "42978",
  "kinopoisk_rating": "7.45",
  "imdb_rating": "6.7",
  "duration": "4793",
  "category": "Фильмы",
  "genres": "Боевики,Криминал,Приключения,Советское кино,Триллеры",
  "vr_identifier": "Пираты ХХ века",
  "iframe": "https://www.ivi.ru/embeds/video/?subsite=1&autostart=0&videoid=166961"
}