{
  "content_id": "31854",
  "title": "Плохой хороший человек",
  "release_date": "1973",
  "orig_country": "СССР",
  "lang": "Русский",
  "restrict": "12+",
  "kinopoisk_id": "42995",
  "kinopoisk_rating": "7.85",
  "imdb_rating": "7.5",
  "duration": "5658",
  "category": "Фильмы",
  "genres": "Драмы,Советское кино",
  "vr_identifier": "Плохой хороший человек",
  "iframe": "https://www.ivi.ru/embeds/video/?subsite=1&autostart=0&videoid=31854"
}