{
  "content_id": "60315",
  "title": "Похищение",
  "release_date": "1984",
  "orig_country": "СССР",
  "lang": "Русский",
  "restrict": "0+",
  "kinopoisk_id": "43083",
  "kinopoisk_rating": "0",
  "duration": "5077",
  "category": "Фильмы",
  "genres": "Комедии,Советское кино",
  "vr_identifier": "Похищение",
  "iframe": "https://www.ivi.ru/embeds/video/?subsite=1&autostart=0&videoid=60315"
}