{
  "content_id": "70002",
  "title": "Право на Надежду",
  "release_date": "2008",
  "orig_country": "Украина",
  "lang": "Русский",
  "restrict": "16+",
  "kinopoisk_id": "431042",
  "kinopoisk_rating": "5.77",
  "duration": "5564",
  "category": "Фильмы",
  "genres": "Зарубежные,Мелодрамы",
  "vr_identifier": "Право на Надежду",
  "iframe": "https://www.ivi.ru/embeds/video/?subsite=1&autostart=0&videoid=70002"
}