{
  "content_id": "9592",
  "title": "Парижская любовь Кости Гуманкова",
  "release_date": "2005",
  "orig_country": "Россия",
  "lang": "Русский",
  "restrict": "12+",
  "kinopoisk_id": "431199",
  "kinopoisk_rating": "4.93",
  "duration": "5535",
  "category": "Фильмы",
  "genres": "Комедии,Мелодрамы,Русские",
  "vr_identifier": "Парижская любовь Кости Гуманкова",
  "iframe": "https://www.ivi.ru/embeds/video/?subsite=1&autostart=0&videoid=9592"
}