{
  "content_id": "70007",
  "title": "Мим Бим, или Чужая жизнь",
  "release_date": "2008",
  "orig_country": "Украина",
  "lang": "Русский",
  "restrict": "16+",
  "kinopoisk_id": "431239",
  "kinopoisk_rating": "5.5",
  "duration": "5683",
  "category": "Фильмы",
  "genres": "Детективы,Зарубежные",
  "vr_identifier": "Мим Бим, или Чужая жизнь",
  "iframe": "https://www.ivi.ru/embeds/video/?subsite=1&autostart=0&videoid=70007"
}