{
  "content_id": "31857",
  "title": "Посетитель музея",
  "release_date": "1989",
  "orig_country": "СССР",
  "lang": "Русский",
  "restrict": "12+",
  "kinopoisk_id": "43137",
  "kinopoisk_rating": "7.21",
  "imdb_rating": "7.3",
  "duration": "7681",
  "category": "Фильмы",
  "genres": "Драмы,Советское кино,Фантастика",
  "vr_identifier": "Посетитель музея",
  "iframe": "https://www.ivi.ru/embeds/video/?subsite=1&autostart=0&videoid=31857"
}