{
  "content_id": "31962",
  "title": "Последний дюйм",
  "release_date": "1958",
  "orig_country": "СССР",
  "lang": "Русский",
  "restrict": "6+",
  "kinopoisk_id": "43145",
  "kinopoisk_rating": "7.98",
  "imdb_rating": "7.2",
  "duration": "5085",
  "category": "Фильмы",
  "genres": "Драмы,Приключения,Советское кино",
  "vr_identifier": "Последний дюйм",
  "iframe": "https://www.ivi.ru/embeds/video/?subsite=1&autostart=0&videoid=31962"
}