{
  "content_id": "218306",
  "title": "Последний гейм (на украинском языке)",
  "release_date": "1981",
  "orig_country": "СССР",
  "lang": "Украинский",
  "restrict": "12+",
  "kinopoisk_id": "43146",
  "kinopoisk_rating": "0",
  "duration": "4483",
  "category": "Фильмы",
  "genres": "Детективы,Драмы,Советское кино",
  "vr_identifier": "Последний гейм",
  "iframe": "https://www.ivi.ru/embeds/video/?subsite=1&autostart=0&videoid=218306"
}