{
  "content_id": "60305",
  "title": "Поздняя ягода",
  "release_date": "1979",
  "orig_country": "СССР",
  "lang": "Русский",
  "restrict": "0+",
  "kinopoisk_id": "43208",
  "kinopoisk_rating": "6.99",
  "imdb_rating": "5.2",
  "duration": "5049",
  "category": "Фильмы",
  "genres": "Драмы,Мелодрамы,Советское кино",
  "vr_identifier": "Поздняя ягода",
  "iframe": "https://www.ivi.ru/embeds/video/?subsite=1&autostart=0&videoid=60305"
}