{
  "content_id": "382784",
  "title": "Познавая белый свет",
  "release_date": "1978",
  "orig_country": "СССР",
  "lang": "Русский",
  "restrict": "12+",
  "kinopoisk_id": "43210",
  "kinopoisk_rating": "7.49",
  "imdb_rating": "7.1",
  "duration": "4496",
  "category": "Фильмы",
  "genres": "Драмы,Советское кино",
  "vr_identifier": "Познавая белый свет",
  "iframe": "https://www.ivi.ru/embeds/video/?subsite=1&autostart=0&videoid=382784"
}