{
  "content_id": "19878",
  "title": "Праздник Нептуна",
  "release_date": "1987",
  "orig_country": "СССР",
  "lang": "Русский",
  "restrict": "0+",
  "kinopoisk_id": "43220",
  "kinopoisk_rating": "7.61",
  "imdb_rating": "7.1",
  "duration": "2589",
  "category": "Фильмы",
  "genres": "Комедии,Советское кино",
  "vr_identifier": "Праздник Нептуна",
  "iframe": "https://www.ivi.ru/embeds/video/?subsite=1&autostart=0&videoid=19878"
}