{
  "content_id": "130826",
  "title": "Ехал Ваня",
  "release_date": "1975",
  "orig_country": "СССР",
  "lang": "Русский",
  "restrict": "0+",
  "kinopoisk_id": "432406",
  "kinopoisk_rating": "6.57",
  "duration": "435",
  "category": "Мультфильмы",
  "genres": "Для детей,Советские",
  "vr_identifier": "Ехал Ваня",
  "iframe": "https://www.ivi.ru/embeds/video/?subsite=1&autostart=0&videoid=130826"
}