{
  "content_id": "33919",
  "title": "Черная чайка",
  "release_date": "1962",
  "orig_country": "СССР",
  "lang": "Русский",
  "restrict": "12+",
  "kinopoisk_id": "432594",
  "kinopoisk_rating": "6.66",
  "duration": "5874",
  "category": "Фильмы",
  "genres": "Приключения,Советское кино",
  "vr_identifier": "Черная чайка",
  "iframe": "https://www.ivi.ru/embeds/video/?subsite=1&autostart=0&videoid=33919"
}