{
  "content_id": "110213",
  "title": "Крыша",
  "release_date": "2009",
  "orig_country": "Россия",
  "lang": "Русский",
  "restrict": "16+",
  "kinopoisk_id": "432679",
  "kinopoisk_rating": "5.26",
  "imdb_rating": "5.6",
  "duration": "6214",
  "category": "Фильмы",
  "genres": "Драмы,Русские",
  "vr_identifier": "Крыша",
  "iframe": "https://www.ivi.ru/embeds/video/?subsite=1&autostart=0&videoid=110213"
}