{
  "content_id": "19897",
  "title": "Звездочка моя ненаглядная",
  "release_date": "2000",
  "orig_country": "Россия",
  "lang": "Русский",
  "restrict": "16+",
  "kinopoisk_id": "432649",
  "kinopoisk_rating": "6.22",
  "duration": "5394",
  "category": "Фильмы",
  "genres": "Мелодрамы",
  "vr_identifier": "Звездочка моя ненаглядная",
  "iframe": "https://www.ivi.ru/embeds/video/?subsite=1&autostart=0&videoid=19897"
}