{
  "content_id": "218266",
  "title": "Млечный путь",
  "release_date": "1959",
  "orig_country": "СССР",
  "lang": "Русский",
  "restrict": "12+",
  "kinopoisk_id": "433035",
  "kinopoisk_rating": "5.71",
  "duration": "4447",
  "category": "Фильмы",
  "genres": "Мелодрамы,Советское кино",
  "vr_identifier": "Млечный путь",
  "iframe": "https://www.ivi.ru/embeds/video/?subsite=1&autostart=0&videoid=218266"
}