{
  "content_id": "307338",
  "title": "Пять углов",
  "orig_title": "Five Corners",
  "release_date": "1987",
  "orig_country": "Великобритания",
  "lang": "Английский",
  "restrict": "16+",
  "kinopoisk_id": "4330",
  "kinopoisk_rating": "6.06",
  "imdb_rating": "6.2",
  "duration": "5402",
  "category": "Фильмы",
  "genres": "Драмы,Зарубежные,Криминал,Триллеры",
  "vr_identifier": "Пять углов",
  "iframe": "https://www.ivi.ru/embeds/video/?subsite=1&autostart=0&videoid=307338"
}