{
  "content_id": "31849",
  "title": "Пропавшие среди живых",
  "release_date": "1981",
  "orig_country": "СССР",
  "lang": "Русский",
  "restrict": "12+",
  "kinopoisk_id": "43308",
  "kinopoisk_rating": "6.6",
  "imdb_rating": "6.1",
  "duration": "4792",
  "category": "Фильмы",
  "genres": "Детективы,Советское кино",
  "vr_identifier": "Пропавшие среди живых",
  "iframe": "https://www.ivi.ru/embeds/video/?subsite=1&autostart=0&videoid=31849"
}