{
  "content_id": "60157",
  "title": "Бег иноходца",
  "release_date": "1968",
  "orig_country": "СССР",
  "lang": "Русский",
  "restrict": "0+",
  "kinopoisk_id": "43318",
  "kinopoisk_rating": "6.9",
  "imdb_rating": "7.3",
  "duration": "4610",
  "category": "Фильмы",
  "genres": "Драмы,Советское кино",
  "vr_identifier": "Бег иноходца",
  "iframe": "https://www.ivi.ru/embeds/video/?subsite=1&autostart=0&videoid=60157"
}