{
  "content_id": "60394",
  "title": "Прощание",
  "release_date": "1981",
  "orig_country": "СССР",
  "lang": "Русский",
  "restrict": "12+",
  "kinopoisk_id": "43315",
  "kinopoisk_rating": "7.73",
  "imdb_rating": "7.4",
  "duration": "7279",
  "category": "Фильмы",
  "genres": "Драмы,Советское кино",
  "vr_identifier": "Прощание",
  "iframe": "https://www.ivi.ru/embeds/video/?subsite=1&autostart=0&videoid=60394"
}