{
  "content_id": "31832",
  "title": "Прощание с Петербургом",
  "release_date": "1971",
  "orig_country": "СССР",
  "lang": "Русский",
  "restrict": "12+",
  "kinopoisk_id": "43316",
  "kinopoisk_rating": "6.87",
  "imdb_rating": "7.4",
  "duration": "5542",
  "category": "Фильмы",
  "genres": "Мелодрамы,Советское кино",
  "vr_identifier": "Прощание с Петербургом",
  "iframe": "https://www.ivi.ru/embeds/video/?subsite=1&autostart=0&videoid=31832"
}