{
  "content_id": "98405",
  "title": "Диномама 3D",
  "orig_title": "Dino Time",
  "release_date": "2012",
  "orig_country": "США",
  "lang": "Английский",
  "restrict": "6+",
  "kinopoisk_id": "433311",
  "kinopoisk_rating": "5.63",
  "imdb_rating": "4.8",
  "duration": "4912",
  "category": "Мультфильмы",
  "genres": "Для детей,Западные мультфильмы,Зарубежные,Полнометражные",
  "vr_identifier": "Диномама 3D",
  "iframe": "https://www.ivi.ru/embeds/video/?subsite=1&autostart=0&videoid=98405"
}