{
  "content_id": "138115",
  "title": "По ту сторону смерти",
  "orig_title": "The Dead Outside",
  "release_date": "2008",
  "orig_country": "Великобритания",
  "lang": "Английский",
  "restrict": "18+",
  "kinopoisk_id": "433459",
  "kinopoisk_rating": "4.37",
  "imdb_rating": "4.3",
  "duration": "5052",
  "category": "Фильмы",
  "genres": "Детективы,Зарубежные,Триллеры,Ужасы",
  "vr_identifier": "По ту сторону смерти",
  "iframe": "https://www.ivi.ru/embeds/video/?subsite=1&autostart=0&videoid=138115"
}