{
  "content_id": "218148",
  "title": "А теперь суди...",
  "release_date": "1966",
  "orig_country": "СССР",
  "lang": "Русский",
  "restrict": "12+",
  "kinopoisk_id": "43391",
  "kinopoisk_rating": "0",
  "duration": "5204",
  "category": "Фильмы",
  "genres": "Драмы,Советское кино",
  "vr_identifier": "А теперь суди",
  "iframe": "https://www.ivi.ru/embeds/video/?subsite=1&autostart=0&videoid=218148"
}