{
  "content_id": "52907",
  "title": "Айболит-66",
  "release_date": "1966",
  "orig_country": "СССР",
  "lang": "Русский",
  "restrict": "0+",
  "kinopoisk_id": "43431",
  "kinopoisk_rating": "7.1",
  "imdb_rating": "7.1",
  "duration": "5614",
  "category": "Фильмы",
  "genres": "Для всей семьи,Для детей,Комедии,Советское кино,Фильмы",
  "vr_identifier": "Айболит-66",
  "iframe": "https://www.ivi.ru/embeds/video/?subsite=1&autostart=0&videoid=52907"
}