{
  "content_id": "218152",
  "title": "Анна и командор",
  "release_date": "1974",
  "orig_country": "СССР",
  "lang": "Русский",
  "restrict": "12+",
  "kinopoisk_id": "43496",
  "kinopoisk_rating": "7.58",
  "imdb_rating": "6.6",
  "duration": "4766",
  "category": "Фильмы",
  "genres": "Драмы,Советское кино",
  "vr_identifier": "Анна и командор",
  "iframe": "https://www.ivi.ru/embeds/video/?subsite=1&autostart=0&videoid=218152"
}