{
  "content_id": "15105",
  "title": "Антон Иванович сердится",
  "release_date": "1941",
  "orig_country": "СССР",
  "lang": "Русский",
  "restrict": "12+",
  "kinopoisk_id": "43505",
  "kinopoisk_rating": "7.02",
  "imdb_rating": "7.5",
  "duration": "4982",
  "category": "Фильмы",
  "genres": "Комедии,Советское кино",
  "vr_identifier": "Антон Иванович сердится",
  "iframe": "https://www.ivi.ru/embeds/video/?subsite=1&autostart=0&videoid=15105"
}