{
  "content_id": "193459",
  "title": "Мертвеход",
  "orig_title": "The Revenant",
  "release_date": "2009",
  "orig_country": "США",
  "lang": "Английский",
  "restrict": "18+",
  "kinopoisk_id": "435378",
  "kinopoisk_rating": "6.23",
  "imdb_rating": "6.3",
  "duration": "7046",
  "category": "Фильмы",
  "genres": "Зарубежные,Комедии,Ужасы,Фэнтези",
  "vr_identifier": "REVENANT, THE",
  "iframe": "https://www.ivi.ru/embeds/video/?subsite=1&autostart=0&videoid=193459"
}