{
  "content_id": "50651",
  "title": "Колье для снежной бабы",
  "release_date": "2007",
  "orig_country": "Украина",
  "lang": "Русский",
  "restrict": "16+",
  "kinopoisk_id": "435356",
  "kinopoisk_rating": "6.08",
  "duration": "5220",
  "category": "Фильмы",
  "genres": "Зарубежные,Мелодрамы",
  "vr_identifier": "Колье для снежной бабы",
  "iframe": "https://www.ivi.ru/embeds/video/?subsite=1&autostart=0&videoid=50651"
}