{
  "content_id": "51783",
  "title": "С любимыми не расставайтесь",
  "release_date": "1979",
  "orig_country": "СССР",
  "lang": "Русский",
  "restrict": "12+",
  "kinopoisk_id": "43570",
  "kinopoisk_rating": "7.72",
  "imdb_rating": "7.1",
  "duration": "4560",
  "category": "Фильмы",
  "genres": "Драмы,Мелодрамы,Советское кино",
  "vr_identifier": "С любимыми не расставайтесь",
  "iframe": "https://www.ivi.ru/embeds/video/?subsite=1&autostart=0&videoid=51783"
}