{
  "content_id": "60357",
  "title": "Семейное счастье",
  "release_date": "1969",
  "orig_country": "СССР",
  "lang": "Русский",
  "restrict": "12+",
  "kinopoisk_id": "43666",
  "kinopoisk_rating": "7.39",
  "imdb_rating": "7.4",
  "duration": "5047",
  "category": "Фильмы",
  "genres": "Драмы,Советское кино,Экранизации",
  "vr_identifier": "Семейное счастье",
  "iframe": "https://www.ivi.ru/embeds/video/?subsite=1&autostart=0&videoid=60357"
}