{
  "content_id": "218328",
  "title": "Серебряный тренер",
  "release_date": "1963",
  "orig_country": "СССР",
  "lang": "Русский",
  "restrict": "12+",
  "kinopoisk_id": "43694",
  "kinopoisk_rating": "5.33",
  "duration": "5428",
  "category": "Фильмы",
  "genres": "Драмы,Советское кино,Спорт",
  "vr_identifier": "Серебряный тренер",
  "iframe": "https://www.ivi.ru/embeds/video/?subsite=1&autostart=0&videoid=218328"
}