{
  "content_id": "34337",
  "title": "Шаг навстречу",
  "release_date": "1975",
  "orig_country": "СССР",
  "lang": "Русский",
  "restrict": "12+",
  "kinopoisk_id": "43713",
  "kinopoisk_rating": "7.39",
  "imdb_rating": "7.2",
  "duration": "4620",
  "category": "Фильмы",
  "genres": "Для всей семьи,Драмы,Комедии,Советское кино",
  "vr_identifier": "Шаг навстречу",
  "iframe": "https://www.ivi.ru/embeds/video/?subsite=1&autostart=0&videoid=34337"
}