{
  "content_id": "218371",
  "title": "Щедрое лето",
  "release_date": "1950",
  "orig_country": "СССР",
  "lang": "Русский",
  "restrict": "6+",
  "kinopoisk_id": "43729",
  "kinopoisk_rating": "5.48",
  "imdb_rating": "5.9",
  "duration": "4873",
  "category": "Фильмы",
  "genres": "Комедии,Мелодрамы,Музыкальные,Советское кино,Экранизации",
  "vr_identifier": "Щедрое лето",
  "iframe": "https://www.ivi.ru/embeds/video/?subsite=1&autostart=0&videoid=218371"
}