{
  "content_id": "138094",
  "title": "Ярость",
  "orig_title": "Rampage",
  "release_date": "2009",
  "orig_country": "Канада",
  "restrict": "16+",
  "kinopoisk_id": "437414",
  "kinopoisk_rating": "6.47",
  "imdb_rating": "6.3",
  "duration": "4782",
  "category": "Фильмы",
  "genres": "Зарубежные,Мелодрамы,Триллеры",
  "vr_identifier": "Ярость",
  "iframe": "https://www.ivi.ru/embeds/video/?subsite=1&autostart=0&videoid=138094"
}