{
  "content_id": "127624",
  "title": "Сердце воина",
  "orig_title": "A Warrior's Heart",
  "release_date": "2011",
  "orig_country": "США",
  "lang": "Английский",
  "restrict": "16+",
  "kinopoisk_id": "437515",
  "kinopoisk_rating": "6.37",
  "imdb_rating": "5.5",
  "duration": "5698",
  "category": "Фильмы",
  "genres": "Боевики,Для всей семьи,Драмы,Зарубежные,Спорт",
  "vr_identifier": "Сердце воина",
  "iframe": "https://www.ivi.ru/embeds/video/?subsite=1&autostart=0&videoid=127624"
}