{
  "content_id": "49072",
  "title": "Выходные!",
  "orig_title": "R.T.T.",
  "release_date": "2009",
  "orig_country": "Франция",
  "lang": "Французский",
  "restrict": "12+",
  "kinopoisk_id": "437696",
  "kinopoisk_rating": "6.52",
  "imdb_rating": "4.9",
  "duration": "5038",
  "category": "Фильмы",
  "genres": "Зарубежные,Комедии,Мелодрамы",
  "vr_identifier": "Выходные!",
  "iframe": "https://www.ivi.ru/embeds/video/?subsite=1&autostart=0&videoid=49072"
}