{
  "content_id": "54004",
  "title": "Сказ про то, как царь Петр арапа женил",
  "release_date": "1976",
  "orig_country": "СССР",
  "lang": "Русский",
  "restrict": "12+",
  "kinopoisk_id": "43805",
  "kinopoisk_rating": "7.68",
  "imdb_rating": "7.3",
  "duration": "5715",
  "category": "Фильмы",
  "genres": "Мелодрамы,Приключения,Советское кино",
  "vr_identifier": "Сказ про то, как царь Петр арапа женил",
  "iframe": "https://www.ivi.ru/embeds/video/?subsite=1&autostart=0&videoid=54004"
}