{
  "content_id": "54006",
  "title": "Сказка о потерянном времени",
  "release_date": "1964",
  "orig_country": "СССР",
  "lang": "Русский",
  "restrict": "0+",
  "kinopoisk_id": "43811",
  "kinopoisk_rating": "7.85",
  "imdb_rating": "7.2",
  "duration": "4537",
  "category": "Фильмы",
  "genres": "Для всей семьи,Для детей,Комедии,Приключения,Советское кино,Фильмы",
  "vr_identifier": "Сказка о потерянном времени",
  "iframe": "https://www.ivi.ru/embeds/video/?subsite=1&autostart=0&videoid=54006"
}