{
  "content_id": "53363",
  "title": "Схватка в пурге",
  "release_date": "1977",
  "orig_country": "СССР",
  "lang": "Русский",
  "restrict": "16+",
  "kinopoisk_id": "43821",
  "kinopoisk_rating": "6.28",
  "imdb_rating": "6.9",
  "duration": "5031",
  "category": "Фильмы",
  "genres": "Боевики,Детективы,Драмы",
  "vr_identifier": "Схватка в пурге",
  "iframe": "https://www.ivi.ru/embeds/video/?subsite=1&autostart=0&videoid=53363"
}