{
  "content_id": "41160",
  "title": "Шиворот-навыворот",
  "release_date": "1981",
  "orig_country": "СССР",
  "lang": "Русский",
  "restrict": "0+",
  "kinopoisk_id": "438213",
  "kinopoisk_rating": "7.64",
  "imdb_rating": "6.5",
  "duration": "586",
  "category": "Мультфильмы",
  "genres": "Для детей,Русские,Русские мультфильмы,Советские",
  "vr_identifier": "Шиворот-навыворот",
  "iframe": "https://www.ivi.ru/embeds/video/?subsite=1&autostart=0&videoid=41160"
}