{
  "content_id": "31800",
  "title": "Сладкая женщина",
  "release_date": "1976",
  "orig_country": "СССР",
  "lang": "Русский",
  "restrict": "12+",
  "kinopoisk_id": "43834",
  "kinopoisk_rating": "7.45",
  "imdb_rating": "7.1",
  "duration": "5582",
  "category": "Фильмы",
  "genres": "Драмы,Советское кино",
  "vr_identifier": "Сладкая женщина",
  "iframe": "https://www.ivi.ru/embeds/video/?subsite=1&autostart=0&videoid=31800"
}