{
  "content_id": "54145",
  "title": "Случай на шахте восемь",
  "release_date": "1957",
  "orig_country": "СССР",
  "lang": "Русский",
  "restrict": "6+",
  "kinopoisk_id": "43856",
  "kinopoisk_rating": "6.52",
  "imdb_rating": "6.2",
  "duration": "5219",
  "category": "Фильмы",
  "genres": "Мелодрамы,Советское кино",
  "vr_identifier": "Случай на шахте восемь",
  "iframe": "https://www.ivi.ru/embeds/video/?subsite=1&autostart=0&videoid=54145"
}