{
  "content_id": "31816",
  "title": "Слуга двух господ",
  "release_date": "1953",
  "orig_country": "СССР",
  "lang": "Русский",
  "restrict": "0+",
  "kinopoisk_id": "43865",
  "kinopoisk_rating": "6.95",
  "imdb_rating": "7.3",
  "duration": "6090",
  "category": "Фильмы",
  "genres": "Комедии,Советское кино",
  "vr_identifier": "Слуга двух господ",
  "iframe": "https://www.ivi.ru/embeds/video/?subsite=1&autostart=0&videoid=31816"
}