{
  "content_id": "54146",
  "title": "Снежная сказка",
  "release_date": "1959",
  "orig_country": "СССР",
  "lang": "Русский",
  "restrict": "12+",
  "kinopoisk_id": "43891",
  "kinopoisk_rating": "7.25",
  "imdb_rating": "7.1",
  "duration": "4010",
  "category": "Фильмы",
  "genres": "Для детей,Советское кино,Фильмы,Фэнтези",
  "vr_identifier": "Снежная сказка",
  "iframe": "https://www.ivi.ru/embeds/video/?subsite=1&autostart=0&videoid=54146"
}