{
  "content_id": "54150",
  "title": "Совсем пропащий",
  "release_date": "1973",
  "orig_country": "СССР",
  "lang": "Русский",
  "restrict": "12+",
  "kinopoisk_id": "43936",
  "kinopoisk_rating": "7.22",
  "imdb_rating": "7.1",
  "duration": "5576",
  "category": "Фильмы",
  "genres": "Для детей,Приключения,Советское кино,Фильмы",
  "vr_identifier": "Совсем пропащий",
  "iframe": "https://www.ivi.ru/embeds/video/?subsite=1&autostart=0&videoid=54150"
}