{
  "content_id": "60362",
  "title": "Сто дней после детства",
  "release_date": "1975",
  "orig_country": "СССР",
  "lang": "Русский",
  "restrict": "12+",
  "kinopoisk_id": "43998",
  "kinopoisk_rating": "8.05",
  "imdb_rating": "7.9",
  "duration": "5338",
  "category": "Фильмы",
  "genres": "Для детей,Мелодрамы,Советское кино",
  "vr_identifier": "Сто дней после детства",
  "iframe": "https://www.ivi.ru/embeds/video/?subsite=1&autostart=0&videoid=60362"
}