{
  "content_id": "52942",
  "title": "Дача",
  "release_date": "1974",
  "orig_country": "СССР",
  "lang": "Русский",
  "restrict": "0+",
  "kinopoisk_id": "44079",
  "kinopoisk_rating": "6.84",
  "imdb_rating": "6.5",
  "duration": "5068",
  "category": "Фильмы",
  "genres": "Комедии,Советское кино",
  "vr_identifier": "Дача",
  "iframe": "https://www.ivi.ru/embeds/video/?subsite=1&autostart=0&videoid=52942"
}