{
  "content_id": "218199",
  "title": "Дачная поездка сержанта Цыбули",
  "release_date": "1980",
  "orig_country": "СССР",
  "lang": "Русский",
  "restrict": "12+",
  "kinopoisk_id": "44080",
  "kinopoisk_rating": "7.28",
  "imdb_rating": "7",
  "duration": "4348",
  "category": "Фильмы",
  "genres": "Военные,Комедии,Советское кино",
  "vr_identifier": "Дачная поездка сержанта Цыбули",
  "iframe": "https://www.ivi.ru/embeds/video/?subsite=1&autostart=0&videoid=218199"
}