{
  "content_id": "15065",
  "title": "Дело Румянцева",
  "release_date": "1955",
  "orig_country": "СССР",
  "lang": "Русский",
  "restrict": "12+",
  "kinopoisk_id": "44126",
  "kinopoisk_rating": "7.83",
  "imdb_rating": "7.3",
  "duration": "5827",
  "category": "Фильмы",
  "genres": "Детективы,Советское кино",
  "vr_identifier": "Дело Румянцева",
  "iframe": "https://www.ivi.ru/embeds/video/?subsite=1&autostart=0&videoid=15065"
}