{
  "content_id": "167875",
  "title": "Детство Бемби",
  "release_date": "1985",
  "orig_country": "СССР",
  "restrict": "12+",
  "kinopoisk_id": "44166",
  "kinopoisk_rating": "6.69",
  "imdb_rating": "6.1",
  "duration": "4587",
  "category": "Фильмы",
  "genres": "Для всей семьи,Русские",
  "vr_identifier": "Детство Бемби",
  "iframe": "https://www.ivi.ru/embeds/video/?subsite=1&autostart=0&videoid=167875"
}