{
  "content_id": "52951",
  "title": "Девушка без адреса",
  "release_date": "1957",
  "orig_country": "СССР",
  "lang": "Русский",
  "restrict": "12+",
  "kinopoisk_id": "44178",
  "kinopoisk_rating": "7.99",
  "imdb_rating": "7.2",
  "duration": "5118",
  "category": "Фильмы",
  "genres": "Комедии,Мелодрамы,Советское кино",
  "vr_identifier": "Девушка без адреса",
  "iframe": "https://www.ivi.ru/embeds/video/?subsite=1&autostart=0&videoid=52951"
}