{
  "content_id": "15061",
  "title": "Девочка, хочешь сниматься в кино?",
  "release_date": "1977",
  "orig_country": "СССР",
  "lang": "Русский",
  "restrict": "12+",
  "kinopoisk_id": "44177",
  "kinopoisk_rating": "7.21",
  "imdb_rating": "6.4",
  "duration": "4653",
  "category": "Фильмы",
  "genres": "Драмы,Советское кино",
  "vr_identifier": "Девочка, хочешь сниматься в кино?",
  "iframe": "https://www.ivi.ru/embeds/video/?subsite=1&autostart=0&videoid=15061"
}