{
  "content_id": "218209",
  "title": "Дорогой ценой",
  "release_date": "1957",
  "orig_country": "СССР",
  "lang": "Русский",
  "restrict": "12+",
  "kinopoisk_id": "44292",
  "kinopoisk_rating": "7.75",
  "imdb_rating": "7.1",
  "duration": "5507",
  "category": "Фильмы",
  "genres": "Драмы,Советское кино,Экранизации",
  "vr_identifier": "Дорогой ценой",
  "iframe": "https://www.ivi.ru/embeds/video/?subsite=1&autostart=0&videoid=218209"
}