{
  "content_id": "208945",
  "title": "Две стрелы. Детектив каменного века",
  "release_date": "1989",
  "orig_country": "СССР",
  "lang": "Русский",
  "restrict": "12+",
  "kinopoisk_id": "44347",
  "kinopoisk_rating": "6.65",
  "imdb_rating": "5.8",
  "duration": "5294",
  "category": "Фильмы",
  "genres": "Комедии,Криминал,Советское кино",
  "vr_identifier": "Две стрелы",
  "iframe": "https://www.ivi.ru/embeds/video/?subsite=1&autostart=0&videoid=208945"
}