{
  "content_id": "218184",
  "title": "Гадюка",
  "release_date": "1965",
  "orig_country": "СССР",
  "lang": "Русский",
  "restrict": "12+",
  "kinopoisk_id": "44448",
  "kinopoisk_rating": "7.52",
  "imdb_rating": "7.4",
  "duration": "5972",
  "category": "Фильмы",
  "genres": "Военные,Драмы,Советское кино,Экранизации",
  "vr_identifier": "Гадюка",
  "iframe": "https://www.ivi.ru/embeds/video/?subsite=1&autostart=0&videoid=218184"
}