{
  "content_id": "53393",
  "title": "Гараж",
  "release_date": "1979",
  "orig_country": "СССР",
  "lang": "Русский",
  "restrict": "12+",
  "kinopoisk_id": "44467",
  "kinopoisk_rating": "8.02",
  "imdb_rating": "8.2",
  "duration": "5735",
  "category": "Фильмы",
  "genres": "Драмы,Комедии,Советское кино",
  "vr_identifier": "Гараж",
  "iframe": "https://www.ivi.ru/embeds/video/?subsite=1&autostart=0&videoid=53393"
}