{
  "content_id": "218185",
  "title": "Где 042?",
  "release_date": "1970",
  "orig_country": "СССР",
  "lang": "Русский",
  "restrict": "12+",
  "kinopoisk_id": "44475",
  "kinopoisk_rating": "6.17",
  "imdb_rating": "6.7",
  "duration": "4349",
  "category": "Фильмы",
  "genres": "Боевики,Военные,Драмы,Советское кино",
  "vr_identifier": "Где 042?",
  "iframe": "https://www.ivi.ru/embeds/video/?subsite=1&autostart=0&videoid=218185"
}