{
  "content_id": "93944",
  "title": "Монро",
  "release_date": "2010",
  "orig_country": "Россия",
  "lang": "Русский",
  "restrict": "16+",
  "kinopoisk_id": "445047",
  "duration": "5439",
  "category": "Фильмы",
  "genres": "Мелодрамы,Русские",
  "vr_identifier": "Монро",
  "iframe": "https://www.ivi.ru/embeds/video/?subsite=1&autostart=0&videoid=93944"
}