{
  "content_id": "138085",
  "title": "Дарфур: Хроники объявленной смерти",
  "orig_title": "Darfur",
  "release_date": "2009",
  "orig_country": "Канада",
  "lang": "Английский",
  "restrict": "16+",
  "kinopoisk_id": "445339",
  "kinopoisk_rating": "6.01",
  "imdb_rating": "5.9",
  "duration": "5900",
  "category": "Фильмы",
  "genres": "Военные,Драмы,Зарубежные",
  "vr_identifier": "ДАРФУР. ХРОНИКИ ОБЪЯВЛЕННОЙ СМЕРТИ",
  "iframe": "https://www.ivi.ru/embeds/video/?subsite=1&autostart=0&videoid=138085"
}