{
  "content_id": "126980",
  "title": "Вне времени",
  "orig_title": "The Lovers",
  "release_date": "2014",
  "orig_country": "Бельгия",
  "restrict": "16+",
  "kinopoisk_id": "445456",
  "kinopoisk_rating": "5.04",
  "imdb_rating": "4.6",
  "duration": "6291",
  "category": "Фильмы",
  "genres": "Зарубежные,Мелодрамы,Приключения,Фэнтези",
  "vr_identifier": "Вне времени",
  "iframe": "https://www.ivi.ru/embeds/video/?subsite=1&autostart=0&videoid=126980"
}