{
  "content_id": "218191",
  "title": "Голубые молнии",
  "release_date": "1978",
  "orig_country": "СССР",
  "lang": "Русский",
  "restrict": "6+",
  "kinopoisk_id": "44546",
  "kinopoisk_rating": "6.1",
  "imdb_rating": "5.1",
  "duration": "4882",
  "category": "Фильмы",
  "genres": "Драмы,Советское кино",
  "vr_identifier": "Голубые молнии",
  "iframe": "https://www.ivi.ru/embeds/video/?subsite=1&autostart=0&videoid=218191"
}