{
  "content_id": "211580",
  "title": "Гонка с преследованием",
  "release_date": "1979",
  "orig_country": "СССР",
  "lang": "Русский",
  "restrict": "12+",
  "kinopoisk_id": "44550",
  "kinopoisk_rating": "6.17",
  "imdb_rating": "6.1",
  "duration": "5109",
  "category": "Фильмы",
  "genres": "Драмы,Криминал,Советское кино",
  "vr_identifier": "Гонка с преследованием",
  "iframe": "https://www.ivi.ru/embeds/video/?subsite=1&autostart=0&videoid=211580"
}