{
  "content_id": "53153",
  "title": "Город Зеро",
  "release_date": "1989",
  "orig_country": "СССР",
  "lang": "Русский",
  "restrict": "12+",
  "kinopoisk_id": "44574",
  "kinopoisk_rating": "7.68",
  "imdb_rating": "7.6",
  "duration": "5823",
  "category": "Фильмы",
  "genres": "Драмы,Советское кино",
  "vr_identifier": "Город Зеро",
  "iframe": "https://www.ivi.ru/embeds/video/?subsite=1&autostart=0&videoid=53153"
}