{
  "content_id": "53402",
  "title": "Гражданин Лешка",
  "release_date": "1980",
  "orig_country": "СССР",
  "lang": "Русский",
  "restrict": "12+",
  "kinopoisk_id": "44603",
  "kinopoisk_rating": "6.2",
  "duration": "4980",
  "category": "Фильмы",
  "genres": "Комедии,Мелодрамы,Советское кино",
  "vr_identifier": "Гражданин Лешка",
  "iframe": "https://www.ivi.ru/embeds/video/?subsite=1&autostart=0&videoid=53402"
}