{
  "content_id": "218196",
  "title": "Гулящая",
  "release_date": "1961",
  "orig_country": "СССР",
  "lang": "Русский",
  "restrict": "16+",
  "kinopoisk_id": "44619",
  "kinopoisk_rating": "6.01",
  "imdb_rating": "5.9",
  "duration": "4662",
  "category": "Фильмы",
  "genres": "Драмы,Советское кино",
  "vr_identifier": "Гулящая",
  "iframe": "https://www.ivi.ru/embeds/video/?subsite=1&autostart=0&videoid=218196"
}