{
  "content_id": "218213",
  "title": "Ералашный рейс",
  "release_date": "1979",
  "orig_country": "СССР",
  "lang": "Русский",
  "restrict": "6+",
  "kinopoisk_id": "44655",
  "kinopoisk_rating": "0",
  "duration": "4559",
  "category": "Фильмы",
  "genres": "Приключения,Советское кино",
  "vr_identifier": "Ералашный рейс",
  "iframe": "https://www.ivi.ru/embeds/video/?subsite=1&autostart=0&videoid=218213"
}