{
  "content_id": "18140",
  "title": "Как Иванушка-Дурачок за чудом ходил",
  "release_date": "1977",
  "orig_country": "СССР",
  "lang": "Русский",
  "restrict": "0+",
  "kinopoisk_id": "44677",
  "kinopoisk_rating": "7.53",
  "imdb_rating": "6.8",
  "duration": "5101",
  "category": "Фильмы",
  "genres": "Для детей,Советское кино,Фильмы,Фэнтези",
  "vr_identifier": "Как Иванушка-Дурачок за чудом ходил",
  "iframe": "https://www.ivi.ru/embeds/video/?subsite=1&autostart=0&videoid=18140"
}