{
  "content_id": "54865",
  "title": "Как стать счастливым",
  "release_date": "1985",
  "orig_country": "СССР",
  "lang": "Русский",
  "restrict": "12+",
  "kinopoisk_id": "44680",
  "kinopoisk_rating": "7.32",
  "imdb_rating": "6.5",
  "duration": "5054",
  "category": "Фильмы",
  "genres": "Комедии,Советское кино",
  "vr_identifier": "Как стать счастливым",
  "iframe": "https://www.ivi.ru/embeds/video/?subsite=1&autostart=0&videoid=54865"
}