{
  "content_id": "60178",
  "title": "Каждый день доктора Калинниковой",
  "release_date": "1973",
  "orig_country": "СССР",
  "lang": "Русский",
  "restrict": "12+",
  "kinopoisk_id": "44728",
  "kinopoisk_rating": "6.85",
  "imdb_rating": "7.4",
  "duration": "5300",
  "category": "Фильмы",
  "genres": "Драмы,Советское кино",
  "vr_identifier": "Каждый день доктора Калинниковой",
  "iframe": "https://www.ivi.ru/embeds/video/?subsite=1&autostart=0&videoid=60178"
}