{
  "content_id": "42128",
  "title": "Гигант",
  "orig_title": "Gigante",
  "release_date": "2009",
  "orig_country": "Германия",
  "lang": "Немецкий",
  "restrict": "16+",
  "kinopoisk_id": "447349",
  "kinopoisk_rating": "6.58",
  "imdb_rating": "6.8",
  "duration": "5081",
  "category": "Фильмы",
  "genres": "Артхаус,Драмы,Зарубежные,Комедии",
  "vr_identifier": "Гигант",
  "iframe": "https://www.ivi.ru/embeds/video/?subsite=1&autostart=0&videoid=42128"
}