{
  "content_id": "213954",
  "title": "Казачья застава",
  "release_date": "1982",
  "orig_country": "СССР",
  "lang": "Русский",
  "restrict": "12+",
  "kinopoisk_id": "44746",
  "kinopoisk_rating": "6.21",
  "duration": "4526",
  "category": "Фильмы",
  "genres": "Для всей семьи,Драмы,Советское кино",
  "vr_identifier": "Казачья застава",
  "iframe": "https://www.ivi.ru/embeds/video/?subsite=1&autostart=0&videoid=213954"
}