{
  "content_id": "60284",
  "title": "Палата №6",
  "release_date": "2009",
  "orig_country": "Россия",
  "lang": "Русский",
  "restrict": "16+",
  "kinopoisk_id": "447688",
  "kinopoisk_rating": "6.62",
  "imdb_rating": "6.4",
  "duration": "4987",
  "category": "Фильмы",
  "genres": "Драмы,Русские",
  "vr_identifier": "Палата №6",
  "iframe": "https://www.ivi.ru/embeds/video/?subsite=1&autostart=0&videoid=60284"
}