{
  "content_id": "208982",
  "title": "Ход конем",
  "release_date": "1962",
  "orig_country": "СССР",
  "lang": "Русский",
  "restrict": "12+",
  "kinopoisk_id": "44781",
  "kinopoisk_rating": "7.19",
  "imdb_rating": "6.6",
  "duration": "4662",
  "category": "Фильмы",
  "genres": "Комедии,Советское кино",
  "vr_identifier": "Ход конем",
  "iframe": "https://www.ivi.ru/embeds/video/?subsite=1&autostart=0&videoid=208982"
}