{
  "content_id": "33906",
  "title": "Хроника пикирующего бомбардировщика",
  "release_date": "1967",
  "orig_country": "СССР",
  "lang": "Русский",
  "restrict": "12+",
  "kinopoisk_id": "44800",
  "kinopoisk_rating": "8.13",
  "imdb_rating": "7.5",
  "duration": "4456",
  "category": "Фильмы",
  "genres": "Военные,Драмы,Советское кино",
  "vr_identifier": "Хроника пикирующего бомбардировщика",
  "iframe": "https://www.ivi.ru/embeds/video/?subsite=1&autostart=0&videoid=33906"
}