{
  "content_id": "60790",
  "title": "Игра без правил",
  "orig_title": "Fair Game",
  "release_date": "2010",
  "orig_country": "США",
  "lang": "Английский",
  "restrict": "16+",
  "kinopoisk_id": "448239",
  "kinopoisk_rating": "6.53",
  "imdb_rating": "6.8",
  "duration": "6197",
  "category": "Фильмы",
  "genres": "Биография,Драмы,Триллеры",
  "vr_identifier": "Игра без правил",
  "iframe": "https://www.ivi.ru/embeds/video/?subsite=1&autostart=0&videoid=60790"
}