{
  "content_id": "168153",
  "title": "Княжна Мери",
  "release_date": "1955",
  "orig_country": "СССР",
  "lang": "Русский",
  "restrict": "12+",
  "kinopoisk_id": "44834",
  "kinopoisk_rating": "6.74",
  "imdb_rating": "6.8",
  "duration": "5753",
  "category": "Фильмы",
  "genres": "Исторические,Мелодрамы,Советское кино",
  "vr_identifier": "Княжна Мери",
  "iframe": "https://www.ivi.ru/embeds/video/?subsite=1&autostart=0&videoid=168153"
}