{
  "content_id": "218246",
  "title": "Командир корабля",
  "release_date": "1954",
  "orig_country": "СССР",
  "lang": "Русский",
  "restrict": "12+",
  "kinopoisk_id": "44868",
  "kinopoisk_rating": "5.77",
  "imdb_rating": "7.2",
  "duration": "5868",
  "category": "Фильмы",
  "genres": "Драмы,Советское кино,Экранизации",
  "vr_identifier": "Командир корабля",
  "iframe": "https://www.ivi.ru/embeds/video/?subsite=1&autostart=0&videoid=218246"
}