{
  "content_id": "132279",
  "title": "Комиссар",
  "release_date": "1967",
  "orig_country": "СССР",
  "lang": "Русский",
  "restrict": "12+",
  "kinopoisk_id": "44876",
  "kinopoisk_rating": "7.85",
  "imdb_rating": "7.6",
  "duration": "6237",
  "category": "Фильмы",
  "genres": "Военные,Драмы,Советское кино",
  "vr_identifier": "Комиссар",
  "iframe": "https://www.ivi.ru/embeds/video/?subsite=1&autostart=0&videoid=132279"
}