{
  "content_id": "60193",
  "title": "Композитор Глинка",
  "release_date": "1953",
  "orig_country": "СССР",
  "lang": "Русский",
  "restrict": "0+",
  "kinopoisk_id": "44883",
  "kinopoisk_rating": "6.34",
  "imdb_rating": "6.9",
  "duration": "6306",
  "category": "Фильмы",
  "genres": "Биография,Драмы,Мелодрамы,Советское кино",
  "vr_identifier": "Композитор Глинка",
  "iframe": "https://www.ivi.ru/embeds/video/?subsite=1&autostart=0&videoid=60193"
}