{
  "content_id": "209060",
  "title": "Коммунист",
  "release_date": "1957",
  "orig_country": "СССР",
  "lang": "Русский",
  "restrict": "12+",
  "kinopoisk_id": "44882",
  "kinopoisk_rating": "7.84",
  "imdb_rating": "7.2",
  "duration": "6328",
  "category": "Фильмы",
  "genres": "Драмы,Советское кино",
  "vr_identifier": "Коммунист",
  "iframe": "https://www.ivi.ru/embeds/video/?subsite=1&autostart=0&videoid=209060"
}