{
  "content_id": "168156",
  "title": "Конец императора тайги",
  "release_date": "1978",
  "orig_country": "СССР",
  "lang": "Русский",
  "restrict": "16+",
  "kinopoisk_id": "44896",
  "kinopoisk_rating": "6.7",
  "imdb_rating": "5.9",
  "duration": "5117",
  "category": "Фильмы",
  "genres": "Биография,Приключения,Советское кино",
  "vr_identifier": "Конец императора тайги",
  "iframe": "https://www.ivi.ru/embeds/video/?subsite=1&autostart=0&videoid=168156"
}