{
  "content_id": "60194",
  "title": "Корабли штурмуют бастионы",
  "release_date": "1953",
  "orig_country": "СССР",
  "lang": "Русский",
  "restrict": "12+",
  "kinopoisk_id": "44922",
  "kinopoisk_rating": "7.74",
  "imdb_rating": "7",
  "duration": "5353",
  "category": "Фильмы",
  "genres": "Биография,Военные,Драмы,Советское кино",
  "vr_identifier": "Корабли штурмуют бастионы",
  "iframe": "https://www.ivi.ru/embeds/video/?subsite=1&autostart=0&videoid=60194"
}