{
  "content_id": "89242",
  "title": "Последний романтик планеты Земля",
  "orig_title": "Les derniers jours du monde",
  "release_date": "2009",
  "orig_country": "Франция",
  "lang": "Французский",
  "restrict": "16+",
  "kinopoisk_id": "450273",
  "kinopoisk_rating": "5.73",
  "imdb_rating": "6.2",
  "duration": "7720",
  "category": "Фильмы",
  "genres": "Зарубежные,Мелодрамы,Фантастика",
  "vr_identifier": "Последний романтик планеты Земля",
  "iframe": "https://www.ivi.ru/embeds/video/?subsite=1&autostart=0&videoid=89242"
}