{
  "content_id": "13965",
  "title": "Я",
  "release_date": "2009",
  "orig_country": "Россия",
  "lang": "Русский",
  "restrict": "18+",
  "kinopoisk_id": "450220",
  "kinopoisk_rating": "6.52",
  "imdb_rating": "6.4",
  "duration": "5326",
  "category": "Фильмы",
  "genres": "Боевики,Драмы,Русские",
  "vr_identifier": "Я",
  "iframe": "https://www.ivi.ru/embeds/video/?subsite=1&autostart=0&videoid=13965"
}