{
  "content_id": "60785",
  "title": "РЭД",
  "orig_title": "Red",
  "release_date": "2010",
  "orig_country": "США",
  "lang": "Английский",
  "restrict": "16+",
  "kinopoisk_id": "450237",
  "kinopoisk_rating": "7.16",
  "imdb_rating": "7.1",
  "duration": "6393",
  "category": "Фильмы",
  "genres": "Боевики,Зарубежные,Комедии,Триллеры",
  "vr_identifier": "РЭД",
  "iframe": "https://www.ivi.ru/embeds/video/?subsite=1&autostart=0&videoid=60785"
}