{
  "content_id": "19773",
  "title": "Лебединое озеро",
  "release_date": "1968",
  "orig_country": "СССР",
  "lang": "Русский",
  "restrict": "0+",
  "kinopoisk_id": "45050",
  "kinopoisk_rating": "0",
  "imdb_rating": "6.9",
  "duration": "4690",
  "category": "Фильмы",
  "genres": "Драмы,Советское кино,Фильмы-спектакли",
  "vr_identifier": "Лебединое озеро",
  "iframe": "https://www.ivi.ru/embeds/video/?subsite=1&autostart=0&videoid=19773"
}