{
  "content_id": "144206",
  "title": "Алоис Небель и его призраки",
  "orig_title": "Alois Nebel",
  "release_date": "2011",
  "orig_country": "Чехия",
  "lang": "Чешский",
  "restrict": "16+",
  "kinopoisk_id": "450684",
  "kinopoisk_rating": "6.59",
  "imdb_rating": "6.7",
  "duration": "4875",
  "category": "Мультфильмы",
  "genres": "Для взрослых,Драма,Зарубежные,Полнометражные",
  "vr_identifier": "Алоис Небель и его призраки",
  "iframe": "https://www.ivi.ru/embeds/video/?subsite=1&autostart=0&videoid=144206"
}