{
  "content_id": "19767",
  "title": "Лес",
  "release_date": "1980",
  "orig_country": "СССР",
  "lang": "Русский",
  "restrict": "12+",
  "kinopoisk_id": "45078",
  "kinopoisk_rating": "6.52",
  "imdb_rating": "6.1",
  "duration": "5495",
  "category": "Фильмы",
  "genres": "Драмы,Советское кино",
  "vr_identifier": "Лес",
  "iframe": "https://www.ivi.ru/embeds/video/?subsite=1&autostart=0&videoid=19767"
}