{
  "content_id": "19768",
  "title": "Личная жизнь Кузяева Валентина",
  "release_date": "1967",
  "orig_country": "СССР",
  "lang": "Русский",
  "restrict": "12+",
  "kinopoisk_id": "45090",
  "kinopoisk_rating": "7.01",
  "imdb_rating": "7.1",
  "duration": "3844",
  "category": "Фильмы",
  "genres": "Драмы,Советское кино",
  "vr_identifier": "Личная жизнь Кузяева Валентина",
  "iframe": "https://www.ivi.ru/embeds/video/?subsite=1&autostart=0&videoid=19768"
}