{
  "content_id": "60217",
  "title": "Любовь земная",
  "release_date": "1974",
  "orig_country": "СССР",
  "lang": "Русский",
  "restrict": "12+",
  "kinopoisk_id": "45160",
  "kinopoisk_rating": "7.76",
  "imdb_rating": "7.6",
  "duration": "5347",
  "category": "Фильмы",
  "genres": "Мелодрамы,Советское кино",
  "vr_identifier": "Любовь земная",
  "iframe": "https://www.ivi.ru/embeds/video/?subsite=1&autostart=0&videoid=60217"
}