{
  "content_id": "19896",
  "title": "Зайчик",
  "release_date": "1964",
  "orig_country": "СССР",
  "lang": "Русский",
  "restrict": "6+",
  "kinopoisk_id": "45209",
  "kinopoisk_rating": "7.83",
  "imdb_rating": "7.1",
  "duration": "4928",
  "category": "Фильмы",
  "genres": "Комедии,Советское кино",
  "vr_identifier": "Зайчик",
  "iframe": "https://www.ivi.ru/embeds/video/?subsite=1&autostart=0&videoid=19896"
}