{
  "content_id": "19882",
  "title": "Запасной игрок",
  "release_date": "1955",
  "orig_country": "СССР",
  "lang": "Русский",
  "restrict": "0+",
  "kinopoisk_id": "45229",
  "kinopoisk_rating": "7.4",
  "imdb_rating": "7.1",
  "duration": "4685",
  "category": "Фильмы",
  "genres": "Комедии,Советское кино,Спорт",
  "vr_identifier": "Запасной игрок",
  "iframe": "https://www.ivi.ru/embeds/video/?subsite=1&autostart=0&videoid=19882"
}