{
  "content_id": "168138",
  "title": "Женщины",
  "release_date": "1965",
  "orig_country": "СССР",
  "lang": "Русский",
  "restrict": "16+",
  "kinopoisk_id": "45308",
  "kinopoisk_rating": "8.17",
  "imdb_rating": "7.7",
  "duration": "5932",
  "category": "Фильмы",
  "genres": "Драмы,Мелодрамы,Советское кино",
  "vr_identifier": "Женщины",
  "iframe": "https://www.ivi.ru/embeds/video/?subsite=1&autostart=0&videoid=168138"
}