{
  "content_id": "37219",
  "title": "Чудес не бывает",
  "release_date": "2009",
  "orig_country": "Россия",
  "lang": "Русский",
  "restrict": "16+",
  "kinopoisk_id": "453180",
  "kinopoisk_rating": "6.19",
  "duration": "6181",
  "category": "Фильмы",
  "genres": "Мелодрамы,Русские",
  "vr_identifier": "Чудес не бывает",
  "iframe": "https://www.ivi.ru/embeds/video/?subsite=1&autostart=0&videoid=37219"
}