{
  "content_id": "225501",
  "title": "Гольфстрим под айсбергом",
  "release_date": "2011",
  "orig_country": "Россия",
  "lang": "Русский",
  "restrict": "18+",
  "kinopoisk_id": "453202",
  "kinopoisk_rating": "4.12",
  "imdb_rating": "5.5",
  "duration": "7208",
  "category": "Фильмы",
  "genres": "Артхаус,Драмы,Русские",
  "vr_identifier": "Гольфстрим под айсбергом",
  "iframe": "https://www.ivi.ru/embeds/video/?subsite=1&autostart=0&videoid=225501"
}