{
  "content_id": "209055",
  "title": "Жуковский",
  "release_date": "1950",
  "orig_country": "СССР",
  "lang": "Русский",
  "restrict": "6+",
  "kinopoisk_id": "45347",
  "kinopoisk_rating": "7.04",
  "imdb_rating": "6.9",
  "duration": "5022",
  "category": "Фильмы",
  "genres": "Биография,Драмы,Советское кино",
  "vr_identifier": "Жуковский",
  "iframe": "https://www.ivi.ru/embeds/video/?subsite=1&autostart=0&videoid=209055"
}