{
  "content_id": "52990",
  "title": "Зимний вечер в Гаграх",
  "release_date": "1985",
  "orig_country": "СССР",
  "lang": "Русский",
  "restrict": "12+",
  "kinopoisk_id": "45355",
  "kinopoisk_rating": "7.7",
  "imdb_rating": "7.3",
  "duration": "5102",
  "category": "Фильмы",
  "genres": "Для всей семьи,Драмы,Комедии,Советское кино",
  "vr_identifier": "Зимний вечер в Гаграх",
  "iframe": "https://www.ivi.ru/embeds/video/?subsite=1&autostart=0&videoid=52990"
}