{
  "content_id": "53009",
  "title": "Золото",
  "release_date": "1969",
  "orig_country": "СССР",
  "lang": "Русский",
  "restrict": "12+",
  "kinopoisk_id": "45384",
  "kinopoisk_rating": "6.71",
  "imdb_rating": "6.6",
  "duration": "5640",
  "category": "Фильмы",
  "genres": "Военные,Драмы,Приключения,Советское кино",
  "vr_identifier": "Золото (1969)",
  "iframe": "https://www.ivi.ru/embeds/video/?subsite=1&autostart=0&videoid=53009"
}