{
  "content_id": "168090",
  "title": "Чудак из пятого «Б»",
  "release_date": "1972",
  "orig_country": "СССР",
  "lang": "Русский",
  "restrict": "6+",
  "kinopoisk_id": "45525",
  "kinopoisk_rating": "8.11",
  "imdb_rating": "7.8",
  "duration": "5052",
  "category": "Фильмы",
  "genres": "Для всей семьи,Комедии,Советское кино",
  "vr_identifier": "Чудак из пятого Б",
  "iframe": "https://www.ivi.ru/embeds/video/?subsite=1&autostart=0&videoid=168090"
}