{
  "content_id": "409270",
  "title": "Незнакомец",
  "orig_title": "The Stranger",
  "release_date": "2010",
  "orig_country": "США",
  "lang": "Английский",
  "restrict": "18+",
  "kinopoisk_id": "455342",
  "duration": "5150",
  "category": "Фильмы",
  "genres": "Боевики,Зарубежные,Триллеры",
  "vr_identifier": "The Stranger",
  "iframe": "https://www.ivi.ru/embeds/video/?subsite=1&autostart=0&videoid=409270"
}