{
  "content_id": "33913",
  "title": "Чужие письма",
  "release_date": "1975",
  "orig_country": "СССР",
  "lang": "Русский",
  "restrict": "12+",
  "kinopoisk_id": "45542",
  "kinopoisk_rating": "7.61",
  "imdb_rating": "7.1",
  "duration": "5317",
  "category": "Фильмы",
  "genres": "Драмы,Советское кино",
  "vr_identifier": "Чужие письма",
  "iframe": "https://www.ivi.ru/embeds/video/?subsite=1&autostart=0&videoid=33913"
}