{
  "content_id": "50498",
  "title": "Бог печали и радости",
  "release_date": "2007",
  "orig_country": "Украина",
  "lang": "Русский",
  "restrict": "16+",
  "kinopoisk_id": "455578",
  "kinopoisk_rating": "6.81",
  "duration": "4960",
  "category": "Фильмы",
  "genres": "Зарубежные,Мелодрамы",
  "vr_identifier": "Бог печали и радости",
  "iframe": "https://www.ivi.ru/embeds/video/?subsite=1&autostart=0&videoid=50498"
}