{
  "content_id": "50379",
  "title": "Санта на продажу",
  "orig_title": "Rare Exports",
  "release_date": "2010",
  "orig_country": "Финляндия",
  "lang": "Английский",
  "restrict": "18+",
  "kinopoisk_id": "455555",
  "kinopoisk_rating": "5.9",
  "imdb_rating": "6.7",
  "duration": "4740",
  "category": "Фильмы",
  "genres": "Зарубежные,Приключения,Ужасы,Фэнтези",
  "vr_identifier": "Санта на продажу",
  "iframe": "https://www.ivi.ru/embeds/video/?subsite=1&autostart=0&videoid=50379"
}