{
  "content_id": "49797",
  "title": "Художник-вор",
  "orig_title": "The Con Artist",
  "release_date": "2010",
  "orig_country": "Канада",
  "lang": "Английский",
  "restrict": "16+",
  "kinopoisk_id": "455702",
  "kinopoisk_rating": "5.69",
  "imdb_rating": "4.8",
  "duration": "5027",
  "category": "Фильмы",
  "genres": "Драмы,Зарубежные,Комедии,Криминал,Мелодрамы",
  "vr_identifier": "Художник-вор",
  "iframe": "https://www.ivi.ru/embeds/video/?subsite=1&autostart=0&videoid=49797"
}