{
  "content_id": "168105",
  "title": "В добрый час!",
  "release_date": "1956",
  "orig_country": "СССР",
  "lang": "Русский",
  "restrict": "12+",
  "kinopoisk_id": "45592",
  "kinopoisk_rating": "7.91",
  "imdb_rating": "7.8",
  "duration": "5576",
  "category": "Фильмы",
  "genres": "Драмы,Мелодрамы,Советское кино",
  "vr_identifier": "В добрый час!",
  "iframe": "https://www.ivi.ru/embeds/video/?subsite=1&autostart=0&videoid=168105"
}