{
  "content_id": "218170",
  "title": "В один прекрасный день",
  "release_date": "1955",
  "orig_country": "СССР",
  "lang": "Русский",
  "restrict": "12+",
  "kinopoisk_id": "45615",
  "kinopoisk_rating": "6.2",
  "imdb_rating": "4",
  "duration": "5204",
  "category": "Фильмы",
  "genres": "Комедии,Музыкальные,Мюзикл,Советское кино",
  "vr_identifier": "В один прекрасный день",
  "iframe": "https://www.ivi.ru/embeds/video/?subsite=1&autostart=0&videoid=218170"
}