{
  "content_id": "132283",
  "title": "В небе «ночные ведьмы»",
  "release_date": "1981",
  "orig_country": "СССР",
  "lang": "Русский",
  "restrict": "6+",
  "kinopoisk_id": "45612",
  "kinopoisk_rating": "7.33",
  "imdb_rating": "7.8",
  "duration": "4800",
  "category": "Фильмы",
  "genres": "Военные",
  "vr_identifier": "В небе «Ночные ведьмы»",
  "iframe": "https://www.ivi.ru/embeds/video/?subsite=1&autostart=0&videoid=132283"
}