{
  "content_id": "211575",
  "title": "В стреляющей глуши",
  "release_date": "1985",
  "orig_country": "СССР",
  "lang": "Русский",
  "restrict": "12+",
  "kinopoisk_id": "45638",
  "kinopoisk_rating": "6.32",
  "imdb_rating": "5.9",
  "duration": "4922",
  "category": "Фильмы",
  "genres": "Драмы,Советское кино",
  "vr_identifier": "В стреляющей глуши",
  "iframe": "https://www.ivi.ru/embeds/video/?subsite=1&autostart=0&videoid=211575"
}