{
  "content_id": "52914",
  "title": "В 6 часов вечера после войны",
  "release_date": "1944",
  "orig_country": "СССР",
  "lang": "Русский",
  "restrict": "6+",
  "kinopoisk_id": "45632",
  "kinopoisk_rating": "7.22",
  "imdb_rating": "7",
  "duration": "5262",
  "category": "Фильмы",
  "genres": "Военные,Мелодрамы,Советское кино",
  "vr_identifier": "В 6 часов вечера после войны",
  "iframe": "https://www.ivi.ru/embeds/video/?subsite=1&autostart=0&videoid=52914"
}