{
  "content_id": "53564",
  "title": "В зоне особого внимания",
  "release_date": "1977",
  "orig_country": "СССР",
  "lang": "Русский",
  "restrict": "12+",
  "kinopoisk_id": "45650",
  "kinopoisk_rating": "7.9",
  "imdb_rating": "7.2",
  "duration": "5537",
  "category": "Фильмы",
  "genres": "Боевики,Для всей семьи,Приключения,Советское кино",
  "vr_identifier": "В зоне особого внимания",
  "iframe": "https://www.ivi.ru/embeds/video/?subsite=1&autostart=0&videoid=53564"
}