{
  "content_id": "53516",
  "title": "Вечерний лабиринт",
  "release_date": "1980",
  "orig_country": "СССР",
  "lang": "Русский",
  "restrict": "6+",
  "kinopoisk_id": "45695",
  "kinopoisk_rating": "6.87",
  "imdb_rating": "7",
  "duration": "4227",
  "category": "Фильмы",
  "genres": "Комедии,Советское кино",
  "vr_identifier": "Вечерний лабиринт",
  "iframe": "https://www.ivi.ru/embeds/video/?subsite=1&autostart=0&videoid=53516"
}