{
  "content_id": "383748",
  "title": "Великий перелом",
  "release_date": "1967",
  "orig_country": "Россия",
  "lang": "Русский",
  "restrict": "12+",
  "kinopoisk_id": "45706",
  "kinopoisk_rating": "6.39",
  "imdb_rating": "6.4",
  "duration": "5989",
  "category": "Фильмы",
  "genres": "Военные,Драмы,Советское кино",
  "vr_identifier": "Великий перелом",
  "iframe": "https://www.ivi.ru/embeds/video/?subsite=1&autostart=0&videoid=383748"
}