{
  "content_id": "51627",
  "title": "Вера, надежда, любовь",
  "release_date": "1984",
  "orig_country": "СССР",
  "lang": "Русский",
  "restrict": "12+",
  "kinopoisk_id": "45718",
  "kinopoisk_rating": "6.56",
  "imdb_rating": "6",
  "duration": "5300",
  "category": "Фильмы",
  "genres": "Приключения,Советское кино",
  "vr_identifier": "Вера. Надежда. Любовь",
  "iframe": "https://www.ivi.ru/embeds/video/?subsite=1&autostart=0&videoid=51627"
}