{
  "content_id": "168113",
  "title": "Весенний призыв",
  "release_date": "1976",
  "orig_country": "СССР",
  "lang": "Русский",
  "restrict": "16+",
  "kinopoisk_id": "45738",
  "kinopoisk_rating": "6.69",
  "imdb_rating": "6.1",
  "duration": "5360",
  "category": "Фильмы",
  "genres": "Драмы,Советское кино",
  "vr_identifier": "Весенний призыв",
  "iframe": "https://www.ivi.ru/embeds/video/?subsite=1&autostart=0&videoid=168113"
}