{
  "content_id": "14998",
  "title": "Весенние перевертыши",
  "release_date": "1974",
  "orig_country": "СССР",
  "lang": "Русский",
  "restrict": "12+",
  "kinopoisk_id": "45743",
  "kinopoisk_rating": "7.99",
  "imdb_rating": "8",
  "duration": "5282",
  "category": "Фильмы",
  "genres": "Для детей,Драмы,Советское кино,Фильмы",
  "vr_identifier": "Весенние перевертыши",
  "iframe": "https://www.ivi.ru/embeds/video/?subsite=1&autostart=0&videoid=14998"
}