{
  "content_id": "53129",
  "title": "Время желаний",
  "release_date": "1984",
  "orig_country": "СССР",
  "lang": "Русский",
  "restrict": "12+",
  "kinopoisk_id": "45916",
  "kinopoisk_rating": "7.38",
  "imdb_rating": "7.1",
  "duration": "5832",
  "category": "Фильмы",
  "genres": "Мелодрамы,Советское кино",
  "vr_identifier": "Время желаний",
  "iframe": "https://www.ivi.ru/embeds/video/?subsite=1&autostart=0&videoid=53129"
}