{
  "content_id": "211578",
  "title": "Встретимся у фонтана",
  "release_date": "1976",
  "orig_country": "СССР",
  "lang": "Русский",
  "restrict": "12+",
  "kinopoisk_id": "45940",
  "kinopoisk_rating": "6.78",
  "imdb_rating": "6.3",
  "duration": "4437",
  "category": "Фильмы",
  "genres": "Комедии,Мелодрамы,Советское кино",
  "vr_identifier": "Встретимся у фонтана",
  "iframe": "https://www.ivi.ru/embeds/video/?subsite=1&autostart=0&videoid=211578"
}