{
  "content_id": "398226",
  "title": "Бабушкин внук",
  "release_date": "1979",
  "orig_country": "СССР",
  "lang": "Русский",
  "restrict": "6+",
  "kinopoisk_id": "46002",
  "kinopoisk_rating": "7.37",
  "imdb_rating": "5.8",
  "duration": "4615",
  "category": "Фильмы",
  "genres": "Для всей семьи,Советское кино",
  "vr_identifier": "Бабушкин внук",
  "iframe": "https://www.ivi.ru/embeds/video/?subsite=1&autostart=0&videoid=398226"
}