{
  "content_id": "15108",
  "title": "Бакенбарды",
  "release_date": "1990",
  "orig_country": "СССР",
  "lang": "Русский",
  "restrict": "6+",
  "kinopoisk_id": "46011",
  "kinopoisk_rating": "7.68",
  "imdb_rating": "7.4",
  "duration": "5804",
  "category": "Фильмы",
  "genres": "Комедии,Советское кино",
  "vr_identifier": "Бакенбарды",
  "iframe": "https://www.ivi.ru/embeds/video/?subsite=1&autostart=0&videoid=15108"
}