{
  "content_id": "60156",
  "title": "Баллада о солдате",
  "release_date": "1959",
  "orig_country": "СССР",
  "lang": "Русский",
  "restrict": "12+",
  "kinopoisk_id": "46019",
  "kinopoisk_rating": "8.25",
  "imdb_rating": "8.1",
  "duration": "5061",
  "category": "Фильмы",
  "genres": "Военные,Драмы,Советское кино",
  "vr_identifier": "Баллада о солдате*",
  "iframe": "https://www.ivi.ru/embeds/video/?subsite=1&autostart=0&videoid=60156"
}