{
  "content_id": "15110",
  "title": "Серия 1",
  "compilation_id": "6765",
  "compilation": "Балтийское небо",
  "release_date": "1960",
  "orig_country": "СССР",
  "lang": "Русский",
  "restrict": "12+",
  "kinopoisk_id": "46022",
  "kinopoisk_rating": "7.41",
  "imdb_rating": "6.9",
  "episode": "1",
  "duration": "5055",
  "category": "Фильмы",
  "genres": "Военные,Драмы,Советское кино",
  "vr_identifier": "Балтийское небо",
  "iframe": "https://www.ivi.ru/embeds/video/?subsite=1&autostart=0&videoid=15110"
}