{
  "content_id": "52882",
  "title": "Белорусский вокзал",
  "release_date": "1970",
  "orig_country": "СССР",
  "lang": "Русский",
  "restrict": "12+",
  "kinopoisk_id": "46063",
  "kinopoisk_rating": "8.06",
  "imdb_rating": "7.9",
  "duration": "5803",
  "category": "Фильмы",
  "genres": "Драмы,Советское кино",
  "vr_identifier": "Белорусский вокзал",
  "iframe": "https://www.ivi.ru/embeds/video/?subsite=1&autostart=0&videoid=52882"
}