{
  "content_id": "60164",
  "title": "Белые ночи",
  "release_date": "1959",
  "orig_country": "СССР",
  "lang": "Русский",
  "restrict": "12+",
  "kinopoisk_id": "46079",
  "kinopoisk_rating": "7.47",
  "imdb_rating": "6.8",
  "duration": "5423",
  "category": "Фильмы",
  "genres": "Драмы,Мелодрамы,Советское кино,Экранизации",
  "vr_identifier": "Белые ночи",
  "iframe": "https://www.ivi.ru/embeds/video/?subsite=1&autostart=0&videoid=60164"
}