{
  "content_id": "60162",
  "title": "Без страха и упрека",
  "release_date": "1962",
  "orig_country": "СССР",
  "lang": "Русский",
  "restrict": "12+",
  "kinopoisk_id": "46115",
  "kinopoisk_rating": "7.19",
  "imdb_rating": "7.1",
  "duration": "4804",
  "category": "Фильмы",
  "genres": "Для всей семьи,Драмы,Приключения,Советское кино",
  "vr_identifier": "Без страха и упрека",
  "iframe": "https://www.ivi.ru/embeds/video/?subsite=1&autostart=0&videoid=60162"
}