{
  "content_id": "218157",
  "title": "Белая птица с черной отметиной",
  "release_date": "1970",
  "orig_country": "СССР",
  "lang": "Русский",
  "restrict": "12+",
  "kinopoisk_id": "46134",
  "kinopoisk_rating": "7.34",
  "imdb_rating": "7.2",
  "duration": "5569",
  "category": "Фильмы",
  "genres": "Военные,Драмы,Советское кино",
  "vr_identifier": "Белая птица с черной отметиной",
  "iframe": "https://www.ivi.ru/embeds/video/?subsite=1&autostart=0&videoid=218157"
}