{
  "content_id": "218251",
  "title": "Крепость на колесах",
  "release_date": "1960",
  "orig_country": "СССР",
  "lang": "Русский",
  "restrict": "0+",
  "kinopoisk_id": "461755",
  "kinopoisk_rating": "6.3",
  "duration": "4665",
  "category": "Фильмы",
  "genres": "Военные,Советское кино",
  "vr_identifier": "Крепость на колесах",
  "iframe": "https://www.ivi.ru/embeds/video/?subsite=1&autostart=0&videoid=218251"
}