{
  "content_id": "15036",
  "title": "Большая семья",
  "release_date": "1954",
  "orig_country": "СССР",
  "lang": "Русский",
  "restrict": "12+",
  "kinopoisk_id": "46175",
  "kinopoisk_rating": "7.96",
  "imdb_rating": "7.2",
  "duration": "6064",
  "category": "Фильмы",
  "genres": "Драмы,Советское кино",
  "vr_identifier": "Большая семья",
  "iframe": "https://www.ivi.ru/embeds/video/?subsite=1&autostart=0&videoid=15036"
}