{
  "content_id": "85492",
  "title": "Каникулы любви",
  "release_date": "2008",
  "orig_country": "Россия",
  "lang": "Русский",
  "restrict": "16+",
  "kinopoisk_id": "461757",
  "kinopoisk_rating": "4.42",
  "duration": "5502",
  "category": "Фильмы",
  "genres": "Мелодрамы,Русские",
  "vr_identifier": "Каникулы любви",
  "iframe": "https://www.ivi.ru/embeds/video/?subsite=1&autostart=0&videoid=85492"
}