{
  "content_id": "45167",
  "title": "Медленное бистро",
  "release_date": "2002",
  "orig_country": "Россия",
  "lang": "Русский",
  "restrict": "0+",
  "kinopoisk_id": "461881",
  "kinopoisk_rating": "6.62",
  "duration": "466",
  "category": "Мультфильмы",
  "genres": "Для детей,Русские,Русские мультфильмы",
  "vr_identifier": "Медленное бистро",
  "iframe": "https://www.ivi.ru/embeds/video/?subsite=1&autostart=0&videoid=45167"
}