{
  "content_id": "15062",
  "title": "Братья Комаровы",
  "release_date": "1961",
  "orig_country": "СССР",
  "lang": "Русский",
  "restrict": "0+",
  "kinopoisk_id": "46214",
  "kinopoisk_rating": "6.72",
  "imdb_rating": "6.4",
  "duration": "3338",
  "category": "Фильмы",
  "genres": "Приключения,Советское кино",
  "vr_identifier": "Братья Комаровы",
  "iframe": "https://www.ivi.ru/embeds/video/?subsite=1&autostart=0&videoid=15062"
}