{
  "content_id": "218165",
  "title": "Будни уголовного розыска",
  "release_date": "1973",
  "orig_country": "Россия",
  "lang": "Русский",
  "restrict": "12+",
  "kinopoisk_id": "46236",
  "kinopoisk_rating": "5.52",
  "imdb_rating": "5.2",
  "duration": "4947",
  "category": "Фильмы",
  "genres": "Детективы,Криминал,Советское кино",
  "vr_identifier": "Будни уголовного розыска",
  "iframe": "https://www.ivi.ru/embeds/video/?subsite=1&autostart=0&videoid=218165"
}