{
  "content_id": "211597",
  "title": "На чужом празднике",
  "release_date": "1981",
  "orig_country": "СССР",
  "lang": "Русский",
  "restrict": "0+",
  "kinopoisk_id": "46258",
  "kinopoisk_rating": "6.29",
  "imdb_rating": "5.3",
  "duration": "4391",
  "category": "Фильмы",
  "genres": "Драмы,Советское кино",
  "vr_identifier": "На чужом празднике",
  "iframe": "https://www.ivi.ru/embeds/video/?subsite=1&autostart=0&videoid=211597"
}