{
  "content_id": "60247",
  "title": "Над Тиссой",
  "release_date": "1958",
  "orig_country": "СССР",
  "lang": "Русский",
  "restrict": "0+",
  "kinopoisk_id": "46298",
  "kinopoisk_rating": "6.96",
  "imdb_rating": "6.8",
  "duration": "4750",
  "category": "Фильмы",
  "genres": "Детективы,Советское кино,Триллеры",
  "vr_identifier": "Над Тиссой",
  "iframe": "https://www.ivi.ru/embeds/video/?subsite=1&autostart=0&videoid=60247"
}