{
  "content_id": "53126",
  "title": "Нашествие",
  "release_date": "1944",
  "orig_country": "СССР",
  "lang": "Русский",
  "restrict": "0+",
  "kinopoisk_id": "46336",
  "kinopoisk_rating": "6.06",
  "imdb_rating": "6.5",
  "duration": "5650",
  "category": "Фильмы",
  "genres": "Военные,Драмы,Советское кино",
  "vr_identifier": "Нашествие",
  "iframe": "https://www.ivi.ru/embeds/video/?subsite=1&autostart=0&videoid=53126"
}