{
  "content_id": "51003",
  "title": "Стоун",
  "orig_title": "Stone",
  "release_date": "2010",
  "orig_country": "США",
  "lang": "Английский",
  "restrict": "16+",
  "kinopoisk_id": "463567",
  "kinopoisk_rating": "5.57",
  "imdb_rating": "5.4",
  "duration": "6044",
  "category": "Фильмы",
  "genres": "Драмы,Криминал,Триллеры",
  "vr_identifier": "Стоун",
  "iframe": "https://www.ivi.ru/embeds/video/?subsite=1&autostart=0&videoid=51003"
}