{
  "content_id": "60252",
  "title": "Не может быть!",
  "release_date": "1975",
  "orig_country": "СССР",
  "lang": "Русский",
  "restrict": "12+",
  "kinopoisk_id": "46368",
  "kinopoisk_rating": "8.13",
  "imdb_rating": "7.8",
  "duration": "5498",
  "category": "Фильмы",
  "genres": "Для всей семьи,Комедии,Мелодрамы,Советское кино,Экранизации",
  "vr_identifier": "Не может быть!",
  "iframe": "https://www.ivi.ru/embeds/video/?subsite=1&autostart=0&videoid=60252"
}