{
  "content_id": "166953",
  "title": "Не могу сказать «прощай»",
  "release_date": "1982",
  "orig_country": "СССР",
  "restrict": "6+",
  "kinopoisk_id": "46367",
  "kinopoisk_rating": "8.1",
  "imdb_rating": "6.7",
  "duration": "5138",
  "category": "Фильмы",
  "genres": "Драмы,Мелодрамы,Советское кино",
  "vr_identifier": "Не могу сказать \"прощай\"",
  "iframe": "https://www.ivi.ru/embeds/video/?subsite=1&autostart=0&videoid=166953"
}