{
  "content_id": "26573",
  "title": "Небывальщина",
  "release_date": "1983",
  "orig_country": "СССР",
  "lang": "Русский",
  "restrict": "12+",
  "kinopoisk_id": "46380",
  "kinopoisk_rating": "7.15",
  "imdb_rating": "7.4",
  "duration": "4639",
  "category": "Фильмы",
  "genres": "Комедии,Советское кино",
  "vr_identifier": "Небывальщина",
  "iframe": "https://www.ivi.ru/embeds/video/?subsite=1&autostart=0&videoid=26573"
}