{
  "content_id": "166954",
  "title": "Недопесок Наполеон III",
  "release_date": "1978",
  "orig_country": "СССР",
  "restrict": "0+",
  "kinopoisk_id": "46383",
  "kinopoisk_rating": "7.05",
  "imdb_rating": "6.7",
  "duration": "3711",
  "category": "Фильмы",
  "genres": "Для всей семьи,Советское кино,Фильмы",
  "vr_identifier": "Недопесок Наполеон III",
  "iframe": "https://www.ivi.ru/embeds/video/?subsite=1&autostart=0&videoid=166954"
}