{
  "content_id": "122622",
  "title": "Лондонские поля",
  "orig_title": "London Fields",
  "release_date": "2018",
  "orig_country": "Великобритания",
  "lang": "Английский",
  "restrict": "18+",
  "kinopoisk_id": "463858",
  "kinopoisk_rating": "5.76",
  "imdb_rating": "4.3",
  "duration": "7080",
  "category": "Фильмы",
  "genres": "Детективы,Зарубежные,Криминал,Триллеры",
  "vr_identifier": "Лондонские поля",
  "iframe": "https://www.ivi.ru/embeds/video/?subsite=1&autostart=0&videoid=122622"
}