{
  "content_id": "218310",
  "title": "Предвещает победу",
  "release_date": "1978",
  "orig_country": "СССР",
  "lang": "Русский",
  "restrict": "12+",
  "kinopoisk_id": "464129",
  "kinopoisk_rating": "0",
  "duration": "3891",
  "category": "Фильмы",
  "genres": "Военные,Драмы,Советское кино",
  "vr_identifier": "Предвещает победу",
  "iframe": "https://www.ivi.ru/embeds/video/?subsite=1&autostart=0&videoid=218310"
}