{
  "content_id": "383644",
  "title": "Заходи - не бойся, выходи - не плачь!",
  "release_date": "2008",
  "orig_country": "Украина",
  "lang": "Русский",
  "restrict": "12+",
  "kinopoisk_id": "464364",
  "kinopoisk_rating": "6.2",
  "duration": "5251",
  "category": "Фильмы",
  "genres": "Комедии,Мелодрамы,Русские",
  "vr_identifier": "Заходи - не бойся, выходи - не плачь!",
  "iframe": "https://www.ivi.ru/embeds/video/?subsite=1&autostart=0&videoid=383644"
}