{
  "content_id": "60254",
  "title": "Незваный друг",
  "release_date": "1981",
  "orig_country": "СССР",
  "lang": "Русский",
  "restrict": "0+",
  "kinopoisk_id": "46436",
  "kinopoisk_rating": "7.28",
  "imdb_rating": "7.9",
  "duration": "5111",
  "category": "Фильмы",
  "genres": "Драмы,Советское кино",
  "vr_identifier": "Незваный друг",
  "iframe": "https://www.ivi.ru/embeds/video/?subsite=1&autostart=0&videoid=60254"
}