{
  "content_id": "102416",
  "title": "Мэрайа Мунди и шкатулка Мидаса",
  "orig_title": "The Adventurer: The Curse of the Midas Box",
  "release_date": "2012",
  "orig_country": "Испания",
  "lang": "Испанский",
  "restrict": "16+",
  "kinopoisk_id": "464373",
  "kinopoisk_rating": "5.28",
  "imdb_rating": "5.5",
  "duration": "5675",
  "category": "Фильмы",
  "genres": "Для всей семьи,Зарубежные,Приключения,Фильмы,Фэнтези",
  "vr_identifier": "Мэрайа Мунди и шкатулка Мидаса",
  "iframe": "https://www.ivi.ru/embeds/video/?subsite=1&autostart=0&videoid=102416"
}