{
  "content_id": "166955",
  "title": "Новые похождения Кота в сапогах",
  "release_date": "1958",
  "orig_country": "СССР",
  "restrict": "0+",
  "kinopoisk_id": "46472",
  "kinopoisk_rating": "7.25",
  "imdb_rating": "7",
  "duration": "5005",
  "category": "Фильмы",
  "genres": "Для всей семьи,Сказки,Советское кино,Фильмы,Фэнтези",
  "vr_identifier": "Новые похождения Кота в сапогах",
  "iframe": "https://www.ivi.ru/embeds/video/?subsite=1&autostart=0&videoid=166955"
}