{
  "content_id": "168042",
  "title": "Бледнолицый лжец",
  "release_date": "2001",
  "orig_country": "Россия",
  "lang": "Русский",
  "restrict": "12+",
  "kinopoisk_id": "464869",
  "kinopoisk_rating": "4.94",
  "duration": "4075",
  "category": "Фильмы",
  "genres": "Комедии,Русские",
  "vr_identifier": "Бледнолицый лжец",
  "iframe": "https://www.ivi.ru/embeds/video/?subsite=1&autostart=0&videoid=168042"
}