{
  "content_id": "45233",
  "title": "Счастливый конец",
  "release_date": "2009",
  "orig_country": "Россия",
  "lang": "Русский",
  "restrict": "16+",
  "kinopoisk_id": "464941",
  "kinopoisk_rating": "2.64",
  "imdb_rating": "3.2",
  "duration": "5820",
  "category": "Фильмы",
  "genres": "Комедии,Мелодрамы,Русские",
  "vr_identifier": "CP0402",
  "iframe": "https://www.ivi.ru/embeds/video/?subsite=1&autostart=0&videoid=45233"
}