{
  "content_id": "220767",
  "title": "Мария, Мирабела",
  "release_date": "1981",
  "orig_country": "СССР",
  "lang": "Русский",
  "restrict": "6+",
  "kinopoisk_id": "46539",
  "kinopoisk_rating": "7.28",
  "imdb_rating": "7.6",
  "duration": "3882",
  "category": "Мультфильмы",
  "genres": "Для всей семьи,Для детей,Комедия,Мюзикл,Русские,Русские мультфильмы,Советские",
  "vr_identifier": "Мария, Мирабела",
  "iframe": "https://www.ivi.ru/embeds/video/?subsite=1&autostart=0&videoid=220767"
}