{
  "content_id": "398227",
  "title": "Марс",
  "release_date": "1968",
  "orig_country": "СССР",
  "lang": "Русский",
  "restrict": "6+",
  "kinopoisk_id": "46544",
  "kinopoisk_rating": "7.76",
  "imdb_rating": "7.3",
  "duration": "2989",
  "category": "Фильмы",
  "genres": "Документальные,Советское кино,Фантастика",
  "vr_identifier": "Марс",
  "iframe": "https://www.ivi.ru/embeds/video/?subsite=1&autostart=0&videoid=398227"
}