{
  "content_id": "167880",
  "title": "Марья-искусница",
  "release_date": "1960",
  "orig_country": "СССР",
  "restrict": "6+",
  "kinopoisk_id": "46548",
  "kinopoisk_rating": "7.86",
  "imdb_rating": "7.3",
  "duration": "4495",
  "category": "Фильмы",
  "genres": "Для всей семьи,Приключения,Сказки,Советское кино,Фильмы,Фэнтези",
  "vr_identifier": "Марья-искусница",
  "iframe": "https://www.ivi.ru/embeds/video/?subsite=1&autostart=0&videoid=167880"
}