{
  "content_id": "26611",
  "title": "Маскарад",
  "release_date": "1941",
  "orig_country": "СССР",
  "lang": "Русский",
  "restrict": "6+",
  "kinopoisk_id": "46551",
  "kinopoisk_rating": "7.57",
  "imdb_rating": "6.9",
  "duration": "6010",
  "category": "Фильмы",
  "genres": "Драмы,Советское кино",
  "vr_identifier": "Маскарад",
  "iframe": "https://www.ivi.ru/embeds/video/?subsite=1&autostart=0&videoid=26611"
}