{
  "content_id": "26614",
  "title": "Медовый месяц",
  "release_date": "1956",
  "orig_country": "СССР",
  "lang": "Русский",
  "restrict": "6+",
  "kinopoisk_id": "46590",
  "kinopoisk_rating": "7.64",
  "imdb_rating": "7.1",
  "duration": "5188",
  "category": "Фильмы",
  "genres": "Комедии,Мелодрамы,Советское кино",
  "vr_identifier": "Медовый месяц",
  "iframe": "https://www.ivi.ru/embeds/video/?subsite=1&autostart=0&videoid=26614"
}