{
  "content_id": "209065",
  "title": "Мичман Панин",
  "release_date": "1960",
  "orig_country": "СССР",
  "lang": "Русский",
  "restrict": "12+",
  "kinopoisk_id": "46629",
  "kinopoisk_rating": "7",
  "imdb_rating": "6.9",
  "duration": "5426",
  "category": "Фильмы",
  "genres": "Военные,Исторические,Приключения,Советское кино",
  "vr_identifier": "Мичман Панин",
  "iframe": "https://www.ivi.ru/embeds/video/?subsite=1&autostart=0&videoid=209065"
}