{
  "content_id": "60237",
  "title": "Мичурин",
  "release_date": "1948",
  "orig_country": "СССР",
  "lang": "Русский",
  "restrict": "0+",
  "kinopoisk_id": "46630",
  "kinopoisk_rating": "6.54",
  "imdb_rating": "6.3",
  "duration": "5666",
  "category": "Фильмы",
  "genres": "Биография,Мелодрамы,Советское кино",
  "vr_identifier": "Мичурин",
  "iframe": "https://www.ivi.ru/embeds/video/?subsite=1&autostart=0&videoid=60237"
}