{
  "content_id": "26570",
  "title": "Мистер Икс",
  "release_date": "1958",
  "orig_country": "СССР",
  "lang": "Русский",
  "restrict": "12+",
  "kinopoisk_id": "46655",
  "kinopoisk_rating": "7.98",
  "imdb_rating": "7.1",
  "duration": "5335",
  "category": "Фильмы",
  "genres": "Для всей семьи,Комедии,Мелодрамы,Музыкальные,Советское кино",
  "vr_identifier": "Мистер Икс",
  "iframe": "https://www.ivi.ru/embeds/video/?subsite=1&autostart=0&videoid=26570"
}