{
  "content_id": "82374",
  "title": "Кафе",
  "orig_title": "Cafe",
  "release_date": "2010",
  "orig_country": "США",
  "lang": "Английский",
  "restrict": "16+",
  "kinopoisk_id": "466613",
  "kinopoisk_rating": "5.91",
  "imdb_rating": "5.6",
  "duration": "5892",
  "category": "Фильмы",
  "genres": "Драмы,Зарубежные",
  "vr_identifier": "Кафе",
  "iframe": "https://www.ivi.ru/embeds/video/?subsite=1&autostart=0&videoid=82374"
}