{
  "content_id": "103332",
  "title": "Паранойя",
  "orig_title": "Paranoia",
  "release_date": "2013",
  "orig_country": "США",
  "lang": "Английский",
  "restrict": "12+",
  "kinopoisk_id": "466831",
  "kinopoisk_rating": "6.08",
  "imdb_rating": "5.7",
  "duration": "6345",
  "category": "Фильмы",
  "genres": "Драмы,Зарубежные,Триллеры",
  "vr_identifier": "CP0285",
  "iframe": "https://www.ivi.ru/embeds/video/?subsite=1&autostart=0&videoid=103332"
}