{
  "content_id": "11612",
  "title": "Мальчики-девочки",
  "release_date": "2008",
  "orig_country": "Россия",
  "lang": "Русский",
  "restrict": "16+",
  "kinopoisk_id": "466887",
  "kinopoisk_rating": "6.08",
  "duration": "5760",
  "category": "Фильмы",
  "genres": "Драмы",
  "vr_identifier": "Мальчики и Девочки",
  "iframe": "https://www.ivi.ru/embeds/video/?subsite=1&autostart=0&videoid=11612"
}