{
  "content_id": "26594",
  "title": "Монолог",
  "release_date": "1972",
  "orig_country": "СССР",
  "lang": "Русский",
  "restrict": "12+",
  "kinopoisk_id": "46691",
  "kinopoisk_rating": "8.02",
  "imdb_rating": "7.5",
  "duration": "5697",
  "category": "Фильмы",
  "genres": "Драмы,Советское кино",
  "vr_identifier": "Монолог",
  "iframe": "https://www.ivi.ru/embeds/video/?subsite=1&autostart=0&videoid=26594"
}