{
  "content_id": "51487",
  "title": "Москва-Кассиопея",
  "release_date": "1973",
  "orig_country": "СССР",
  "lang": "Русский",
  "restrict": "6+",
  "kinopoisk_id": "46711",
  "kinopoisk_rating": "7.64",
  "imdb_rating": "6.9",
  "duration": "4792",
  "category": "Фильмы",
  "genres": "Для всей семьи,Для детей,Комедии,Приключения,Советское кино,Фантастика,Фильмы",
  "vr_identifier": "Москва-Кассиопея",
  "iframe": "https://www.ivi.ru/embeds/video/?subsite=1&autostart=0&videoid=51487"
}