{
  "content_id": "60240",
  "title": "Москва, любовь моя",
  "release_date": "1974",
  "orig_country": "СССР",
  "lang": "Русский",
  "restrict": "12+",
  "kinopoisk_id": "46710",
  "kinopoisk_rating": "7.1",
  "imdb_rating": "6.8",
  "duration": "5363",
  "category": "Фильмы",
  "genres": "Драмы,Мелодрамы,Советское кино",
  "vr_identifier": "Москва, любовь моя",
  "iframe": "https://www.ivi.ru/embeds/video/?subsite=1&autostart=0&videoid=60240"
}