{
  "content_id": "60243",
  "title": "Мы с вами где-то встречались",
  "release_date": "1954",
  "orig_country": "СССР",
  "lang": "Русский",
  "restrict": "16+",
  "kinopoisk_id": "46756",
  "kinopoisk_rating": "7.92",
  "imdb_rating": "7.2",
  "duration": "5316",
  "category": "Фильмы",
  "genres": "Комедии,Советское кино",
  "vr_identifier": "Мы с вами где-то встречались",
  "iframe": "https://www.ivi.ru/embeds/video/?subsite=1&autostart=0&videoid=60243"
}