{
  "content_id": "211619",
  "title": "Фотография на память",
  "release_date": "1985",
  "orig_country": "СССР",
  "lang": "Русский",
  "restrict": "6+",
  "kinopoisk_id": "467933",
  "kinopoisk_rating": "6.3",
  "duration": "4086",
  "category": "Фильмы",
  "genres": "Для всей семьи,Драмы,Советское кино",
  "vr_identifier": "Фотография на память",
  "iframe": "https://www.ivi.ru/embeds/video/?subsite=1&autostart=0&videoid=211619"
}