{
  "content_id": "34437",
  "title": "38 попугаев",
  "compilation_id": "978",
  "compilation": "38 попугаев",
  "release_date": "1976",
  "orig_country": "СССР",
  "lang": "Русский",
  "restrict": "6+",
  "kinopoisk_id": "46796",
  "kinopoisk_rating": "7.63",
  "imdb_rating": "7.5",
  "season": "1",
  "episode": "1",
  "duration": "484",
  "category": "Мультфильмы",
  "genres": "Для всей семьи,Для детей,Про животных,Русские,Русские мультфильмы,Советские",
  "vr_identifier": "Тридцать восемь попугаев",
  "iframe": "https://www.ivi.ru/embeds/video/?subsite=1&autostart=0&videoid=34437"
}