{
  "content_id": "107287",
  "title": "От винта 3D",
  "release_date": "2012",
  "orig_country": "Россия",
  "lang": "Русский",
  "restrict": "6+",
  "kinopoisk_id": "468174",
  "kinopoisk_rating": "3.32",
  "imdb_rating": "3.2",
  "duration": "5004",
  "category": "Мультфильмы",
  "genres": "Для детей,Полнометражные,Приключения,Русские",
  "vr_identifier": "От винта 3D",
  "iframe": "https://www.ivi.ru/embeds/video/?subsite=1&autostart=0&videoid=107287"
}