{
  "content_id": "53164",
  "title": "Поцелуй сквозь стену",
  "release_date": "2011",
  "orig_country": "Россия",
  "lang": "Русский",
  "restrict": "16+",
  "kinopoisk_id": "468182",
  "kinopoisk_rating": "4.31",
  "imdb_rating": "3.9",
  "duration": "5184",
  "category": "Фильмы",
  "genres": "Комедии,Мелодрамы,Русские,Фантастика",
  "vr_identifier": "Поцелуй сквозь стену",
  "iframe": "https://www.ivi.ru/embeds/video/?subsite=1&autostart=0&videoid=53164"
}