{
  "content_id": "54220",
  "title": "Бездельники",
  "release_date": "2011",
  "orig_country": "Россия",
  "lang": "Русский",
  "restrict": "16+",
  "kinopoisk_id": "468153",
  "kinopoisk_rating": "6.08",
  "imdb_rating": "6",
  "duration": "5594",
  "category": "Фильмы",
  "genres": "Драмы,Мелодрамы,Музыкальные,Русские",
  "vr_identifier": "Бездельники",
  "iframe": "https://www.ivi.ru/embeds/video/?subsite=1&autostart=0&videoid=54220"
}