{
  "content_id": "57022",
  "title": "Кукарача 3D",
  "release_date": "2011",
  "orig_country": "Россия",
  "lang": "Русский",
  "restrict": "0+",
  "kinopoisk_id": "468295",
  "kinopoisk_rating": "1.35",
  "imdb_rating": "1.8",
  "duration": "4268",
  "category": "Мультфильмы",
  "genres": "Для всей семьи,Комедия,Русские",
  "vr_identifier": "Кукарача",
  "iframe": "https://www.ivi.ru/embeds/video/?subsite=1&autostart=0&videoid=57022"
}