{
  "content_id": "54190",
  "title": "Без мужчин",
  "release_date": "2010",
  "orig_country": "Россия",
  "lang": "Русский",
  "restrict": "16+",
  "kinopoisk_id": "468280",
  "kinopoisk_rating": "4.55",
  "imdb_rating": "4.6",
  "duration": "4380",
  "category": "Фильмы",
  "genres": "Комедии,Мелодрамы,Русские",
  "vr_identifier": "Без мужчин",
  "iframe": "https://www.ivi.ru/embeds/video/?subsite=1&autostart=0&videoid=54190"
}