{
  "content_id": "66693",
  "title": "Подарок для слона",
  "release_date": "1984",
  "orig_country": "СССР",
  "lang": "Русский",
  "restrict": "0+",
  "kinopoisk_id": "468349",
  "kinopoisk_rating": "7.65",
  "imdb_rating": "6.7",
  "duration": "599",
  "category": "Мультфильмы",
  "genres": "Для детей,Про животных,Русские,Русские мультфильмы,Советские",
  "vr_identifier": "Подарок для слона",
  "iframe": "https://www.ivi.ru/embeds/video/?subsite=1&autostart=0&videoid=66693"
}