{
  "content_id": "218317",
  "title": "Путешествие в молодость",
  "release_date": "1956",
  "orig_country": "СССР",
  "lang": "Русский",
  "restrict": "16+",
  "kinopoisk_id": "468662",
  "kinopoisk_rating": "6.3",
  "duration": "4720",
  "category": "Фильмы",
  "genres": "Драмы,Комедии,Приключения,Советское кино",
  "vr_identifier": "Путешествие в молодость",
  "iframe": "https://www.ivi.ru/embeds/video/?subsite=1&autostart=0&videoid=218317"
}