{
  "content_id": "112963",
  "title": "Сон №5",
  "release_date": "2010",
  "orig_country": "Россия",
  "lang": "Русский",
  "restrict": "16+",
  "kinopoisk_id": "469207",
  "kinopoisk_rating": "5.49",
  "duration": "4648",
  "category": "Фильмы",
  "genres": "Детективы,Русские,Триллеры",
  "vr_identifier": "Сон №5",
  "iframe": "https://www.ivi.ru/embeds/video/?subsite=1&autostart=0&videoid=112963"
}