{
  "content_id": "220873",
  "title": "Спортландия",
  "release_date": "1958",
  "orig_country": "СССР",
  "lang": "Русский",
  "restrict": "6+",
  "kinopoisk_id": "469599",
  "kinopoisk_rating": "7.12",
  "duration": "950",
  "category": "Мультфильмы",
  "genres": "Для всей семьи,Для детей,Русские мультфильмы,Советские",
  "vr_identifier": "Спортландия",
  "iframe": "https://www.ivi.ru/embeds/video/?subsite=1&autostart=0&videoid=220873"
}