{
  "content_id": "138050",
  "title": "Феникс в ярости",
  "orig_title": "Jija - Deu suay doo",
  "release_date": "2009",
  "orig_country": "Таиланд",
  "lang": "Тайский",
  "restrict": "18+",
  "kinopoisk_id": "469732",
  "kinopoisk_rating": "5.85",
  "imdb_rating": "6.2",
  "duration": "6720",
  "category": "Фильмы",
  "genres": "Боевики",
  "vr_identifier": "Феникс в ярости",
  "iframe": "https://www.ivi.ru/embeds/video/?subsite=1&autostart=0&videoid=138050"
}