{
  "content_id": "59454",
  "title": "Мистер Пип",
  "orig_title": "Mr. Pip",
  "release_date": "2012",
  "orig_country": "Австралия",
  "lang": "Английский",
  "restrict": "12+",
  "kinopoisk_id": "470159",
  "kinopoisk_rating": "7.18",
  "imdb_rating": "7.2",
  "duration": "7980",
  "category": "Фильмы",
  "genres": "Военные,Драмы,Зарубежные",
  "vr_identifier": "Мистер Пип",
  "iframe": "https://www.ivi.ru/embeds/video/?subsite=1&autostart=0&videoid=59454"
}