{
  "content_id": "220914",
  "title": "Футбольные звезды",
  "release_date": "1974",
  "orig_country": "СССР",
  "lang": "Русский",
  "restrict": "6+",
  "kinopoisk_id": "470303",
  "kinopoisk_rating": "7.2",
  "imdb_rating": "6.2",
  "duration": "1114",
  "category": "Мультфильмы",
  "genres": "Для детей,Русские,Русские мультфильмы,Советские,Спорт",
  "vr_identifier": "Футбольные звезды",
  "iframe": "https://www.ivi.ru/embeds/video/?subsite=1&autostart=0&videoid=220914"
}