{
  "content_id": "66753",
  "title": "Колобок, колобок!..",
  "release_date": "1988",
  "orig_country": "СССР",
  "lang": "Русский",
  "restrict": "16+",
  "kinopoisk_id": "471072",
  "kinopoisk_rating": "5.26",
  "duration": "590",
  "category": "Мультфильмы",
  "genres": "Для взрослых,Русские,Советские",
  "vr_identifier": "Колобок, колобок!..",
  "iframe": "https://www.ivi.ru/embeds/video/?subsite=1&autostart=0&videoid=66753"
}