{
  "content_id": "220924",
  "title": "Чудеса среди бела дня",
  "release_date": "1978",
  "orig_country": "СССР",
  "lang": "Русский",
  "restrict": "6+",
  "kinopoisk_id": "471004",
  "kinopoisk_rating": "6.75",
  "duration": "1083",
  "category": "Мультфильмы",
  "genres": "Для всей семьи,Для детей,Комедия,Русские мультфильмы,Советские",
  "vr_identifier": "Чудеса среди бела дня",
  "iframe": "https://www.ivi.ru/embeds/video/?subsite=1&autostart=0&videoid=220924"
}