{
  "content_id": "105725",
  "title": "Выкрутасы",
  "release_date": "2010",
  "orig_country": "Россия",
  "lang": "Русский",
  "restrict": "12+",
  "kinopoisk_id": "471158",
  "kinopoisk_rating": "6.31",
  "imdb_rating": "6.1",
  "duration": "5802",
  "category": "Фильмы",
  "genres": "Для всей семьи,Комедии,Мелодрамы,Русские,Спорт",
  "vr_identifier": "Выкрутасы",
  "iframe": "https://www.ivi.ru/embeds/video/?subsite=1&autostart=0&videoid=105725"
}