{
  "content_id": "45379",
  "title": "Ангелочек",
  "release_date": "2008",
  "orig_country": "Россия",
  "lang": "Русский",
  "restrict": "0+",
  "kinopoisk_id": "471537",
  "kinopoisk_rating": "7.06",
  "duration": "977",
  "category": "Мультфильмы",
  "genres": "Для детей,Русские,Русские мультфильмы",
  "vr_identifier": "Ангелочек",
  "iframe": "https://www.ivi.ru/embeds/video/?subsite=1&autostart=0&videoid=45379"
}