{
  "content_id": "218340",
  "title": "Сумка, полная сердец",
  "release_date": "1964",
  "orig_country": "СССР",
  "lang": "Русский",
  "restrict": "16+",
  "kinopoisk_id": "472292",
  "kinopoisk_rating": "0",
  "duration": "4709",
  "category": "Фильмы",
  "genres": "Драмы,Советское кино,Экранизации",
  "vr_identifier": "Сумка полная сердец",
  "iframe": "https://www.ivi.ru/embeds/video/?subsite=1&autostart=0&videoid=218340"
}