{
  "content_id": "11616",
  "title": "Наваждение",
  "release_date": "2008",
  "orig_country": "Россия",
  "lang": "Русский",
  "restrict": "16+",
  "kinopoisk_id": "474354",
  "kinopoisk_rating": "5.04",
  "duration": "5691",
  "category": "Фильмы",
  "genres": "Мелодрамы,Русские",
  "vr_identifier": "накаждение",
  "iframe": "https://www.ivi.ru/embeds/video/?subsite=1&autostart=0&videoid=11616"
}