{
  "content_id": "45137",
  "title": "Румпельштильцхен",
  "release_date": "2008",
  "orig_country": "Россия",
  "lang": "Русский",
  "restrict": "0+",
  "kinopoisk_id": "474420",
  "duration": "770",
  "category": "Мультфильмы",
  "genres": "Для детей,Русские,Русские мультфильмы",
  "vr_identifier": "Румпельштильцхен",
  "iframe": "https://www.ivi.ru/embeds/video/?subsite=1&autostart=0&videoid=45137"
}