{
  "content_id": "149186",
  "title": "Дом для двоих",
  "release_date": "2009",
  "orig_country": "Россия",
  "lang": "Русский",
  "restrict": "12+",
  "kinopoisk_id": "474876",
  "duration": "5359",
  "category": "Фильмы",
  "genres": "Мелодрамы,Русские",
  "vr_identifier": "Дом для двоих",
  "iframe": "https://www.ivi.ru/embeds/video/?subsite=1&autostart=0&videoid=149186"
}