{
  "content_id": "218357",
  "title": "Узнай меня",
  "release_date": "1979",
  "orig_country": "СССР",
  "lang": "Русский",
  "restrict": "6+",
  "kinopoisk_id": "475016",
  "kinopoisk_rating": "0",
  "duration": "4468",
  "category": "Фильмы",
  "genres": "Комедии,Мелодрамы,Советское кино",
  "vr_identifier": "Узнай меня",
  "iframe": "https://www.ivi.ru/embeds/video/?subsite=1&autostart=0&videoid=218357"
}