{
  "content_id": "151778",
  "title": "К чему-то прекрасному",
  "orig_title": "Till det som är vackert",
  "release_date": "2009",
  "orig_country": "Швеция",
  "restrict": "18+",
  "kinopoisk_id": "475231",
  "kinopoisk_rating": "7.11",
  "imdb_rating": "7",
  "duration": "5860",
  "category": "Фильмы",
  "genres": "Драмы,Зарубежные",
  "vr_identifier": "К чему-то прекрасному",
  "iframe": "https://www.ivi.ru/embeds/video/?subsite=1&autostart=0&videoid=151778"
}