{
  "content_id": "82071",
  "title": "Шелуха",
  "orig_title": "Husk",
  "release_date": "2010",
  "orig_country": "США",
  "lang": "Английский",
  "restrict": "16+",
  "kinopoisk_id": "477349",
  "kinopoisk_rating": "5.29",
  "imdb_rating": "5.2",
  "duration": "4763",
  "category": "Фильмы",
  "genres": "Зарубежные,Мистические,Триллеры,Ужасы",
  "vr_identifier": "Шелуха",
  "iframe": "https://www.ivi.ru/embeds/video/?subsite=1&autostart=0&videoid=82071"
}