{
  "content_id": "185410",
  "title": "Морской бой",
  "release_date": "2005",
  "orig_country": "Россия",
  "lang": "Русский",
  "restrict": "0+",
  "kinopoisk_id": "477385",
  "duration": "262",
  "category": "Мультфильмы",
  "genres": "Для детей,Русские,Русские мультфильмы",
  "vr_identifier": "Морской бой",
  "iframe": "https://www.ivi.ru/embeds/video/?subsite=1&autostart=0&videoid=185410"
}