{
  "content_id": "413665",
  "title": "Иной",
  "orig_title": "Telba",
  "release_date": "2008",
  "orig_country": "Узбекистан",
  "lang": "Узбекский",
  "restrict": "12+",
  "kinopoisk_id": "478503",
  "duration": "5994",
  "category": "Фильмы",
  "genres": "Драмы,Комедии,Мелодрамы",
  "vr_identifier": "Иной",
  "iframe": "https://www.ivi.ru/embeds/video/?subsite=1&autostart=0&videoid=413665"
}