{
  "content_id": "220842",
  "title": "Рыбья упряжка",
  "orig_country": "СССР",
  "lang": "Русский",
  "restrict": "0+",
  "kinopoisk_id": "478639",
  "duration": "1062",
  "category": "Мультфильмы",
  "genres": "Для всей семьи,Для детей,Русские мультфильмы,Сказки,Советские",
  "vr_identifier": "Рыбья упряжка",
  "iframe": "https://www.ivi.ru/embeds/video/?subsite=1&autostart=0&videoid=220842"
}