{
  "content_id": "218176",
  "title": "Весь мир в глазах твоих",
  "release_date": "1977",
  "orig_country": "СССР",
  "lang": "Русский",
  "restrict": "16+",
  "kinopoisk_id": "478845",
  "kinopoisk_rating": "7.38",
  "duration": "3847",
  "category": "Фильмы",
  "genres": "Драмы,Мелодрамы,Советское кино",
  "vr_identifier": "Весь мир в глазах твоих",
  "iframe": "https://www.ivi.ru/embeds/video/?subsite=1&autostart=0&videoid=218176"
}