{
  "content_id": "218372",
  "title": "Щедрый вечер (на украинском языке)",
  "release_date": "1976",
  "orig_country": "СССР",
  "lang": "Украинский",
  "restrict": "6+",
  "kinopoisk_id": "478817",
  "duration": "3939",
  "category": "Фильмы",
  "genres": "Для детей,Драмы,Советское кино,Экранизации",
  "vr_identifier": "Щедрый вечер",
  "iframe": "https://www.ivi.ru/embeds/video/?subsite=1&autostart=0&videoid=218372"
}