{
  "content_id": "218336",
  "title": "Спасите наши души",
  "release_date": "1960",
  "orig_country": "СССР",
  "lang": "Русский",
  "restrict": "12+",
  "kinopoisk_id": "481050",
  "kinopoisk_rating": "0",
  "duration": "4421",
  "category": "Фильмы",
  "genres": "Мелодрамы,Приключения,Советское кино",
  "vr_identifier": "Спасите наши души",
  "iframe": "https://www.ivi.ru/embeds/video/?subsite=1&autostart=0&videoid=218336"
}