{
  "content_id": "66776",
  "title": "Интервью с котом Леопольдом",
  "compilation_id": "7566",
  "compilation": "Приключения кота Леопольда",
  "release_date": "1984",
  "orig_country": "СССР",
  "lang": "Русский",
  "restrict": "12+",
  "kinopoisk_id": "481433",
  "kinopoisk_rating": "7.19",
  "season": "1",
  "episode": "9",
  "duration": "227",
  "category": "Мультфильмы",
  "genres": "Для детей,Про животных,Русские,Русские мультфильмы,Сериалы,Советские",
  "vr_identifier": "Приключения кота Леопольда",
  "iframe": "https://www.ivi.ru/embeds/video/?subsite=1&autostart=0&videoid=66776"
}