{
  "content_id": "98541",
  "title": "Византия",
  "orig_title": "Byzantium",
  "release_date": "2012",
  "orig_country": "Великобритания",
  "lang": "Английский",
  "restrict": "16+",
  "kinopoisk_id": "483364",
  "kinopoisk_rating": "6.17",
  "imdb_rating": "6.5",
  "duration": "6802",
  "category": "Фильмы",
  "genres": "Драмы,Зарубежные,Триллеры,Ужасы,Фэнтези",
  "vr_identifier": "Византия",
  "iframe": "https://www.ivi.ru/embeds/video/?subsite=1&autostart=0&videoid=98541"
}