{
  "content_id": "47575",
  "title": "Сердцеед",
  "orig_title": "L'arnacoeur",
  "release_date": "2010",
  "orig_country": "Франция",
  "lang": "Французский",
  "restrict": "16+",
  "kinopoisk_id": "484364",
  "kinopoisk_rating": "7.01",
  "imdb_rating": "6.8",
  "duration": "6300",
  "category": "Фильмы",
  "genres": "Зарубежные,Комедии,Мелодрамы",
  "vr_identifier": "Сердцеед",
  "iframe": "https://www.ivi.ru/embeds/video/?subsite=1&autostart=0&videoid=47575"
}