{
  "content_id": "63143",
  "title": "Рыба моей мечты",
  "orig_title": "Salmon Fishing in the Yemen",
  "release_date": "2011",
  "orig_country": "Великобритания",
  "lang": "Английский",
  "restrict": "16+",
  "kinopoisk_id": "484559",
  "kinopoisk_rating": "6.78",
  "imdb_rating": "6.8",
  "duration": "6176",
  "category": "Фильмы",
  "genres": "Драмы,Зарубежные,Комедии,Мелодрамы",
  "vr_identifier": "Рыба моей мечты",
  "iframe": "https://www.ivi.ru/embeds/video/?subsite=1&autostart=0&videoid=63143"
}