{
  "content_id": "220746",
  "title": "Край, в котором ты живешь",
  "release_date": "1972",
  "orig_country": "СССР",
  "lang": "Русский",
  "restrict": "0+",
  "kinopoisk_id": "485359",
  "kinopoisk_rating": "5.52",
  "duration": "514",
  "category": "Мультфильмы",
  "genres": "Для всей семьи,Для детей,Русские мультфильмы,Советские",
  "vr_identifier": "Край, в котором ты живешь",
  "iframe": "https://www.ivi.ru/embeds/video/?subsite=1&autostart=0&videoid=220746"
}