{
  "content_id": "61305",
  "title": "Апокалипсис Стоунхенджа",
  "orig_title": "Stonehenge Apocalypse",
  "release_date": "2010",
  "orig_country": "Канада",
  "lang": "Русский",
  "restrict": "12+",
  "kinopoisk_id": "487441",
  "kinopoisk_rating": "5.36",
  "imdb_rating": "4.2",
  "duration": "5217",
  "category": "Фильмы",
  "genres": "Зарубежные,Мистические,Фантастика,Фильмы-катастрофы",
  "vr_identifier": "STONEHENGE APOALYPSE",
  "iframe": "https://www.ivi.ru/embeds/video/?subsite=1&autostart=0&videoid=61305"
}