{
  "content_id": "70336",
  "title": "Лица в толпе",
  "orig_title": "Faces in the Crowd",
  "release_date": "2011",
  "orig_country": "Канада",
  "lang": "Английский",
  "restrict": "16+",
  "kinopoisk_id": "488184",
  "kinopoisk_rating": "6.6",
  "imdb_rating": "5.8",
  "duration": "6147",
  "category": "Фильмы",
  "genres": "Драмы,Зарубежные,Триллеры",
  "vr_identifier": "Лица в толпе",
  "iframe": "https://www.ivi.ru/embeds/video/?subsite=1&autostart=0&videoid=70336"
}