{
  "content_id": "94182",
  "title": "Вампирши",
  "orig_title": "Vamps",
  "release_date": "2012",
  "orig_country": "США",
  "lang": "Английский",
  "restrict": "16+",
  "kinopoisk_id": "488191",
  "kinopoisk_rating": "5.29",
  "imdb_rating": "5.2",
  "duration": "5552",
  "category": "Фильмы",
  "genres": "Зарубежные,Комедии,Мелодрамы",
  "vr_identifier": "Вампирши",
  "iframe": "https://www.ivi.ru/embeds/video/?subsite=1&autostart=0&videoid=94182"
}