{
  "content_id": "85012",
  "title": "Вой Банши",
  "orig_title": "Scream of the Banshee",
  "release_date": "2011",
  "orig_country": "США",
  "lang": "Английский",
  "restrict": "16+",
  "kinopoisk_id": "488300",
  "kinopoisk_rating": "3.28",
  "imdb_rating": "3.9",
  "duration": "5400",
  "category": "Фильмы",
  "genres": "Зарубежные,Мистические,Ужасы",
  "vr_identifier": "Вой банши",
  "iframe": "https://www.ivi.ru/embeds/video/?subsite=1&autostart=0&videoid=85012"
}