{
  "content_id": "54554",
  "title": "Фламенко, фламенко",
  "orig_title": "Flamenco, Flamenco",
  "release_date": "2010",
  "orig_country": "Испания",
  "lang": "Испанский",
  "restrict": "0+",
  "kinopoisk_id": "489812",
  "kinopoisk_rating": "6.76",
  "imdb_rating": "7.3",
  "duration": "5780",
  "category": "Фильмы",
  "genres": "Документальные,Зарубежные,Музыкальные",
  "vr_identifier": "Фламенко, фламенко",
  "iframe": "https://www.ivi.ru/embeds/video/?subsite=1&autostart=0&videoid=54554"
}