{
  "content_id": "130817",
  "title": "Всего один поворот",
  "release_date": "1986",
  "orig_country": "СССР",
  "lang": "Русский",
  "restrict": "0+",
  "kinopoisk_id": "491692",
  "kinopoisk_rating": "6.14",
  "duration": "4288",
  "category": "Фильмы",
  "genres": "Мелодрамы,Советское кино",
  "vr_identifier": "Всего один поворот",
  "iframe": "https://www.ivi.ru/embeds/video/?subsite=1&autostart=0&videoid=130817"
}