{
  "content_id": "122613",
  "title": "Унижение",
  "orig_title": "The Humbling",
  "release_date": "2014",
  "orig_country": "США",
  "lang": "Английский",
  "restrict": "18+",
  "kinopoisk_id": "493217",
  "kinopoisk_rating": "5.84",
  "imdb_rating": "5.6",
  "duration": "6173",
  "category": "Фильмы",
  "genres": "Драмы,Зарубежные",
  "vr_identifier": "Унижение",
  "iframe": "https://www.ivi.ru/embeds/video/?subsite=1&autostart=0&videoid=122613"
}