{
  "content_id": "52107",
  "title": "Эпоха героев",
  "orig_title": "Age of Heroes",
  "release_date": "2011",
  "orig_country": "Великобритания",
  "lang": "Английский",
  "restrict": "16+",
  "kinopoisk_id": "496858",
  "kinopoisk_rating": "5.63",
  "imdb_rating": "5.6",
  "duration": "5390",
  "category": "Фильмы",
  "genres": "Боевики,Военные,Зарубежные,Исторические,Приключения",
  "vr_identifier": "Эпоха героев",
  "iframe": "https://www.ivi.ru/embeds/video/?subsite=1&autostart=0&videoid=52107"
}