{
  "content_id": "57327",
  "title": "Студентка по вызову",
  "orig_title": "Mes chères études",
  "release_date": "2010",
  "orig_country": "Франция",
  "lang": "Французский",
  "restrict": "18+",
  "kinopoisk_id": "497048",
  "kinopoisk_rating": "5.9",
  "imdb_rating": "6.2",
  "duration": "6180",
  "category": "Фильмы",
  "genres": "Драмы",
  "vr_identifier": "Студентка по вызову",
  "iframe": "https://www.ivi.ru/embeds/video/?subsite=1&autostart=0&videoid=57327"
}