{
  "content_id": "50999",
  "title": "Союз зверей",
  "orig_title": "Die Konferenz der Tiere",
  "release_date": "2010",
  "orig_country": "Германия",
  "lang": "Немецкий",
  "restrict": "6+",
  "kinopoisk_id": "497301",
  "kinopoisk_rating": "5.64",
  "imdb_rating": "4.9",
  "duration": "5585",
  "category": "Мультфильмы",
  "genres": "Для детей,Западные мультфильмы,Зарубежные,Комедия,Полнометражные,Приключения,Про животных",
  "vr_identifier": "Союз зверей",
  "iframe": "https://www.ivi.ru/embeds/video/?subsite=1&autostart=0&videoid=50999"
}