{
  "content_id": "224274",
  "title": "Брат",
  "orig_title": "Hermano",
  "release_date": "2010",
  "orig_country": "Венесуэла",
  "lang": "Испанский",
  "restrict": "16+",
  "kinopoisk_id": "497913",
  "duration": "5603",
  "category": "Фильмы",
  "genres": "Драмы,Зарубежные,Спорт",
  "vr_identifier": "Брат",
  "iframe": "https://www.ivi.ru/embeds/video/?subsite=1&autostart=0&videoid=224274"
}