{
  "content_id": "184334",
  "title": "Дворник на Луне",
  "release_date": "2007",
  "orig_country": "Россия",
  "lang": "Русский",
  "restrict": "12+",
  "kinopoisk_id": "503086",
  "duration": "420",
  "category": "Мультфильмы",
  "genres": "Для детей,Русские,Русские мультфильмы",
  "vr_identifier": "Дворник на Луне",
  "iframe": "https://www.ivi.ru/embeds/video/?subsite=1&autostart=0&videoid=184334"
}