{
  "content_id": "82433",
  "title": "Задание",
  "orig_title": "The Task",
  "release_date": "2011",
  "orig_country": "США",
  "lang": "Английский",
  "restrict": "16+",
  "kinopoisk_id": "504265",
  "kinopoisk_rating": "4.91",
  "imdb_rating": "4.3",
  "duration": "5442",
  "category": "Фильмы",
  "genres": "Зарубежные,Ужасы",
  "vr_identifier": "Задание",
  "iframe": "https://www.ivi.ru/embeds/video/?subsite=1&autostart=0&videoid=82433"
}