{
  "content_id": "103419",
  "title": "Комната бабочек",
  "orig_title": "The Butterfly Room",
  "release_date": "2012",
  "orig_country": "США",
  "lang": "Английский",
  "restrict": "16+",
  "kinopoisk_id": "505961",
  "kinopoisk_rating": "5.3",
  "imdb_rating": "5.6",
  "duration": "5021",
  "category": "Фильмы",
  "genres": "Зарубежные,Триллеры,Ужасы",
  "vr_identifier": "Комната бабочек",
  "iframe": "https://www.ivi.ru/embeds/video/?subsite=1&autostart=0&videoid=103419"
}