{
  "content_id": "98532",
  "title": "Кон-Тики",
  "orig_title": "Kon-Tiki",
  "release_date": "2012",
  "orig_country": "Великобритания",
  "lang": "Английский",
  "restrict": "12+",
  "kinopoisk_id": "506432",
  "kinopoisk_rating": "7.33",
  "imdb_rating": "7.2",
  "duration": "6537",
  "category": "Фильмы",
  "genres": "Биография,Драмы,Зарубежные,Исторические,Приключения",
  "vr_identifier": "Кон-Тики",
  "iframe": "https://www.ivi.ru/embeds/video/?subsite=1&autostart=0&videoid=98532"
}