{
  "content_id": "59501",
  "title": "Ганнибал: Восхождение",
  "orig_title": "Hannibal Rising",
  "release_date": "2007",
  "orig_country": "Франция",
  "lang": "Французский",
  "restrict": "16+",
  "kinopoisk_id": "50948",
  "kinopoisk_rating": "6.92",
  "imdb_rating": "6.2",
  "duration": "6963",
  "category": "Фильмы",
  "genres": "Детективы,Драмы,Зарубежные,Триллеры",
  "vr_identifier": "Ганнибал: Восхождение",
  "iframe": "https://www.ivi.ru/embeds/video/?subsite=1&autostart=0&videoid=59501"
}