{
  "content_id": "9860",
  "title": "Остин Пауэрс: Человек-загадка международного масштаба",
  "orig_title": "Austin Powers: International Man of Mystery",
  "release_date": "1997",
  "orig_country": "США",
  "lang": "Английский",
  "restrict": "16+",
  "kinopoisk_id": "5150",
  "kinopoisk_rating": "6.59",
  "imdb_rating": "7",
  "duration": "5155",
  "category": "Фильмы",
  "genres": "Зарубежные,Комедии,Криминал,Фантастика",
  "vr_identifier": "Остин Пауэрс: Человек-загадка международного масштаба",
  "iframe": "https://www.ivi.ru/embeds/video/?subsite=1&autostart=0&videoid=9860"
}