{
  "content_id": "89176",
  "title": "Тупик",
  "orig_title": "Dead End",
  "release_date": "2003",
  "orig_country": "Франция",
  "lang": "Французский",
  "restrict": "16+",
  "kinopoisk_id": "5173",
  "kinopoisk_rating": "6.67",
  "imdb_rating": "6.6",
  "duration": "4740",
  "category": "Фильмы",
  "genres": "Детективы,Зарубежные,Комедии,Триллеры,Ужасы",
  "vr_identifier": "Тупик",
  "iframe": "https://www.ivi.ru/embeds/video/?subsite=1&autostart=0&videoid=89176"
}