{
  "content_id": "66374",
  "title": "Наизнанку",
  "orig_title": "Inside Out",
  "release_date": "2011",
  "orig_country": "США",
  "lang": "Английский",
  "restrict": "12+",
  "kinopoisk_id": "518016",
  "kinopoisk_rating": "5",
  "imdb_rating": "4.6",
  "duration": "5357",
  "category": "Фильмы",
  "genres": "Детективы,Драмы,Зарубежные",
  "vr_identifier": "Наизнанку",
  "iframe": "https://www.ivi.ru/embeds/video/?subsite=1&autostart=0&videoid=66374"
}