{
  "content_id": "222468",
  "title": "Мой придурочный брат",
  "orig_title": "Our Idiot Brother",
  "release_date": "2011",
  "orig_country": "США",
  "lang": "Английский",
  "restrict": "16+",
  "kinopoisk_id": "518162",
  "kinopoisk_rating": "6.67",
  "imdb_rating": "6.4",
  "duration": "5167",
  "category": "Фильмы",
  "genres": "Драмы,Зарубежные,Комедии",
  "vr_identifier": "OUR IDIOT BROTHER",
  "iframe": "https://www.ivi.ru/embeds/video/?subsite=1&autostart=0&videoid=222468"
}