{
  "content_id": "100407",
  "title": "Репортаж: Апокалипсис",
  "orig_title": "[REC] 4: Apocalipsis",
  "release_date": "2014",
  "orig_country": "Бразилия",
  "lang": "Португальский",
  "restrict": "16+",
  "kinopoisk_id": "518140",
  "kinopoisk_rating": "5.08",
  "imdb_rating": "5.4",
  "duration": "5470",
  "category": "Фильмы",
  "genres": "Зарубежные,Ужасы",
  "vr_identifier": "Репортаж: Апокалипсис",
  "iframe": "https://www.ivi.ru/embeds/video/?subsite=1&autostart=0&videoid=100407"
}