{
  "content_id": "121488",
  "title": "Король сафари",
  "orig_title": "Khumba",
  "release_date": "2013",
  "orig_country": "ЮАР",
  "lang": "Английский",
  "restrict": "0+",
  "kinopoisk_id": "522016",
  "kinopoisk_rating": "5.78",
  "imdb_rating": "5.7",
  "duration": "4894",
  "category": "Мультфильмы",
  "genres": "Для детей,Зарубежные,Полнометражные",
  "vr_identifier": "Король сафари",
  "iframe": "https://www.ivi.ru/embeds/video/?subsite=1&autostart=0&videoid=121488"
}