{
  "content_id": "225485",
  "title": "Лимонадный Джо",
  "orig_title": "Limonádový Joe aneb Konská opera",
  "release_date": "1964",
  "orig_country": "Чехия",
  "lang": "Чешский",
  "restrict": "16+",
  "kinopoisk_id": "52262",
  "kinopoisk_rating": "7.04",
  "imdb_rating": "7.6",
  "duration": "5716",
  "category": "Фильмы",
  "genres": "Вестерн,Зарубежные,Комедии,Музыкальные,Приключения",
  "vr_identifier": "Лимонадный Джо",
  "iframe": "https://www.ivi.ru/embeds/video/?subsite=1&autostart=0&videoid=225485"
}