{
  "content_id": "97804",
  "title": "Иллюзия обмана",
  "orig_title": "Now You See Me",
  "release_date": "2013",
  "orig_country": "США",
  "lang": "Французский",
  "restrict": "16+",
  "kinopoisk_id": "522892",
  "kinopoisk_rating": "7.72",
  "imdb_rating": "7.3",
  "duration": "6637",
  "category": "Фильмы",
  "genres": "Детективы,Зарубежные,Криминал,Триллеры",
  "vr_identifier": "CP0150",
  "iframe": "https://www.ivi.ru/embeds/video/?subsite=1&autostart=0&videoid=97804"
}