{
  "content_id": "217249",
  "title": "Серия 1",
  "compilation_id": "11838",
  "compilation": "Что скрывает любовь",
  "release_date": "2010",
  "orig_country": "Россия",
  "lang": "Русский",
  "restrict": "16+",
  "kinopoisk_id": "523004",
  "kinopoisk_rating": "5.77",
  "episode": "1",
  "duration": "2670",
  "category": "Фильмы",
  "genres": "Криминал,Мелодрамы,Русские",
  "vr_identifier": "Что скрывает любовь",
  "iframe": "https://www.ivi.ru/embeds/video/?subsite=1&autostart=0&videoid=217249"
}