{
  "content_id": "59568",
  "title": "Верзила",
  "orig_title": "The Tall Man",
  "release_date": "2012",
  "orig_country": "Канада",
  "lang": "Английский",
  "restrict": "16+",
  "kinopoisk_id": "524942",
  "kinopoisk_rating": "6.21",
  "imdb_rating": "5.9",
  "duration": "6081",
  "category": "Фильмы",
  "genres": "Детективы,Драмы,Зарубежные,Триллеры",
  "vr_identifier": "Верзила",
  "iframe": "https://www.ivi.ru/embeds/video/?subsite=1&autostart=0&videoid=59568"
}