{
  "content_id": "107449",
  "title": "Охотники за головами",
  "orig_title": "Hodejegerne",
  "release_date": "2011",
  "orig_country": "Норвегия",
  "lang": "Английский",
  "restrict": "16+",
  "kinopoisk_id": "526812",
  "kinopoisk_rating": "7.53",
  "imdb_rating": "7.6",
  "duration": "5758",
  "category": "Фильмы",
  "genres": "Драмы,Зарубежные,Криминал,Триллеры",
  "vr_identifier": "Охотники за головами",
  "iframe": "https://www.ivi.ru/embeds/video/?subsite=1&autostart=0&videoid=107449"
}