{
  "content_id": "93643",
  "title": "Женщины против мужчин",
  "orig_title": "Femmine contro maschi",
  "release_date": "2011",
  "orig_country": "Италия",
  "lang": "Итальянский",
  "restrict": "16+",
  "kinopoisk_id": "535020",
  "kinopoisk_rating": "6.11",
  "imdb_rating": "5.5",
  "duration": "6094",
  "category": "Фильмы",
  "genres": "Зарубежные,Комедии",
  "vr_identifier": "Женщины против мужчин",
  "iframe": "https://www.ivi.ru/embeds/video/?subsite=1&autostart=0&videoid=93643"
}