{
  "content_id": "105627",
  "title": "Че: Часть вторая",
  "orig_title": "Che: Part Two",
  "release_date": "2008",
  "orig_country": "Испания",
  "lang": "Испанский",
  "restrict": "16+",
  "kinopoisk_id": "53950",
  "kinopoisk_rating": "6.69",
  "imdb_rating": "6.9",
  "duration": "8100",
  "category": "Фильмы",
  "genres": "Биография,Военные,Драмы,Зарубежные,Исторические",
  "vr_identifier": "Че: Часть вторая",
  "iframe": "https://www.ivi.ru/embeds/video/?subsite=1&autostart=0&videoid=105627"
}