{
  "content_id": "218173",
  "title": "Вальдшнепы",
  "release_date": "1996",
  "orig_country": "Украина",
  "lang": "Русский",
  "restrict": "16+",
  "kinopoisk_id": "540649",
  "kinopoisk_rating": "0",
  "duration": "4570",
  "category": "Фильмы",
  "genres": "Драмы,Зарубежные,Экранизации",
  "vr_identifier": "Вальдшнепы",
  "iframe": "https://www.ivi.ru/embeds/video/?subsite=1&autostart=0&videoid=218173"
}