{
  "content_id": "45168",
  "title": "Туннелирование",
  "release_date": "2005",
  "orig_country": "Россия",
  "lang": "Русский",
  "restrict": "0+",
  "kinopoisk_id": "542280",
  "kinopoisk_rating": "7",
  "duration": "292",
  "category": "Мультфильмы",
  "genres": "Для взрослых,Русские",
  "vr_identifier": "Туннелирование",
  "iframe": "https://www.ivi.ru/embeds/video/?subsite=1&autostart=0&videoid=45168"
}