{
  "content_id": "85949",
  "title": "Дом",
  "release_date": "2011",
  "orig_country": "Россия",
  "lang": "Русский",
  "restrict": "16+",
  "kinopoisk_id": "542484",
  "kinopoisk_rating": "7.58",
  "imdb_rating": "7.5",
  "duration": "7621",
  "category": "Фильмы",
  "genres": "Драмы,Криминал,Русские",
  "vr_identifier": "CP0111",
  "iframe": "https://www.ivi.ru/embeds/video/?subsite=1&autostart=0&videoid=85949"
}