{
  "content_id": "94100",
  "title": "Я устал от тебя",
  "orig_title": "I Melt with You",
  "release_date": "2011",
  "orig_country": "США",
  "lang": "Английский",
  "restrict": "18+",
  "kinopoisk_id": "543581",
  "kinopoisk_rating": "6.44",
  "imdb_rating": "6",
  "duration": "7335",
  "category": "Фильмы",
  "genres": "Драмы,Зарубежные",
  "vr_identifier": "Я устал от тебя",
  "iframe": "https://www.ivi.ru/embeds/video/?subsite=1&autostart=0&videoid=94100"
}