{
  "content_id": "208502",
  "title": "Подлинный Вермеер",
  "orig_title": "A Real Vermeer",
  "release_date": "2016",
  "orig_country": "Нидерланды",
  "lang": "Немецкий",
  "restrict": "18+",
  "kinopoisk_id": "550042",
  "kinopoisk_rating": "6.48",
  "imdb_rating": "6.1",
  "duration": "6573",
  "category": "Фильмы",
  "genres": "Биография,Драмы,Зарубежные,Исторические",
  "vr_identifier": "Подлинный Вермеер",
  "iframe": "https://www.ivi.ru/embeds/video/?subsite=1&autostart=0&videoid=208502"
}