{
  "content_id": "127028",
  "title": "Простушка",
  "orig_title": "The DUFF",
  "release_date": "2015",
  "orig_country": "США",
  "lang": "Английский",
  "restrict": "16+",
  "kinopoisk_id": "552698",
  "kinopoisk_rating": "6.4",
  "imdb_rating": "6.5",
  "duration": "5826",
  "category": "Фильмы",
  "genres": "Зарубежные,Комедии,Мелодрамы",
  "vr_identifier": "Простушка",
  "iframe": "https://www.ivi.ru/embeds/video/?subsite=1&autostart=0&videoid=127028"
}