{
  "content_id": "59563",
  "title": "Имоджен",
  "orig_title": "Girl Most Likely",
  "release_date": "2012",
  "orig_country": "США",
  "lang": "Английский",
  "restrict": "16+",
  "kinopoisk_id": "554487",
  "kinopoisk_rating": "5.94",
  "imdb_rating": "5.8",
  "duration": "6180",
  "category": "Фильмы",
  "genres": "Комедии",
  "vr_identifier": "Имоджен",
  "iframe": "https://www.ivi.ru/embeds/video/?subsite=1&autostart=0&videoid=59563"
}