{
  "content_id": "85007",
  "title": "Черный дрозд",
  "orig_title": "Deadfall",
  "release_date": "2011",
  "orig_country": "США",
  "lang": "Английский",
  "restrict": "16+",
  "kinopoisk_id": "555966",
  "kinopoisk_rating": "6.16",
  "imdb_rating": "6.3",
  "duration": "5700",
  "category": "Фильмы",
  "genres": "Драмы,Зарубежные,Криминал,Триллеры",
  "vr_identifier": "Черный дрозд",
  "iframe": "https://www.ivi.ru/embeds/video/?subsite=1&autostart=0&videoid=85007"
}