{
  "content_id": "138108",
  "title": "Проклятая волна",
  "orig_title": "Dam999",
  "release_date": "2011",
  "orig_country": "Индия",
  "lang": "Английский",
  "restrict": "16+",
  "kinopoisk_id": "557683",
  "kinopoisk_rating": "4.09",
  "imdb_rating": "3.6",
  "duration": "6346",
  "category": "Фильмы",
  "genres": "Драмы,Зарубежные,Приключения,Триллеры,Фантастика,Фильмы-катастрофы",
  "vr_identifier": "Проклятая волна",
  "iframe": "https://www.ivi.ru/embeds/video/?subsite=1&autostart=0&videoid=138108"
}