{
  "content_id": "103779",
  "title": "Резня",
  "orig_title": "Carnage",
  "release_date": "2011",
  "orig_country": "Германия",
  "lang": "Английский",
  "restrict": "18+",
  "kinopoisk_id": "557837",
  "kinopoisk_rating": "7.4",
  "imdb_rating": "7.2",
  "duration": "4773",
  "category": "Фильмы",
  "genres": "Драмы,Зарубежные,Комедии",
  "vr_identifier": "Резня",
  "iframe": "https://www.ivi.ru/embeds/video/?subsite=1&autostart=0&videoid=103779"
}