{
  "content_id": "413410",
  "title": "Король кёрлинга",
  "orig_title": "Kong Curling",
  "release_date": "2011",
  "orig_country": "Норвегия",
  "lang": "Норвежский",
  "restrict": "16+",
  "kinopoisk_id": "558096",
  "duration": "4531",
  "category": "Фильмы",
  "genres": "Зарубежные,Комедии,Спорт",
  "vr_identifier": "Король кёрлинга",
  "iframe": "https://www.ivi.ru/embeds/video/?subsite=1&autostart=0&videoid=413410"
}