{
  "content_id": "127622",
  "title": "33 открытки",
  "orig_title": "33 Postcards",
  "release_date": "2011",
  "orig_country": "Австралия",
  "restrict": "0+",
  "kinopoisk_id": "558256",
  "kinopoisk_rating": "6.11",
  "imdb_rating": "6.2",
  "duration": "5820",
  "category": "Фильмы",
  "genres": "Драмы,Зарубежные,Криминал,Музыкальные",
  "vr_identifier": "33 открытки",
  "iframe": "https://www.ivi.ru/embeds/video/?subsite=1&autostart=0&videoid=127622"
}