{
  "content_id": "63139",
  "title": "Курьер",
  "orig_title": "The Courier",
  "release_date": "2011",
  "orig_country": "США",
  "lang": "Английский",
  "restrict": "16+",
  "kinopoisk_id": "559378",
  "kinopoisk_rating": "4.94",
  "imdb_rating": "4.5",
  "duration": "5462",
  "category": "Фильмы",
  "genres": "Боевики,Детективы,Драмы,Зарубежные,Криминал,Триллеры",
  "vr_identifier": "Курьер",
  "iframe": "https://www.ivi.ru/embeds/video/?subsite=1&autostart=0&videoid=63139"
}