{
  "content_id": "61204",
  "title": "11/11/11",
  "orig_title": "11/11/11",
  "release_date": "2011",
  "orig_country": "США",
  "lang": "Английский",
  "restrict": "16+",
  "kinopoisk_id": "565837",
  "kinopoisk_rating": "4.2",
  "imdb_rating": "4",
  "duration": "5400",
  "category": "Фильмы",
  "genres": "Детективы,Зарубежные,Триллеры,Ужасы",
  "vr_identifier": "11/11/11",
  "iframe": "https://www.ivi.ru/embeds/video/?subsite=1&autostart=0&videoid=61204"
}