{
  "content_id": "127699",
  "title": "Берни",
  "orig_title": "Bernie",
  "release_date": "2011",
  "orig_country": "США",
  "lang": "Английский",
  "restrict": "12+",
  "kinopoisk_id": "565923",
  "kinopoisk_rating": "6.39",
  "imdb_rating": "6.8",
  "duration": "5734",
  "category": "Фильмы",
  "genres": "Драмы,Зарубежные,Комедии,Криминал",
  "vr_identifier": "Берни",
  "iframe": "https://www.ivi.ru/embeds/video/?subsite=1&autostart=0&videoid=127699"
}