{
  "content_id": "107543",
  "title": "4:44 Последний день на Земле",
  "orig_title": "4:44 Last Day on Earth",
  "release_date": "2011",
  "orig_country": "США",
  "lang": "Английский",
  "restrict": "16+",
  "kinopoisk_id": "565956",
  "kinopoisk_rating": "4.71",
  "imdb_rating": "4.6",
  "duration": "4694",
  "category": "Фильмы",
  "genres": "Драмы,Зарубежные,Фантастика",
  "vr_identifier": "4:44 Последний день на Земле",
  "iframe": "https://www.ivi.ru/embeds/video/?subsite=1&autostart=0&videoid=107543"
}