{
  "content_id": "103781",
  "title": "Том Сойер",
  "orig_title": "Tom Sawyer",
  "release_date": "2011",
  "orig_country": "Германия",
  "lang": "Немецкий",
  "restrict": "12+",
  "kinopoisk_id": "566018",
  "kinopoisk_rating": "6.77",
  "imdb_rating": "6.2",
  "duration": "6381",
  "category": "Фильмы",
  "genres": "Для всей семьи,Зарубежные,Приключения,Фильмы",
  "vr_identifier": "Том Сойер",
  "iframe": "https://www.ivi.ru/embeds/video/?subsite=1&autostart=0&videoid=103781"
}