{
  "content_id": "49997",
  "title": "Любовь: Инструкция по применению",
  "orig_title": "Manuale d'am3re",
  "release_date": "2011",
  "orig_country": "Италия",
  "lang": "Итальянский",
  "restrict": "16+",
  "kinopoisk_id": "566113",
  "kinopoisk_rating": "6.81",
  "imdb_rating": "5.9",
  "duration": "7569",
  "category": "Фильмы",
  "genres": "Зарубежные,Комедии,Мелодрамы",
  "vr_identifier": "Любовь. Инструкция по применению",
  "iframe": "https://www.ivi.ru/embeds/video/?subsite=1&autostart=0&videoid=49997"
}