{
  "content_id": "217236",
  "title": "Обратный путь",
  "release_date": "2010",
  "orig_country": "Россия",
  "lang": "Русский",
  "restrict": "16+",
  "kinopoisk_id": "567032",
  "kinopoisk_rating": "5.78",
  "duration": "6010",
  "category": "Фильмы",
  "genres": "Мелодрамы,Русские",
  "vr_identifier": "Обратный путь",
  "iframe": "https://www.ivi.ru/embeds/video/?subsite=1&autostart=0&videoid=217236"
}