{
  "content_id": "413272",
  "title": "Последнее мгновение (на узбекском языке)",
  "orig_title": "So'nggi lahza",
  "release_date": "2009",
  "orig_country": "Узбекистан",
  "lang": "Узбекский",
  "restrict": "12+",
  "kinopoisk_id": "567025",
  "duration": "5824",
  "category": "Фильмы",
  "genres": "Драмы",
  "vr_identifier": "Последнее мгновение",
  "iframe": "https://www.ivi.ru/embeds/video/?subsite=1&autostart=0&videoid=413272"
}