{
  "content_id": "59733",
  "title": "Я не знаю, как она делает это",
  "orig_title": "I Don't Know How She Does It",
  "release_date": "2011",
  "orig_country": "США",
  "lang": "Английский",
  "restrict": "16+",
  "kinopoisk_id": "568270",
  "kinopoisk_rating": "5.88",
  "imdb_rating": "4.9",
  "duration": "5368",
  "category": "Фильмы",
  "genres": "Зарубежные,Комедии",
  "vr_identifier": "Я не знаю, как она делает это",
  "iframe": "https://www.ivi.ru/embeds/video/?subsite=1&autostart=0&videoid=59733"
}