{
  "content_id": "160050",
  "title": "Охотник с Уолл-стрит",
  "orig_title": "The Headhunter's Calling",
  "release_date": "2016",
  "orig_country": "США",
  "lang": "Английский",
  "restrict": "18+",
  "kinopoisk_id": "568373",
  "kinopoisk_rating": "6.59",
  "imdb_rating": "6.5",
  "duration": "6355",
  "category": "Фильмы",
  "genres": "Драмы,Зарубежные",
  "vr_identifier": "Охотник с Уолл-стрит",
  "iframe": "https://www.ivi.ru/embeds/video/?subsite=1&autostart=0&videoid=160050"
}