{
  "content_id": "107398",
  "title": "Харакири 3D",
  "orig_title": "Ichimei",
  "release_date": "2011",
  "orig_country": "Япония",
  "lang": "Японский",
  "restrict": "16+",
  "kinopoisk_id": "568324",
  "kinopoisk_rating": "7.35",
  "imdb_rating": "7.4",
  "duration": "7352",
  "category": "Фильмы",
  "genres": "Драмы,Зарубежные",
  "vr_identifier": "Харакири 3D",
  "iframe": "https://www.ivi.ru/embeds/video/?subsite=1&autostart=0&videoid=107398"
}