{
  "content_id": "160605",
  "title": "Чистилище",
  "orig_title": "8 Pounds of Flesh: Purgatorium",
  "release_date": "2010",
  "orig_country": "США",
  "lang": "Английский",
  "restrict": "12+",
  "kinopoisk_id": "569711",
  "kinopoisk_rating": "0",
  "imdb_rating": "3.6",
  "duration": "5400",
  "category": "Фильмы",
  "genres": "Зарубежные,Триллеры,Ужасы",
  "vr_identifier": "Чистилище",
  "iframe": "https://www.ivi.ru/embeds/video/?subsite=1&autostart=0&videoid=160605"
}