{
  "content_id": "107472",
  "title": "Между",
  "orig_title": "Twixt",
  "release_date": "2011",
  "orig_country": "США",
  "lang": "Английский",
  "restrict": "16+",
  "kinopoisk_id": "570187",
  "kinopoisk_rating": "5.24",
  "imdb_rating": "4.8",
  "duration": "5068",
  "category": "Фильмы",
  "genres": "Детективы,Зарубежные,Ужасы,Фэнтези",
  "vr_identifier": "Между",
  "iframe": "https://www.ivi.ru/embeds/video/?subsite=1&autostart=0&videoid=107472"
}