{
  "content_id": "127690",
  "title": "Тактическая сила",
  "orig_title": "Tactical Force",
  "release_date": "2011",
  "orig_country": "Канада",
  "restrict": "16+",
  "kinopoisk_id": "571333",
  "kinopoisk_rating": "5.04",
  "imdb_rating": "4.8",
  "duration": "5084",
  "category": "Фильмы",
  "genres": "Боевики,Зарубежные,Комедии,Криминал,Триллеры",
  "vr_identifier": "Tactical Force",
  "iframe": "https://www.ivi.ru/embeds/video/?subsite=1&autostart=0&videoid=127690"
}