{
  "content_id": "86038",
  "title": "Королевство полной луны",
  "orig_title": "Moonrise Kingdom",
  "release_date": "2012",
  "orig_country": "США",
  "lang": "Английский",
  "restrict": "12+",
  "kinopoisk_id": "571892",
  "kinopoisk_rating": "7.59",
  "imdb_rating": "7.8",
  "duration": "5392",
  "category": "Фильмы",
  "genres": "Драмы,Зарубежные,Комедии,Фильмы",
  "vr_identifier": "Королевство полной луны",
  "iframe": "https://www.ivi.ru/embeds/video/?subsite=1&autostart=0&videoid=86038"
}