{
  "content_id": "409125",
  "title": "Непристойная комедия",
  "orig_title": "InAPPropriate Comedy",
  "release_date": "2013",
  "orig_country": "США",
  "lang": "Английский",
  "restrict": "18+",
  "kinopoisk_id": "571927",
  "duration": "5254",
  "category": "Фильмы",
  "genres": "Зарубежные,Комедии",
  "vr_identifier": "InAPPropriate Comedy",
  "iframe": "https://www.ivi.ru/embeds/video/?subsite=1&autostart=0&videoid=409125"
}