{
  "content_id": "107225",
  "title": "Сексуальные хроники французской семьи",
  "orig_title": "Chroniques sexuelles d'une famille d'aujourd'hui",
  "release_date": "2012",
  "orig_country": "Франция",
  "lang": "Французский",
  "restrict": "18+",
  "kinopoisk_id": "572066",
  "kinopoisk_rating": "5.06",
  "imdb_rating": "5.3",
  "duration": "5100",
  "category": "Фильмы",
  "genres": "Эротика",
  "vr_identifier": "Сексуальные хроники французской семьи",
  "iframe": "https://www.ivi.ru/embeds/video/?subsite=1&autostart=0&videoid=107225"
}