{
  "content_id": "220876",
  "title": "Старая пластинка",
  "release_date": "1982",
  "orig_country": "СССР",
  "lang": "Русский",
  "restrict": "0+",
  "kinopoisk_id": "573333",
  "kinopoisk_rating": "7.63",
  "imdb_rating": "6",
  "duration": "880",
  "category": "Для детей",
  "genres": "Для всей семьи,Для детей,Мюзикл,Русские мультфильмы,Советские",
  "vr_identifier": "Старая пластинка",
  "iframe": "https://www.ivi.ru/embeds/video/?subsite=1&autostart=0&videoid=220876"
}