{
  "content_id": "66673",
  "title": "Симулянт",
  "release_date": "1972",
  "orig_country": "СССР",
  "lang": "Русский",
  "restrict": "0+",
  "kinopoisk_id": "573747",
  "kinopoisk_rating": "6.3",
  "duration": "405",
  "category": "Мультфильмы",
  "genres": "Для детей,Про животных,Русские,Советские",
  "vr_identifier": "Симулянт",
  "iframe": "https://www.ivi.ru/embeds/video/?subsite=1&autostart=0&videoid=66673"
}