{
  "content_id": "62633",
  "title": "Суходол",
  "release_date": "2011",
  "orig_country": "Россия",
  "lang": "Русский",
  "restrict": "16+",
  "kinopoisk_id": "574888",
  "kinopoisk_rating": "5.91",
  "imdb_rating": "6.6",
  "duration": "5320",
  "category": "Фильмы",
  "genres": "Драмы,Русские,Экранизации",
  "vr_identifier": "Суходол",
  "iframe": "https://www.ivi.ru/embeds/video/?subsite=1&autostart=0&videoid=62633"
}