{
  "content_id": "96302",
  "title": "Прирожденный гонщик",
  "orig_title": "Born to Race",
  "release_date": "2011",
  "orig_country": "США",
  "lang": "Английский",
  "restrict": "16+",
  "kinopoisk_id": "575398",
  "kinopoisk_rating": "6.33",
  "imdb_rating": "6.1",
  "duration": "5676",
  "category": "Фильмы",
  "genres": "Боевики,Зарубежные",
  "vr_identifier": "Прирожденный гонщик",
  "iframe": "https://www.ivi.ru/embeds/video/?subsite=1&autostart=0&videoid=96302"
}