{
  "content_id": "109638",
  "title": "100 миллионов евро",
  "orig_title": "Les Tuche",
  "release_date": "2011",
  "orig_country": "Франция",
  "lang": "Французский",
  "restrict": "16+",
  "kinopoisk_id": "575453",
  "kinopoisk_rating": "6.02",
  "imdb_rating": "5.4",
  "duration": "5637",
  "category": "Фильмы",
  "genres": "Зарубежные,Комедии",
  "vr_identifier": "Les Tuche",
  "iframe": "https://www.ivi.ru/embeds/video/?subsite=1&autostart=0&videoid=109638"
}