{
  "content_id": "107264",
  "title": "Экстази",
  "orig_title": "Irvine Welsh's Ecstasy",
  "release_date": "2011",
  "orig_country": "Канада",
  "restrict": "16+",
  "kinopoisk_id": "577276",
  "kinopoisk_rating": "5.8",
  "imdb_rating": "5.2",
  "duration": "5978",
  "category": "Фильмы",
  "genres": "Драмы,Зарубежные,Мелодрамы",
  "vr_identifier": "Экстази",
  "iframe": "https://www.ivi.ru/embeds/video/?subsite=1&autostart=0&videoid=107264"
}