{
  "content_id": "107327",
  "title": "Дело в тебе",
  "orig_title": "A Case of You",
  "release_date": "2013",
  "orig_country": "США",
  "lang": "Английский",
  "restrict": "16+",
  "kinopoisk_id": "577261",
  "kinopoisk_rating": "5.87",
  "imdb_rating": "5.7",
  "duration": "5258",
  "category": "Фильмы",
  "genres": "Зарубежные,Комедии,Мелодрамы",
  "vr_identifier": "Дело в тебе",
  "iframe": "https://www.ivi.ru/embeds/video/?subsite=1&autostart=0&videoid=107327"
}