{
  "content_id": "93107",
  "title": "Абсолютное зло",
  "orig_title": "Meeting Evil",
  "release_date": "2011",
  "orig_country": "США",
  "lang": "Английский",
  "restrict": "18+",
  "kinopoisk_id": "577312",
  "kinopoisk_rating": "5.59",
  "imdb_rating": "5.3",
  "duration": "5122",
  "category": "Фильмы",
  "genres": "Детективы,Драмы,Зарубежные,Криминал,Триллеры",
  "vr_identifier": "Абсолютное зло",
  "iframe": "https://www.ivi.ru/embeds/video/?subsite=1&autostart=0&videoid=93107"
}