{
  "content_id": "95048",
  "title": "Потерянное Рождество",
  "orig_title": "Lost Christmas",
  "release_date": "2011",
  "orig_country": "Великобритания",
  "lang": "Английский",
  "restrict": "12+",
  "kinopoisk_id": "577558",
  "kinopoisk_rating": "7.34",
  "imdb_rating": "7.1",
  "duration": "5554",
  "category": "Фильмы",
  "genres": "Драмы,Зарубежные",
  "vr_identifier": "Потерянное Рождество",
  "iframe": "https://www.ivi.ru/embeds/video/?subsite=1&autostart=0&videoid=95048"
}