{
  "content_id": "130186",
  "title": "Воробьишка-хвастунишка",
  "release_date": "1981",
  "orig_country": "СССР",
  "lang": "Русский",
  "restrict": "0+",
  "kinopoisk_id": "579209",
  "duration": "526",
  "category": "Мультфильмы",
  "genres": "Для детей,Русские мультфильмы,Советские",
  "vr_identifier": "Воробьишка-хвастунишка",
  "iframe": "https://www.ivi.ru/embeds/video/?subsite=1&autostart=0&videoid=130186"
}