{
  "content_id": "144718",
  "title": "Приключения Пикси",
  "orig_title": "Pixies",
  "release_date": "2015",
  "orig_country": "Канада",
  "lang": "Английский",
  "restrict": "6+",
  "kinopoisk_id": "581348",
  "kinopoisk_rating": "3.7",
  "imdb_rating": "5.7",
  "duration": "4469",
  "category": "Мультфильмы",
  "genres": "Для всей семьи,Для детей,Западные мультфильмы,Комедия",
  "vr_identifier": "Приключения Пикси",
  "iframe": "https://www.ivi.ru/embeds/video/?subsite=1&autostart=0&videoid=144718"
}