{
  "content_id": "4320",
  "title": "3 новеллы",
  "release_date": "1986",
  "orig_country": "СССР",
  "lang": "Русский",
  "restrict": "6+",
  "kinopoisk_id": "581684",
  "kinopoisk_rating": "5.51",
  "duration": "583",
  "category": "Мультфильмы",
  "genres": "Для детей,Русские мультфильмы,Советские",
  "vr_identifier": "Три новеллы",
  "iframe": "https://www.ivi.ru/embeds/video/?subsite=1&autostart=0&videoid=4320"
}