{
  "content_id": "95896",
  "title": "Апартаменты 1303",
  "orig_title": "Apartment 1303 3D",
  "release_date": "2012",
  "orig_country": "США",
  "lang": "Английский",
  "restrict": "16+",
  "kinopoisk_id": "581644",
  "kinopoisk_rating": "2.87",
  "imdb_rating": "2.6",
  "duration": "4920",
  "category": "Фильмы",
  "genres": "Зарубежные,Мистические,Триллеры,Ужасы",
  "vr_identifier": "Апартаменты 1303",
  "iframe": "https://www.ivi.ru/embeds/video/?subsite=1&autostart=0&videoid=95896"
}