{
  "content_id": "222466",
  "title": "Гипнотизер",
  "orig_title": "Hypnotisören",
  "release_date": "2012",
  "orig_country": "Швеция",
  "lang": "Шведский",
  "restrict": "18+",
  "kinopoisk_id": "582286",
  "kinopoisk_rating": "5.62",
  "imdb_rating": "5.6",
  "duration": "6993",
  "category": "Фильмы",
  "genres": "Драмы,Зарубежные,Криминал,Триллеры",
  "vr_identifier": "HYPNOTIST, THE",
  "iframe": "https://www.ivi.ru/embeds/video/?subsite=1&autostart=0&videoid=222466"
}