{
  "content_id": "94604",
  "title": "Вишенка на новогоднем торте",
  "orig_title": "La cerise sur le gâteau",
  "release_date": "2012",
  "orig_country": "Франция",
  "lang": "Французский",
  "restrict": "16+",
  "kinopoisk_id": "585912",
  "kinopoisk_rating": "5.83",
  "imdb_rating": "5.6",
  "duration": "4980",
  "category": "Фильмы",
  "genres": "Зарубежные,Комедии",
  "vr_identifier": "Вишенка на новогоднем торте",
  "iframe": "https://www.ivi.ru/embeds/video/?subsite=1&autostart=0&videoid=94604"
}