{
  "content_id": "160548",
  "title": "2pac: Легенда",
  "orig_title": "All Eyez on Me",
  "release_date": "2017",
  "orig_country": "США",
  "lang": "Английский",
  "restrict": "18+",
  "kinopoisk_id": "586239",
  "kinopoisk_rating": "6.25",
  "imdb_rating": "5.8",
  "duration": "8035",
  "category": "Фильмы",
  "genres": "Биография,Драмы,Зарубежные,Музыкальные",
  "vr_identifier": "2pac: Легенда",
  "iframe": "https://www.ivi.ru/embeds/video/?subsite=1&autostart=0&videoid=160548"
}