{
  "content_id": "151855",
  "title": "Последний обряд",
  "orig_title": "Demonic",
  "release_date": "2013",
  "orig_country": "США",
  "lang": "Английский",
  "restrict": "18+",
  "kinopoisk_id": "586380",
  "kinopoisk_rating": "4.88",
  "imdb_rating": "5.3",
  "duration": "4791",
  "category": "Фильмы",
  "genres": "Зарубежные,Триллеры,Ужасы",
  "vr_identifier": "Последний обряд",
  "iframe": "https://www.ivi.ru/embeds/video/?subsite=1&autostart=0&videoid=151855"
}