{
  "content_id": "127219",
  "title": "Плохие дети отправляются в ад",
  "orig_title": "Bad Kids Go to Hell",
  "release_date": "2012",
  "orig_country": "США",
  "lang": "Английский",
  "restrict": "16+",
  "kinopoisk_id": "588162",
  "kinopoisk_rating": "4.3",
  "imdb_rating": "4.6",
  "duration": "5460",
  "category": "Фильмы",
  "genres": "Детективы,Зарубежные,Комедии,Триллеры",
  "vr_identifier": "Плохие дети отправляются в ад",
  "iframe": "https://www.ivi.ru/embeds/video/?subsite=1&autostart=0&videoid=127219"
}