{
  "content_id": "98427",
  "title": "Группа 7",
  "orig_title": "Grupo 7",
  "release_date": "2011",
  "orig_country": "Испания",
  "lang": "Испанский",
  "restrict": "16+",
  "kinopoisk_id": "590799",
  "kinopoisk_rating": "6.14",
  "imdb_rating": "6.5",
  "duration": "5760",
  "category": "Фильмы",
  "genres": "Боевики,Драмы,Зарубежные,Триллеры",
  "vr_identifier": "Группа 7",
  "iframe": "https://www.ivi.ru/embeds/video/?subsite=1&autostart=0&videoid=98427"
}