{
  "content_id": "138316",
  "title": "Никита Кожемяка",
  "orig_title": "The Dragon Spell",
  "release_date": "2016",
  "orig_country": "Украина",
  "lang": "Русский",
  "restrict": "6+",
  "kinopoisk_id": "592304",
  "kinopoisk_rating": "5.77",
  "imdb_rating": "5.6",
  "duration": "5183",
  "category": "Мультфильмы",
  "genres": "Для всей семьи,Для детей,Комедия,Полнометражные,Приключения,Сказки,Фантастика",
  "vr_identifier": "Никита Кожемяка",
  "iframe": "https://www.ivi.ru/embeds/video/?subsite=1&autostart=0&videoid=138316"
}