{
  "content_id": "26561",
  "title": "Мишель и Мишутка",
  "release_date": "1961",
  "orig_country": "СССР",
  "lang": "Русский",
  "restrict": "12+",
  "kinopoisk_id": "594806",
  "kinopoisk_rating": "0",
  "duration": "1969",
  "category": "Фильмы",
  "genres": "Для всей семьи,Комедии,Советское кино",
  "vr_identifier": "Мишель и Мишутка",
  "iframe": "https://www.ivi.ru/embeds/video/?subsite=1&autostart=0&videoid=26561"
}