{
  "content_id": "409268",
  "title": "Шесть пуль",
  "orig_title": "6 Bullets",
  "release_date": "2012",
  "orig_country": "США",
  "lang": "Английский",
  "restrict": "18+",
  "kinopoisk_id": "596222",
  "duration": "6879",
  "category": "Фильмы",
  "genres": "Боевики,Драмы,Зарубежные,Криминал,Триллеры",
  "vr_identifier": "6 Bullets",
  "iframe": "https://www.ivi.ru/embeds/video/?subsite=1&autostart=0&videoid=409268"
}