{
  "content_id": "126906",
  "title": "Две женщины",
  "release_date": "2014",
  "orig_country": "Россия",
  "lang": "Русский",
  "restrict": "16+",
  "kinopoisk_id": "596452",
  "kinopoisk_rating": "6.65",
  "imdb_rating": "6.3",
  "duration": "5969",
  "category": "Фильмы",
  "genres": "Драмы,Русские",
  "vr_identifier": "Две женщины",
  "iframe": "https://www.ivi.ru/embeds/video/?subsite=1&autostart=0&videoid=126906"
}