{
  "content_id": "107250",
  "title": "Большая вечеринка",
  "orig_title": "Le grand soir",
  "release_date": "2012",
  "orig_country": "Франция",
  "lang": "Французский",
  "restrict": "16+",
  "kinopoisk_id": "602829",
  "kinopoisk_rating": "5.16",
  "imdb_rating": "5.9",
  "duration": "5497",
  "category": "Фильмы",
  "genres": "Драмы,Зарубежные,Комедии",
  "vr_identifier": "Большая вечеринка",
  "iframe": "https://www.ivi.ru/embeds/video/?subsite=1&autostart=0&videoid=107250"
}