{
  "content_id": "99727",
  "title": "Два билета в Венецию",
  "release_date": "2011",
  "orig_country": "Россия",
  "lang": "Русский",
  "restrict": "16+",
  "kinopoisk_id": "602908",
  "kinopoisk_rating": "5.11",
  "duration": "5415",
  "category": "Фильмы",
  "genres": "Мелодрамы,Русские",
  "vr_identifier": "Два билета в Венецию",
  "iframe": "https://www.ivi.ru/embeds/video/?subsite=1&autostart=0&videoid=99727"
}