{
  "content_id": "151779",
  "title": "Нечувствительный",
  "orig_title": "Insensibles",
  "release_date": "2012",
  "orig_country": "Испания",
  "lang": "Испанский",
  "restrict": "18+",
  "kinopoisk_id": "603111",
  "kinopoisk_rating": "6.42",
  "imdb_rating": "6.2",
  "duration": "6063",
  "category": "Фильмы",
  "genres": "Детективы,Зарубежные,Триллеры,Ужасы,Фэнтези",
  "vr_identifier": "Нечувствительный",
  "iframe": "https://www.ivi.ru/embeds/video/?subsite=1&autostart=0&videoid=151779"
}