{
  "content_id": "110474",
  "title": "Мой будущий тесть – аферист",
  "orig_title": "Lionhead",
  "release_date": "2013",
  "orig_country": "США",
  "lang": "Английский",
  "restrict": "16+",
  "kinopoisk_id": "603221",
  "kinopoisk_rating": "3.76",
  "imdb_rating": "5.6",
  "duration": "5761",
  "category": "Фильмы",
  "genres": "Драмы,Зарубежные,Комедии,Криминал",
  "vr_identifier": "Мой будущий тесть – аферист",
  "iframe": "https://www.ivi.ru/embeds/video/?subsite=1&autostart=0&videoid=110474"
}