{
  "content_id": "106217",
  "title": "12 лет рабства",
  "orig_title": "12 Years a Slave",
  "release_date": "2013",
  "orig_country": "США",
  "lang": "Английский",
  "restrict": "16+",
  "kinopoisk_id": "606646",
  "kinopoisk_rating": "7.71",
  "imdb_rating": "8.1",
  "duration": "7980",
  "category": "Фильмы",
  "genres": "Биография,Драмы,Зарубежные,Исторические",
  "vr_identifier": "CP0001",
  "iframe": "https://www.ivi.ru/embeds/video/?subsite=1&autostart=0&videoid=106217"
}