{
  "content_id": "90653",
  "title": "Няньки",
  "release_date": "2012",
  "orig_country": "Россия",
  "lang": "Русский",
  "restrict": "12+",
  "kinopoisk_id": "607084",
  "kinopoisk_rating": "4.96",
  "imdb_rating": "3.6",
  "duration": "5400",
  "category": "Фильмы",
  "genres": "Для всей семьи,Комедии,Русские",
  "vr_identifier": "Няньки",
  "iframe": "https://www.ivi.ru/embeds/video/?subsite=1&autostart=0&videoid=90653"
}