{
  "content_id": "98501",
  "title": "Однажды со мной",
  "release_date": "2012",
  "orig_country": "Россия",
  "lang": "Русский",
  "restrict": "12+",
  "kinopoisk_id": "607103",
  "kinopoisk_rating": "5.35",
  "duration": "4920",
  "category": "Фильмы",
  "genres": "Для всей семьи,Драмы,Мюзикл,Русские",
  "vr_identifier": "Однажды со мной",
  "iframe": "https://www.ivi.ru/embeds/video/?subsite=1&autostart=0&videoid=98501"
}