{
  "content_id": "412658",
  "title": "Рождественская ночь!",
  "orig_title": "Holy Night!",
  "release_date": "2011",
  "orig_country": "Испания",
  "lang": "Испанский",
  "restrict": "12+",
  "kinopoisk_id": "609249",
  "imdb_rating": "6.1",
  "duration": "5515",
  "category": "Мультфильмы",
  "genres": "Для всей семьи,Для детей,Западные мультфильмы,Зарубежные,Комедия,Приключения,Фэнтези",
  "vr_identifier": "Рождественская ночь",
  "iframe": "https://www.ivi.ru/embeds/video/?subsite=1&autostart=0&videoid=412658"
}