{
  "content_id": "114409",
  "title": "Разомкнутый круг",
  "orig_title": "The Broken Circle Breakdown",
  "release_date": "2012",
  "orig_country": "Бельгия",
  "restrict": "12+",
  "kinopoisk_id": "613482",
  "kinopoisk_rating": "7.25",
  "imdb_rating": "7.8",
  "duration": "6660",
  "category": "Фильмы",
  "genres": "Драмы,Мелодрамы",
  "vr_identifier": "Разомкнутый круг",
  "iframe": "https://www.ivi.ru/embeds/video/?subsite=1&autostart=0&videoid=114409"
}