{
  "content_id": "85126",
  "title": "Кого бы мне убить?",
  "orig_title": "Who Do I Gotta Kill?",
  "release_date": "1992",
  "orig_country": "США",
  "lang": "Английский",
  "restrict": "16+",
  "kinopoisk_id": "6136",
  "kinopoisk_rating": "4.73",
  "imdb_rating": "4.2",
  "duration": "5220",
  "category": "Фильмы",
  "genres": "Зарубежные,Комедии,Криминал",
  "vr_identifier": "Кого бы мне убить?",
  "iframe": "https://www.ivi.ru/embeds/video/?subsite=1&autostart=0&videoid=85126"
}