{
  "content_id": "52643",
  "title": "Прощай, Генералиссимус!",
  "orig_title": "¡Buen viaje, excelencia!",
  "release_date": "2002",
  "orig_country": "Испания",
  "lang": "Испанский",
  "restrict": "16+",
  "kinopoisk_id": "61647",
  "kinopoisk_rating": "0",
  "imdb_rating": "5.5",
  "duration": "5481",
  "category": "Фильмы",
  "genres": "Зарубежные,Комедии",
  "vr_identifier": "Прощай, Генералиссимус",
  "iframe": "https://www.ivi.ru/embeds/video/?subsite=1&autostart=0&videoid=52643"
}