{
  "content_id": "112289",
  "title": "Параллельные миры",
  "release_date": "2012",
  "orig_country": "Россия",
  "lang": "Русский",
  "restrict": "16+",
  "kinopoisk_id": "617224",
  "kinopoisk_rating": "3.8",
  "duration": "5085",
  "category": "Фильмы",
  "genres": "Мелодрамы,Русские",
  "vr_identifier": "Параллельные миры",
  "iframe": "https://www.ivi.ru/embeds/video/?subsite=1&autostart=0&videoid=112289"
}