{
  "content_id": "103290",
  "title": "Владение 18",
  "release_date": "2013",
  "orig_country": "Россия",
  "lang": "Русский",
  "restrict": "16+",
  "kinopoisk_id": "617240",
  "kinopoisk_rating": "4.23",
  "imdb_rating": "4.7",
  "duration": "5318",
  "category": "Фильмы",
  "genres": "Детективы,Русские,Триллеры,Ужасы",
  "vr_identifier": "Владение 18",
  "iframe": "https://www.ivi.ru/embeds/video/?subsite=1&autostart=0&videoid=103290"
}