{
  "content_id": "102277",
  "title": "Всех порву!",
  "orig_title": "Revenge for Jolly!",
  "release_date": "2012",
  "orig_country": "США",
  "lang": "Английский",
  "restrict": "16+",
  "kinopoisk_id": "623645",
  "kinopoisk_rating": "4.78",
  "imdb_rating": "4.6",
  "duration": "4860",
  "category": "Фильмы",
  "genres": "Драмы,Зарубежные,Комедии",
  "vr_identifier": "Всех порву!",
  "iframe": "https://www.ivi.ru/embeds/video/?subsite=1&autostart=0&videoid=102277"
}