{
  "content_id": "70175",
  "title": "Тюряга",
  "orig_title": "Lock Up",
  "release_date": "1989",
  "orig_country": "США",
  "lang": "Английский",
  "restrict": "16+",
  "kinopoisk_id": "6241",
  "kinopoisk_rating": "7.35",
  "imdb_rating": "6.4",
  "duration": "6253",
  "category": "Фильмы",
  "genres": "Боевики,Детективы,Драмы,Зарубежные",
  "vr_identifier": "Тюряга",
  "iframe": "https://www.ivi.ru/embeds/video/?subsite=1&autostart=0&videoid=70175"
}