{
  "content_id": "160600",
  "title": "Подозреваемый",
  "orig_title": "The Suspect",
  "release_date": "2013",
  "orig_country": "США",
  "lang": "Английский",
  "restrict": "16+",
  "kinopoisk_id": "630015",
  "kinopoisk_rating": "0",
  "imdb_rating": "5.7",
  "duration": "5630",
  "category": "Фильмы",
  "genres": "Зарубежные,Триллеры",
  "vr_identifier": "Подозреваемый",
  "iframe": "https://www.ivi.ru/embeds/video/?subsite=1&autostart=0&videoid=160600"
}