{
  "content_id": "98454",
  "title": "Привет, мне пора",
  "orig_title": "Hello I Must Be Going",
  "release_date": "2012",
  "orig_country": "США",
  "lang": "Английский",
  "restrict": "16+",
  "kinopoisk_id": "630005",
  "kinopoisk_rating": "6.09",
  "imdb_rating": "6.2",
  "duration": "5612",
  "category": "Фильмы",
  "genres": "Драмы,Зарубежные,Комедии,Мелодрамы",
  "vr_identifier": "Привет, мне пора",
  "iframe": "https://www.ivi.ru/embeds/video/?subsite=1&autostart=0&videoid=98454"
}