{
  "content_id": "103354",
  "title": "Мой путь (Клокло)",
  "orig_title": "Cloclo",
  "release_date": "2012",
  "orig_country": "Франция",
  "lang": "Французский",
  "restrict": "16+",
  "kinopoisk_id": "630420",
  "kinopoisk_rating": "7.08",
  "imdb_rating": "6.9",
  "duration": "8920",
  "category": "Фильмы",
  "genres": "Биография,Драмы,Зарубежные,Музыкальные",
  "vr_identifier": "Мой путь",
  "iframe": "https://www.ivi.ru/embeds/video/?subsite=1&autostart=0&videoid=103354"
}