{
  "content_id": "127712",
  "title": "Друзья из Франции",
  "release_date": "2013",
  "orig_country": "Россия",
  "lang": "Русский",
  "restrict": "16+",
  "kinopoisk_id": "630653",
  "kinopoisk_rating": "4.91",
  "imdb_rating": "6",
  "duration": "5534",
  "category": "Фильмы",
  "genres": "Драмы,Зарубежные,Исторические,Мелодрамы,Приключения",
  "vr_identifier": "Друзья из Франции",
  "iframe": "https://www.ivi.ru/embeds/video/?subsite=1&autostart=0&videoid=127712"
}