{
  "content_id": "98506",
  "title": "Кровь",
  "orig_title": "Blood",
  "release_date": "2012",
  "orig_country": "Великобритания",
  "lang": "Английский",
  "restrict": "16+",
  "kinopoisk_id": "634236",
  "kinopoisk_rating": "6.06",
  "imdb_rating": "6",
  "duration": "5309",
  "category": "Фильмы",
  "genres": "Драмы,Зарубежные,Криминал,Триллеры",
  "vr_identifier": "Кровь",
  "iframe": "https://www.ivi.ru/embeds/video/?subsite=1&autostart=0&videoid=98506"
}