{
  "content_id": "211574",
  "title": "В погоне за славой",
  "release_date": "1956",
  "orig_country": "СССР",
  "restrict": "12+",
  "kinopoisk_id": "636153",
  "kinopoisk_rating": "6.24",
  "duration": "4952",
  "category": "Фильмы",
  "genres": "Драмы,Советское кино",
  "vr_identifier": "В погоне за славой",
  "iframe": "https://www.ivi.ru/embeds/video/?subsite=1&autostart=0&videoid=211574"
}