{
  "content_id": "107330",
  "title": "Принцесса Монако",
  "orig_title": "Grace of Monaco",
  "release_date": "2014",
  "orig_country": "Франция",
  "lang": "Французский",
  "restrict": "16+",
  "kinopoisk_id": "645291",
  "kinopoisk_rating": "6.62",
  "imdb_rating": "5.7",
  "duration": "5894",
  "category": "Фильмы",
  "genres": "Биография,Драмы,Зарубежные,Мелодрамы",
  "vr_identifier": "Принцесса Монако",
  "iframe": "https://www.ivi.ru/embeds/video/?subsite=1&autostart=0&videoid=107330"
}