{
  "content_id": "112327",
  "title": "Кровавая месть",
  "orig_title": "In the Blood",
  "release_date": "2013",
  "orig_country": "Великобритания",
  "lang": "Английский",
  "restrict": "16+",
  "kinopoisk_id": "646313",
  "kinopoisk_rating": "5.77",
  "imdb_rating": "5.8",
  "duration": "6426",
  "category": "Фильмы",
  "genres": "Боевики,Зарубежные,Криминал,Триллеры",
  "vr_identifier": "Кровавая месть",
  "iframe": "https://www.ivi.ru/embeds/video/?subsite=1&autostart=0&videoid=112327"
}