{
  "content_id": "102418",
  "title": "Прогулка по солнечному свету",
  "orig_title": "Walking on Sunshine",
  "release_date": "2014",
  "orig_country": "Великобритания",
  "lang": "Английский",
  "restrict": "12+",
  "kinopoisk_id": "648075",
  "kinopoisk_rating": "6.13",
  "imdb_rating": "5.4",
  "duration": "5580",
  "category": "Фильмы",
  "genres": "Драмы,Зарубежные,Комедии,Мелодрамы,Музыкальные",
  "vr_identifier": "Прогулка по солнечному свету",
  "iframe": "https://www.ivi.ru/embeds/video/?subsite=1&autostart=0&videoid=102418"
}