{
  "content_id": "186575",
  "title": "Кольт 45",
  "orig_title": "Colt 45",
  "release_date": "2014",
  "orig_country": "Франция",
  "lang": "Французский",
  "restrict": "16+",
  "kinopoisk_id": "648472",
  "kinopoisk_rating": "5.77",
  "imdb_rating": "5.8",
  "duration": "4825",
  "category": "Фильмы",
  "genres": "Боевики,Драмы,Зарубежные,Криминал,Триллеры",
  "vr_identifier": "Кольт 45",
  "iframe": "https://www.ivi.ru/embeds/video/?subsite=1&autostart=0&videoid=186575"
}