{
  "content_id": "107247",
  "title": "Аэротачки",
  "orig_title": "Sky Force 3D",
  "release_date": "2012",
  "orig_country": "США",
  "lang": "Английский",
  "restrict": "6+",
  "kinopoisk_id": "648779",
  "kinopoisk_rating": "4.07",
  "imdb_rating": "3.3",
  "duration": "4660",
  "category": "Мультфильмы",
  "genres": "Для детей,Западные мультфильмы,Зарубежные,Полнометражные",
  "vr_identifier": "Аэротачки",
  "iframe": "https://www.ivi.ru/embeds/video/?subsite=1&autostart=0&videoid=107247"
}