{
  "content_id": "315548",
  "title": "Имя розы",
  "orig_title": "Der Name der Rose",
  "release_date": "1986",
  "orig_country": "Италия",
  "lang": "Английский",
  "restrict": "16+",
  "kinopoisk_id": "6500",
  "kinopoisk_rating": "7.57",
  "imdb_rating": "7.8",
  "duration": "7566",
  "category": "Фильмы",
  "genres": "Детективы,Драмы,Зарубежные,Триллеры,Экранизации",
  "vr_identifier": "Имя розы",
  "iframe": "https://www.ivi.ru/embeds/video/?subsite=1&autostart=0&videoid=315548"
}