{
  "content_id": "112280",
  "title": "Небесные жены луговых мари",
  "release_date": "2012",
  "orig_country": "Россия",
  "lang": "Русский",
  "restrict": "18+",
  "kinopoisk_id": "653689",
  "kinopoisk_rating": "6.47",
  "imdb_rating": "6.8",
  "duration": "6108",
  "category": "Фильмы",
  "genres": "Драмы,Русские",
  "vr_identifier": "Небесные жены луговых мари",
  "iframe": "https://www.ivi.ru/embeds/video/?subsite=1&autostart=0&videoid=112280"
}