{
  "content_id": "105740",
  "title": "Географ глобус пропил",
  "release_date": "2013",
  "orig_country": "Россия",
  "lang": "Русский",
  "restrict": "16+",
  "kinopoisk_id": "653696",
  "kinopoisk_rating": "7.38",
  "imdb_rating": "7.4",
  "duration": "7183",
  "category": "Фильмы",
  "genres": "Артхаус,Драмы,Мелодрамы,Русские,Экранизации",
  "vr_identifier": "Географ глобус пропил",
  "iframe": "https://www.ivi.ru/embeds/video/?subsite=1&autostart=0&videoid=105740"
}