{
  "content_id": "61774",
  "title": "Однажды в Новый год",
  "release_date": "2011",
  "orig_country": "Россия",
  "lang": "Русский",
  "restrict": "12+",
  "kinopoisk_id": "653807",
  "duration": "5273",
  "category": "Фильмы",
  "genres": "Мелодрамы,Русские",
  "vr_identifier": "Однажды в новый год",
  "iframe": "https://www.ivi.ru/embeds/video/?subsite=1&autostart=0&videoid=61774"
}