{
  "content_id": "99477",
  "title": "Элитное общество",
  "orig_title": "The Bling Ring",
  "release_date": "2013",
  "orig_country": "США",
  "lang": "Английский",
  "restrict": "16+",
  "kinopoisk_id": "654875",
  "kinopoisk_rating": "5.65",
  "imdb_rating": "5.6",
  "duration": "5194",
  "category": "Фильмы",
  "genres": "Биография,Драмы,Зарубежные,Криминал",
  "vr_identifier": "Элитное общество",
  "iframe": "https://www.ivi.ru/embeds/video/?subsite=1&autostart=0&videoid=99477"
}