{
  "content_id": "84497",
  "title": "Волшебная серна",
  "release_date": "1980",
  "orig_country": "СССР",
  "lang": "Русский",
  "restrict": "0+",
  "kinopoisk_id": "655099",
  "duration": "994",
  "category": "Мультфильмы",
  "genres": "Для детей,Русские мультфильмы,Советские",
  "vr_identifier": "Волшебная серна",
  "iframe": "https://www.ivi.ru/embeds/video/?subsite=1&autostart=0&videoid=84497"
}