{
  "content_id": "127218",
  "title": "Безумные",
  "orig_title": "The Demented",
  "release_date": "2013",
  "orig_country": "США",
  "lang": "Английский",
  "restrict": "16+",
  "kinopoisk_id": "655421",
  "kinopoisk_rating": "4.08",
  "imdb_rating": "3.7",
  "duration": "5524",
  "category": "Фильмы",
  "genres": "Зарубежные,Ужасы,Фантастика",
  "vr_identifier": "Безумные",
  "iframe": "https://www.ivi.ru/embeds/video/?subsite=1&autostart=0&videoid=127218"
}