{
  "content_id": "85130",
  "title": "Проказники из Беверли Хиллз",
  "orig_title": "Beverly Hills Brats",
  "release_date": "1989",
  "orig_country": "США",
  "lang": "Английский",
  "restrict": "12+",
  "kinopoisk_id": "6562",
  "kinopoisk_rating": "0",
  "imdb_rating": "3.8",
  "duration": "4860",
  "category": "Фильмы",
  "genres": "Для всей семьи,Комедии",
  "vr_identifier": "Проказники из Беверли Хиллз",
  "iframe": "https://www.ivi.ru/embeds/video/?subsite=1&autostart=0&videoid=85130"
}