{
  "content_id": "205319",
  "title": "Ремнант: Всё ещё вижу тебя",
  "orig_title": "I Still See You",
  "release_date": "2018",
  "orig_country": "США",
  "lang": "Английский",
  "restrict": "16+",
  "kinopoisk_id": "660774",
  "kinopoisk_rating": "5.96",
  "imdb_rating": "5.7",
  "duration": "5873",
  "category": "Фильмы",
  "genres": "Зарубежные,Триллеры,Фантастика",
  "vr_identifier": "Ремнант: Всё ещё вижу тебя",
  "iframe": "https://www.ivi.ru/embeds/video/?subsite=1&autostart=0&videoid=205319"
}