{
  "content_id": "96188",
  "title": "Подземелье мертвых",
  "orig_title": "Dead Mine",
  "release_date": "2012",
  "orig_country": "Индонезия",
  "lang": "Английский",
  "restrict": "16+",
  "kinopoisk_id": "660716",
  "kinopoisk_rating": "4.64",
  "imdb_rating": "4.6",
  "duration": "5489",
  "category": "Фильмы",
  "genres": "Боевики,Зарубежные,Ужасы",
  "vr_identifier": "Подземелье мертвых",
  "iframe": "https://www.ivi.ru/embeds/video/?subsite=1&autostart=0&videoid=96188"
}