{
  "content_id": "119903",
  "title": "Приливы",
  "orig_title": "The Hot Flashes",
  "release_date": "2013",
  "orig_country": "США",
  "lang": "Английский",
  "restrict": "16+",
  "kinopoisk_id": "661915",
  "kinopoisk_rating": "5.26",
  "imdb_rating": "5",
  "duration": "5940",
  "category": "Фильмы",
  "genres": "Зарубежные,Комедии,Спорт",
  "vr_identifier": "Приливы",
  "iframe": "https://www.ivi.ru/embeds/video/?subsite=1&autostart=0&videoid=119903"
}