{
  "content_id": "151775",
  "title": "Любовь и лимоны",
  "orig_title": "Små citroner gula",
  "release_date": "2013",
  "orig_country": "Швеция",
  "restrict": "16+",
  "kinopoisk_id": "662801",
  "kinopoisk_rating": "6.35",
  "imdb_rating": "6",
  "duration": "5651",
  "category": "Фильмы",
  "genres": "Зарубежные,Комедии,Мелодрамы",
  "vr_identifier": "Любовь и лимоны",
  "iframe": "https://www.ivi.ru/embeds/video/?subsite=1&autostart=0&videoid=151775"
}