{
  "content_id": "118337",
  "title": "Брачный договор",
  "orig_title": "The Wedding Pact",
  "release_date": "2013",
  "orig_country": "США",
  "lang": "Английский",
  "restrict": "16+",
  "kinopoisk_id": "664359",
  "kinopoisk_rating": "4.1",
  "imdb_rating": "3.8",
  "duration": "5207",
  "category": "Фильмы",
  "genres": "Зарубежные,Комедии,Мелодрамы",
  "vr_identifier": "Брачный договор",
  "iframe": "https://www.ivi.ru/embeds/video/?subsite=1&autostart=0&videoid=118337"
}