{
  "content_id": "130845",
  "title": "Помощники Гефеста",
  "release_date": "1987",
  "orig_country": "СССР",
  "lang": "Русский",
  "restrict": "0+",
  "kinopoisk_id": "666716",
  "imdb_rating": "6.3",
  "duration": "593",
  "category": "Мультфильмы",
  "genres": "Для детей,Советские",
  "vr_identifier": "Помощники Гефеста",
  "iframe": "https://www.ivi.ru/embeds/video/?subsite=1&autostart=0&videoid=130845"
}