{
  "content_id": "99467",
  "title": "Человек, который смеется",
  "orig_title": "L'homme qui rit",
  "release_date": "2012",
  "orig_country": "Франция",
  "lang": "Французский",
  "restrict": "16+",
  "kinopoisk_id": "666902",
  "kinopoisk_rating": "6.12",
  "imdb_rating": "6.1",
  "duration": "5385",
  "category": "Фильмы",
  "genres": "Драмы,Зарубежные",
  "vr_identifier": "Человек, который смеется",
  "iframe": "https://www.ivi.ru/embeds/video/?subsite=1&autostart=0&videoid=99467"
}