{
  "content_id": "137306",
  "title": "Брат Дэян (на сербском языке с русскими субтитрами)",
  "release_date": "2015",
  "orig_country": "Сербия",
  "lang": "Сербский",
  "restrict": "16+",
  "kinopoisk_id": "667404",
  "kinopoisk_rating": "6.03",
  "imdb_rating": "6.6",
  "duration": "6819",
  "category": "Фильмы",
  "genres": "Драмы,Зарубежные",
  "vr_identifier": "Брат Дэян",
  "iframe": "https://www.ivi.ru/embeds/video/?subsite=1&autostart=0&videoid=137306"
}