{
  "content_id": "136425",
  "title": "Громче, чем бомбы",
  "orig_title": "Louder Than Bombs",
  "release_date": "2015",
  "orig_country": "Норвегия",
  "lang": "Английский",
  "restrict": "16+",
  "kinopoisk_id": "667651",
  "kinopoisk_rating": "6.55",
  "imdb_rating": "6.6",
  "duration": "6540",
  "category": "Фильмы",
  "genres": "Драмы",
  "vr_identifier": "Громче, чем бомбы",
  "iframe": "https://www.ivi.ru/embeds/video/?subsite=1&autostart=0&videoid=136425"
}