{
  "content_id": "98513",
  "title": "Я очень возбужден",
  "orig_title": "Los amantes pasajeros",
  "release_date": "2013",
  "orig_country": "Испания",
  "lang": "Испанский",
  "restrict": "16+",
  "kinopoisk_id": "667688",
  "kinopoisk_rating": "6.15",
  "imdb_rating": "5.6",
  "duration": "5400",
  "category": "Фильмы",
  "genres": "Комедии",
  "vr_identifier": "Я очень возбужден",
  "iframe": "https://www.ivi.ru/embeds/video/?subsite=1&autostart=0&videoid=98513"
}