{
  "content_id": "307293",
  "title": "Бандиты во времени",
  "orig_title": "Time Bandits",
  "release_date": "1981",
  "orig_country": "Великобритания",
  "lang": "Английский",
  "restrict": "12+",
  "kinopoisk_id": "6679",
  "kinopoisk_rating": "6.8",
  "imdb_rating": "7",
  "duration": "6683",
  "category": "Фильмы",
  "genres": "Для всей семьи,Зарубежные,Комедии,Приключения,Фантастика,Фэнтези",
  "vr_identifier": "Бандиты во времени",
  "iframe": "https://www.ivi.ru/embeds/video/?subsite=1&autostart=0&videoid=307293"
}