{
  "content_id": "99463",
  "title": "Под маской жиголо",
  "orig_title": "Fading Gigolo",
  "release_date": "2013",
  "orig_country": "США",
  "lang": "Английский",
  "restrict": "16+",
  "kinopoisk_id": "669115",
  "kinopoisk_rating": "6.55",
  "imdb_rating": "6.2",
  "duration": "5400",
  "category": "Фильмы",
  "genres": "Комедии",
  "vr_identifier": "Под маской жиголо",
  "iframe": "https://www.ivi.ru/embeds/video/?subsite=1&autostart=0&videoid=99463"
}