{
  "content_id": "98400",
  "title": "Билет на Vegas",
  "release_date": "2012",
  "orig_country": "Россия",
  "lang": "Русский",
  "restrict": "16+",
  "kinopoisk_id": "669351",
  "kinopoisk_rating": "3.97",
  "imdb_rating": "4.1",
  "duration": "5162",
  "category": "Фильмы",
  "genres": "Комедии,Приключения,Русские",
  "vr_identifier": "Билет на Vegas",
  "iframe": "https://www.ivi.ru/embeds/video/?subsite=1&autostart=0&videoid=98400"
}