{
  "content_id": "99805",
  "title": "Миллионер",
  "release_date": "2012",
  "orig_country": "Украина",
  "lang": "Русский",
  "restrict": "16+",
  "kinopoisk_id": "669465",
  "kinopoisk_rating": "6.52",
  "imdb_rating": "5.6",
  "duration": "6043",
  "category": "Фильмы",
  "genres": "Зарубежные,Мелодрамы",
  "vr_identifier": "Миллионер",
  "iframe": "https://www.ivi.ru/embeds/video/?subsite=1&autostart=0&videoid=99805"
}