{
  "content_id": "105636",
  "title": "Уличные танцы 3: Все звезды",
  "orig_title": "All Stars",
  "release_date": "2013",
  "orig_country": "Великобритания",
  "lang": "Английский",
  "restrict": "6+",
  "kinopoisk_id": "669750",
  "kinopoisk_rating": "5.44",
  "imdb_rating": "5.2",
  "duration": "5920",
  "category": "Фильмы",
  "genres": "Для всей семьи,Зарубежные,Комедии",
  "vr_identifier": "Уличные танцы 3: Все звезды",
  "iframe": "https://www.ivi.ru/embeds/video/?subsite=1&autostart=0&videoid=105636"
}