{
  "content_id": "103372",
  "title": "Виктория: История любви",
  "orig_title": "Victoria",
  "release_date": "2013",
  "orig_country": "Норвегия",
  "restrict": "16+",
  "kinopoisk_id": "669841",
  "kinopoisk_rating": "5.68",
  "imdb_rating": "5.7",
  "duration": "6117",
  "category": "Фильмы",
  "genres": "Драмы,Зарубежные,Мелодрамы",
  "vr_identifier": "Виктория: История любви",
  "iframe": "https://www.ivi.ru/embeds/video/?subsite=1&autostart=0&videoid=103372"
}