{
  "content_id": "94441",
  "title": "Присутствие великолепия",
  "orig_title": "Magnifica presenza",
  "release_date": "2012",
  "orig_country": "Италия",
  "lang": "Итальянский",
  "restrict": "16+",
  "kinopoisk_id": "669995",
  "kinopoisk_rating": "6.71",
  "imdb_rating": "6.7",
  "duration": "6093",
  "category": "Фильмы",
  "genres": "Артхаус,Драмы,Зарубежные,Комедии,Мелодрамы,Мистические",
  "vr_identifier": "Присутствие великолепия/",
  "iframe": "https://www.ivi.ru/embeds/video/?subsite=1&autostart=0&videoid=94441"
}