{
  "content_id": "409225",
  "title": "Разумное сомнение",
  "orig_title": "Reasonable Doubt",
  "release_date": "2014",
  "orig_country": "Канада",
  "lang": "Английский",
  "restrict": "16+",
  "kinopoisk_id": "673245",
  "duration": "5247",
  "category": "Фильмы",
  "genres": "Драмы,Зарубежные,Криминал,Триллеры",
  "vr_identifier": "Reasonable Doubt",
  "iframe": "https://www.ivi.ru/embeds/video/?subsite=1&autostart=0&videoid=409225"
}