{
  "content_id": "94603",
  "title": "О чем говорят французские мужчины",
  "orig_title": "Les Hommes à Lunettes",
  "release_date": "2012",
  "orig_country": "Франция",
  "lang": "Французский",
  "restrict": "16+",
  "kinopoisk_id": "673845",
  "kinopoisk_rating": "4.72",
  "imdb_rating": "4.9",
  "duration": "4581",
  "category": "Фильмы",
  "genres": "Зарубежные,Комедии",
  "vr_identifier": "О чем говорят французские мужчины",
  "iframe": "https://www.ivi.ru/embeds/video/?subsite=1&autostart=0&videoid=94603"
}