{
  "content_id": "103351",
  "title": "Враг",
  "orig_title": "Enemy",
  "release_date": "2013",
  "orig_country": "Канада",
  "lang": "Английский",
  "restrict": "16+",
  "kinopoisk_id": "673910",
  "kinopoisk_rating": "6.59",
  "imdb_rating": "6.9",
  "duration": "5280",
  "category": "Фильмы",
  "genres": "Детективы,Зарубежные,Триллеры",
  "vr_identifier": "Враг",
  "iframe": "https://www.ivi.ru/embeds/video/?subsite=1&autostart=0&videoid=103351"
}