{
  "content_id": "413222",
  "title": "12 рождественских собак 2",
  "orig_title": "12 Dogs of Christmas: Great Puppy Rescue",
  "release_date": "2012",
  "orig_country": "США",
  "lang": "Английский",
  "restrict": "12+",
  "kinopoisk_id": "675644",
  "duration": "5858",
  "category": "Фильмы",
  "genres": "Для всей семьи,Для детей,Зарубежные,Комедии,Фильмы",
  "vr_identifier": "12 рождественских собак 2",
  "iframe": "https://www.ivi.ru/embeds/video/?subsite=1&autostart=0&videoid=413222"
}