{
  "content_id": "118311",
  "title": "Босиком по городу",
  "orig_title": "Barefoot",
  "release_date": "2014",
  "orig_country": "США",
  "lang": "Английский",
  "restrict": "12+",
  "kinopoisk_id": "677622",
  "kinopoisk_rating": "6.3",
  "imdb_rating": "6.6",
  "duration": "5355",
  "category": "Фильмы",
  "genres": "Драмы,Зарубежные,Комедии,Мелодрамы",
  "vr_identifier": "Босиком по городу",
  "iframe": "https://www.ivi.ru/embeds/video/?subsite=1&autostart=0&videoid=118311"
}