{
  "content_id": "114397",
  "title": "Инструкции не прилагаются",
  "orig_title": "No se aceptan devoluciones",
  "release_date": "2013",
  "orig_country": "Мексика",
  "lang": "Испанский",
  "restrict": "12+",
  "kinopoisk_id": "678898",
  "kinopoisk_rating": "7.56",
  "imdb_rating": "7.6",
  "duration": "7296",
  "category": "Фильмы",
  "genres": "Драмы,Зарубежные,Комедии",
  "vr_identifier": "Инструкции не прилагаются",
  "iframe": "https://www.ivi.ru/embeds/video/?subsite=1&autostart=0&videoid=114397"
}