{
  "content_id": "121590",
  "title": "Предчувствие любви",
  "orig_title": "Presentimientos",
  "release_date": "2013",
  "orig_country": "Испания",
  "lang": "Испанский",
  "restrict": "16+",
  "kinopoisk_id": "678923",
  "kinopoisk_rating": "5.87",
  "imdb_rating": "6.1",
  "duration": "6031",
  "category": "Фильмы",
  "genres": "Драмы,Зарубежные",
  "vr_identifier": "Предчувствие любви",
  "iframe": "https://www.ivi.ru/embeds/video/?subsite=1&autostart=0&videoid=121590"
}