{
  "content_id": "220602",
  "title": "Я тебя не люблю",
  "release_date": "2012",
  "orig_country": "Россия",
  "lang": "Русский",
  "restrict": "16+",
  "kinopoisk_id": "679434",
  "kinopoisk_rating": "6.26",
  "imdb_rating": "6.5",
  "duration": "5093",
  "category": "Фильмы",
  "genres": "Артхаус,Драмы,Русские",
  "vr_identifier": "Я тебя не люблю",
  "iframe": "https://www.ivi.ru/embeds/video/?subsite=1&autostart=0&videoid=220602"
}