{
  "content_id": "99415",
  "title": "Обезьяна",
  "orig_title": "Ape",
  "release_date": "2012",
  "orig_country": "США",
  "lang": "Английский",
  "restrict": "16+",
  "kinopoisk_id": "680932",
  "kinopoisk_rating": "5.44",
  "imdb_rating": "6.1",
  "duration": "4942",
  "category": "Фильмы",
  "genres": "Драмы,Зарубежные,Комедии,Фэнтези",
  "vr_identifier": "Обезьяна",
  "iframe": "https://www.ivi.ru/embeds/video/?subsite=1&autostart=0&videoid=99415"
}