{
  "content_id": "107328",
  "title": "Дом Хемингуэй",
  "orig_title": "Dom Hemingway",
  "release_date": "2013",
  "orig_country": "Великобритания",
  "lang": "Английский",
  "restrict": "16+",
  "kinopoisk_id": "682085",
  "kinopoisk_rating": "6.15",
  "imdb_rating": "6.2",
  "duration": "5380",
  "category": "Фильмы",
  "genres": "Драмы,Зарубежные,Комедии,Криминал",
  "vr_identifier": "Дом Хемингуэй",
  "iframe": "https://www.ivi.ru/embeds/video/?subsite=1&autostart=0&videoid=107328"
}