{
  "content_id": "121116",
  "title": "Джейн берет ружье",
  "orig_title": "Jane Got a Gun",
  "release_date": "2016",
  "orig_country": "США",
  "lang": "Английский",
  "restrict": "18+",
  "kinopoisk_id": "682360",
  "kinopoisk_rating": "5.69",
  "imdb_rating": "5.9",
  "duration": "5643",
  "category": "Фильмы",
  "genres": "Боевики,Вестерн,Драмы,Зарубежные",
  "vr_identifier": "Джейн берет ружье",
  "iframe": "https://www.ivi.ru/embeds/video/?subsite=1&autostart=0&videoid=121116"
}