{
  "content_id": "187088",
  "title": "Пять звезд",
  "release_date": "2012",
  "orig_country": "Россия",
  "lang": "Русский",
  "restrict": "16+",
  "kinopoisk_id": "682975",
  "kinopoisk_rating": "7.04",
  "imdb_rating": "7.2",
  "duration": "6012",
  "category": "Фильмы",
  "genres": "Драмы,Комедии,Русские",
  "vr_identifier": "Пять звезд",
  "iframe": "https://www.ivi.ru/embeds/video/?subsite=1&autostart=0&videoid=187088"
}