{
  "content_id": "150651",
  "title": "Примета на счастье",
  "release_date": "2012",
  "orig_country": "Россия",
  "lang": "Русский",
  "restrict": "16+",
  "kinopoisk_id": "683494",
  "duration": "6148",
  "category": "Фильмы",
  "genres": "Мелодрамы,Русские",
  "vr_identifier": "Примета на счастье",
  "iframe": "https://www.ivi.ru/embeds/video/?subsite=1&autostart=0&videoid=150651"
}