{
  "content_id": "121610",
  "title": "Собачий рай",
  "release_date": "2013",
  "orig_country": "Россия",
  "lang": "Русский",
  "restrict": "12+",
  "kinopoisk_id": "684235",
  "kinopoisk_rating": "4.55",
  "duration": "6684",
  "category": "Фильмы",
  "genres": "Для всей семьи,Русские,Фильмы",
  "vr_identifier": "Собачий рай",
  "iframe": "https://www.ivi.ru/embeds/video/?subsite=1&autostart=0&videoid=121610"
}