{
  "content_id": "172222",
  "title": "Иуда",
  "release_date": "2013",
  "orig_country": "Россия",
  "lang": "Русский",
  "restrict": "16+",
  "kinopoisk_id": "686791",
  "kinopoisk_rating": "6.45",
  "imdb_rating": "6.4",
  "duration": "6726",
  "category": "Фильмы",
  "genres": "Драмы,Русские",
  "vr_identifier": "Иуда",
  "iframe": "https://www.ivi.ru/embeds/video/?subsite=1&autostart=0&videoid=172222"
}