{
  "content_id": "136517",
  "title": "Чужая страна",
  "orig_title": "Strangerland",
  "release_date": "2015",
  "orig_country": "Австралия",
  "restrict": "18+",
  "kinopoisk_id": "687081",
  "kinopoisk_rating": "5.41",
  "imdb_rating": "5.2",
  "duration": "6419",
  "category": "Фильмы",
  "genres": "Детективы,Драмы,Зарубежные,Триллеры",
  "vr_identifier": "чужая страна",
  "iframe": "https://www.ivi.ru/embeds/video/?subsite=1&autostart=0&videoid=136517"
}