{
  "content_id": "158762",
  "title": "Приключения красного самолетика",
  "orig_title": "As Aventuras do Avião Vermelho",
  "release_date": "2014",
  "orig_country": "Бразилия",
  "restrict": "6+",
  "kinopoisk_id": "687866",
  "imdb_rating": "7.4",
  "duration": "4281",
  "category": "Мультфильмы",
  "genres": "Для всей семьи,Для детей,Западные мультфильмы,Комедия,Приключения",
  "vr_identifier": "Приключения красного самолетика",
  "iframe": "https://www.ivi.ru/embeds/video/?subsite=1&autostart=0&videoid=158762"
}