{
  "content_id": "123772",
  "title": "Убийство у моря",
  "orig_title": "Tyskungen",
  "compilation_id": "10875",
  "compilation": "Убийство у моря",
  "release_date": "2013",
  "orig_country": "Швеция",
  "lang": "Шведский",
  "restrict": "16+",
  "kinopoisk_id": "688569",
  "kinopoisk_rating": "6.19",
  "imdb_rating": "6",
  "season": "1",
  "episode": "1",
  "duration": "6046",
  "category": "Сериалы",
  "genres": "Зарубежные,Криминал,Триллеры",
  "vr_identifier": "Убийство у моря",
  "iframe": "https://www.ivi.ru/embeds/video/?subsite=1&autostart=0&videoid=123772"
}