{
  "content_id": "221155",
  "title": "Оборотень в погонах",
  "release_date": "2013",
  "orig_country": "Украина",
  "lang": "Русский",
  "restrict": "16+",
  "kinopoisk_id": "691277",
  "kinopoisk_rating": "5.43",
  "duration": "4745",
  "category": "Фильмы",
  "genres": "Боевики,Детективы,Криминал",
  "vr_identifier": "Оборотень в погонах",
  "iframe": "https://www.ivi.ru/embeds/video/?subsite=1&autostart=0&videoid=221155"
}