{
  "content_id": "61107",
  "title": "Сердцеедки",
  "orig_title": "Heartbreakers",
  "release_date": "2001",
  "orig_country": "США",
  "lang": "Английский",
  "restrict": "16+",
  "kinopoisk_id": "692",
  "kinopoisk_rating": "7.24",
  "imdb_rating": "6.2",
  "duration": "7402",
  "category": "Фильмы",
  "genres": "Зарубежные,Комедии,Криминал,Мелодрамы",
  "vr_identifier": "Heartbreakers",
  "iframe": "https://www.ivi.ru/embeds/video/?subsite=1&autostart=0&videoid=61107"
}