{
  "content_id": "115634",
  "title": "Страх сцены",
  "orig_title": "Stage Fright",
  "release_date": "2013",
  "orig_country": "Канада",
  "restrict": "16+",
  "kinopoisk_id": "692792",
  "kinopoisk_rating": "4.51",
  "imdb_rating": "5.2",
  "duration": "5070",
  "category": "Фильмы",
  "genres": "Зарубежные,Мюзикл,Триллеры,Ужасы",
  "vr_identifier": "Страх сцены",
  "iframe": "https://www.ivi.ru/embeds/video/?subsite=1&autostart=0&videoid=115634"
}