{
  "content_id": "186832",
  "title": "Сок шелковицы",
  "orig_title": "Mulberry Stains",
  "release_date": "2012",
  "orig_country": "США",
  "lang": "Английский",
  "restrict": "12+",
  "kinopoisk_id": "693585",
  "kinopoisk_rating": "0",
  "imdb_rating": "6.3",
  "duration": "5928",
  "category": "Фильмы",
  "genres": "Драмы,Зарубежные",
  "vr_identifier": "Сок шелковицы",
  "iframe": "https://www.ivi.ru/embeds/video/?subsite=1&autostart=0&videoid=186832"
}