{
  "content_id": "102276",
  "title": "Герой",
  "orig_title": "Tai Chi Hero",
  "release_date": "2012",
  "orig_country": "Китай",
  "lang": "Китайский",
  "restrict": "16+",
  "kinopoisk_id": "693962",
  "kinopoisk_rating": "6.08",
  "imdb_rating": "6.2",
  "duration": "5903",
  "category": "Фильмы",
  "genres": "Боевики,Зарубежные,Приключения",
  "vr_identifier": "Герой",
  "iframe": "https://www.ivi.ru/embeds/video/?subsite=1&autostart=0&videoid=102276"
}