{
  "content_id": "315456",
  "title": "Любовь в квадрате",
  "orig_title": "Des gens qui s'embrassent",
  "release_date": "2013",
  "orig_country": "Франция",
  "lang": "Французский",
  "restrict": "16+",
  "kinopoisk_id": "693956",
  "kinopoisk_rating": "6.07",
  "imdb_rating": "5.5",
  "duration": "5777",
  "category": "Фильмы",
  "genres": "Драмы,Зарубежные,Комедии",
  "vr_identifier": "Любовь в квадрате",
  "iframe": "https://www.ivi.ru/embeds/video/?subsite=1&autostart=0&videoid=315456"
}