{
  "content_id": "98550",
  "title": "Да здравствует Франция!",
  "orig_title": "Vive la France",
  "release_date": "2013",
  "orig_country": "Франция",
  "lang": "Французский",
  "restrict": "16+",
  "kinopoisk_id": "694014",
  "kinopoisk_rating": "6.43",
  "imdb_rating": "5.8",
  "duration": "5840",
  "category": "Фильмы",
  "genres": "Зарубежные,Комедии,Приключения",
  "vr_identifier": "Да здравствует Франция!",
  "iframe": "https://www.ivi.ru/embeds/video/?subsite=1&autostart=0&videoid=98550"
}