{
  "content_id": "107222",
  "title": "Пьета",
  "orig_title": "Pieta",
  "release_date": "2012",
  "orig_country": "Южная Корея",
  "lang": "Корейский",
  "restrict": "18+",
  "kinopoisk_id": "694238",
  "kinopoisk_rating": "7.35",
  "imdb_rating": "7.2",
  "duration": "5975",
  "category": "Фильмы",
  "genres": "Драмы,Зарубежные,Криминал",
  "vr_identifier": "Пьета",
  "iframe": "https://www.ivi.ru/embeds/video/?subsite=1&autostart=0&videoid=107222"
}