{
  "content_id": "114389",
  "title": "Жажда",
  "release_date": "2013",
  "orig_country": "Россия",
  "lang": "Русский",
  "restrict": "18+",
  "kinopoisk_id": "696047",
  "kinopoisk_rating": "7.26",
  "imdb_rating": "6.9",
  "duration": "5827",
  "category": "Фильмы",
  "genres": "Драмы,Русские",
  "vr_identifier": "Жажда",
  "iframe": "https://www.ivi.ru/embeds/video/?subsite=1&autostart=0&videoid=114389"
}