{
  "content_id": "118342",
  "title": "Отмороженные",
  "orig_title": "Freezer",
  "release_date": "2013",
  "orig_country": "США",
  "lang": "Английский",
  "restrict": "16+",
  "kinopoisk_id": "696309",
  "kinopoisk_rating": "4.57",
  "imdb_rating": "5.2",
  "duration": "4922",
  "category": "Фильмы",
  "genres": "Зарубежные,Триллеры",
  "vr_identifier": "Отмороженные (Freezer)",
  "iframe": "https://www.ivi.ru/embeds/video/?subsite=1&autostart=0&videoid=118342"
}