{
  "content_id": "178147",
  "title": "Галвестон",
  "orig_title": "Galveston",
  "release_date": "2018",
  "orig_country": "США",
  "lang": "Английский",
  "restrict": "18+",
  "kinopoisk_id": "696499",
  "kinopoisk_rating": "6.2",
  "imdb_rating": "6.2",
  "duration": "5385",
  "category": "Фильмы",
  "genres": "Боевики,Драмы,Зарубежные,Криминал,Триллеры",
  "vr_identifier": "Галвестон",
  "iframe": "https://www.ivi.ru/embeds/video/?subsite=1&autostart=0&videoid=178147"
}