{
  "content_id": "65142",
  "title": "Улица, где мы живем",
  "orig_title": "The Street Where We Live",
  "release_date": "2017",
  "orig_country": "США",
  "lang": "Английский",
  "restrict": "16+",
  "kinopoisk_id": "696532",
  "duration": "6038",
  "category": "Фильмы",
  "genres": "Драмы,Зарубежные",
  "vr_identifier": "Улица, где мы живем",
  "iframe": "https://www.ivi.ru/embeds/video/?subsite=1&autostart=0&videoid=65142"
}