{
  "content_id": "192110",
  "title": "Обменяйтесь кольцами",
  "release_date": "2012",
  "orig_country": "Россия",
  "lang": "Русский",
  "restrict": "12+",
  "kinopoisk_id": "702054",
  "kinopoisk_rating": "6.05",
  "duration": "5702",
  "category": "Фильмы",
  "genres": "Мелодрамы,Русские",
  "vr_identifier": "Обменяйтесь кольцами",
  "iframe": "https://www.ivi.ru/embeds/video/?subsite=1&autostart=0&videoid=192110"
}