{
  "content_id": "102417",
  "title": "Наемный убийца",
  "orig_title": "Bounty Killer",
  "release_date": "2013",
  "orig_country": "США",
  "lang": "Английский",
  "restrict": "16+",
  "kinopoisk_id": "702901",
  "kinopoisk_rating": "5.24",
  "imdb_rating": "5.5",
  "duration": "5327",
  "category": "Фильмы",
  "genres": "Боевики,Зарубежные,Триллеры,Фантастика",
  "vr_identifier": "Наемный убийца",
  "iframe": "https://www.ivi.ru/embeds/video/?subsite=1&autostart=0&videoid=102417"
}