{
  "content_id": "94843",
  "title": "Пропавший оркестр",
  "release_date": "2011",
  "orig_country": "Россия",
  "lang": "Русский",
  "restrict": "0+",
  "kinopoisk_id": "706710",
  "duration": "779",
  "category": "Мультфильмы",
  "genres": "Для детей,Русские,Русские мультфильмы",
  "vr_identifier": "Пропавший оркестр",
  "iframe": "https://www.ivi.ru/embeds/video/?subsite=1&autostart=0&videoid=94843"
}