{
  "content_id": "150867",
  "title": "Формула счастья",
  "release_date": "2012",
  "orig_country": "Россия",
  "lang": "Русский",
  "restrict": "12+",
  "kinopoisk_id": "709430",
  "duration": "5590",
  "category": "Фильмы",
  "genres": "Мелодрамы,Русские",
  "vr_identifier": "Формула счастья",
  "iframe": "https://www.ivi.ru/embeds/video/?subsite=1&autostart=0&videoid=150867"
}