{
  "content_id": "133076",
  "title": "Шальные деньги: Роскошная жизнь",
  "orig_title": "Snabba cash - Livet deluxe",
  "release_date": "2013",
  "orig_country": "Швеция",
  "restrict": "16+",
  "kinopoisk_id": "711915",
  "kinopoisk_rating": "6.19",
  "imdb_rating": "6.2",
  "duration": "7623",
  "category": "Фильмы",
  "genres": "Детективы,Драмы,Зарубежные,Триллеры",
  "vr_identifier": "Шальные деньги: Роскошная жизнь",
  "iframe": "https://www.ivi.ru/embeds/video/?subsite=1&autostart=0&videoid=133076"
}