{
  "content_id": "102428",
  "title": "А вот и она",
  "orig_title": "And So It Goes",
  "release_date": "2014",
  "orig_country": "США",
  "lang": "Английский",
  "restrict": "12+",
  "kinopoisk_id": "713260",
  "kinopoisk_rating": "6.41",
  "imdb_rating": "5.8",
  "duration": "5378",
  "category": "Фильмы",
  "genres": "Драмы,Зарубежные,Комедии,Мелодрамы",
  "vr_identifier": "А вот и она",
  "iframe": "https://www.ivi.ru/embeds/video/?subsite=1&autostart=0&videoid=102428"
}