{
  "content_id": "99753",
  "title": "Мечты из пластилина",
  "release_date": "2012",
  "orig_country": "Россия",
  "lang": "Русский",
  "restrict": "12+",
  "kinopoisk_id": "713329",
  "kinopoisk_rating": "5.99",
  "duration": "5224",
  "category": "Фильмы",
  "genres": "Мелодрамы,Русские",
  "vr_identifier": "Мечты из пластилина",
  "iframe": "https://www.ivi.ru/embeds/video/?subsite=1&autostart=0&videoid=99753"
}