{
  "content_id": "125714",
  "title": "​С 5 до 7. Время любовников",
  "orig_title": "5 to 7",
  "release_date": "2014",
  "orig_country": "США",
  "lang": "Английский",
  "restrict": "16+",
  "kinopoisk_id": "714846",
  "kinopoisk_rating": "6.84",
  "imdb_rating": "7.1",
  "duration": "5700",
  "category": "Фильмы",
  "genres": "Драмы,Зарубежные,Комедии,Мелодрамы",
  "vr_identifier": "​С 5 до 7. Время любовников",
  "iframe": "https://www.ivi.ru/embeds/video/?subsite=1&autostart=0&videoid=125714"
}