{
  "content_id": "103387",
  "title": "Робинзон Крузо: Предводитель пиратов",
  "orig_title": "Selkirk, el verdadero Robinson Crusoe",
  "release_date": "2011",
  "orig_country": "Уругвай",
  "lang": "Испанский",
  "restrict": "0+",
  "kinopoisk_id": "715553",
  "kinopoisk_rating": "5.53",
  "imdb_rating": "6",
  "duration": "4564",
  "category": "Мультфильмы",
  "genres": "Для взрослых,Для детей,Западные мультфильмы,Полнометражные",
  "vr_identifier": "Робинзон Крузо - предводитель пиратов",
  "iframe": "https://www.ivi.ru/embeds/video/?subsite=1&autostart=0&videoid=103387"
}