{
  "content_id": "171768",
  "title": "Сусана, ты меня убиваешь",
  "orig_title": "Me estás matando Susana",
  "release_date": "2016",
  "orig_country": "Мексика",
  "lang": "Испанский",
  "restrict": "18+",
  "kinopoisk_id": "718648",
  "kinopoisk_rating": "6.2",
  "imdb_rating": "6.5",
  "duration": "6138",
  "category": "Фильмы",
  "genres": "Драмы,Зарубежные,Комедии,Мелодрамы",
  "vr_identifier": "Сусана, ты меня убиваешь",
  "iframe": "https://www.ivi.ru/embeds/video/?subsite=1&autostart=0&videoid=171768"
}