{
  "content_id": "192109",
  "title": "Не уходи",
  "release_date": "2012",
  "orig_country": "Россия",
  "lang": "Русский",
  "restrict": "12+",
  "kinopoisk_id": "719865",
  "kinopoisk_rating": "6.37",
  "duration": "10841",
  "category": "Фильмы",
  "genres": "Мелодрамы,Русские",
  "vr_identifier": "Не уходи",
  "iframe": "https://www.ivi.ru/embeds/video/?subsite=1&autostart=0&videoid=192109"
}