{
  "content_id": "103327",
  "title": "Возмутитель спокойствия",
  "orig_title": "Borgman",
  "release_date": "2013",
  "orig_country": "Нидерланды",
  "restrict": "16+",
  "kinopoisk_id": "721093",
  "kinopoisk_rating": "6.57",
  "imdb_rating": "6.8",
  "duration": "6520",
  "category": "Фильмы",
  "genres": "Детективы,Драмы,Зарубежные,Триллеры,Ужасы",
  "vr_identifier": "Возмутитель спокойствия",
  "iframe": "https://www.ivi.ru/embeds/video/?subsite=1&autostart=0&videoid=103327"
}