{
  "content_id": "121522",
  "title": "Приключения маленьких итальянцев",
  "release_date": "2014",
  "orig_country": "Россия",
  "lang": "Русский",
  "restrict": "6+",
  "kinopoisk_id": "721686",
  "kinopoisk_rating": "4.46",
  "imdb_rating": "6.3",
  "duration": "5660",
  "category": "Фильмы",
  "genres": "Для всей семьи,Комедии,Русские",
  "vr_identifier": "Приключения маленьких итальянцев",
  "iframe": "https://www.ivi.ru/embeds/video/?subsite=1&autostart=0&videoid=121522"
}