{
  "content_id": "103337",
  "title": "Холостячки в Вегасе",
  "orig_title": "Best Night Ever",
  "release_date": "2013",
  "orig_country": "США",
  "lang": "Английский",
  "restrict": "16+",
  "kinopoisk_id": "722923",
  "kinopoisk_rating": "4.27",
  "imdb_rating": "4",
  "duration": "4642",
  "category": "Фильмы",
  "genres": "Зарубежные,Комедии",
  "vr_identifier": "Холостячки в Вегасе",
  "iframe": "https://www.ivi.ru/embeds/video/?subsite=1&autostart=0&videoid=103337"
}