{
  "content_id": "158939",
  "title": "Любой ценой",
  "orig_title": "Hell or High Water",
  "release_date": "2016",
  "orig_country": "США",
  "lang": "Английский",
  "restrict": "16+",
  "kinopoisk_id": "726794",
  "kinopoisk_rating": "7.2",
  "imdb_rating": "7.6",
  "duration": "6120",
  "category": "Фильмы",
  "genres": "Вестерн,Драмы,Зарубежные,Криминал,Триллеры",
  "vr_identifier": "Любой ценой",
  "iframe": "https://www.ivi.ru/embeds/video/?subsite=1&autostart=0&videoid=158939"
}