{
  "content_id": "116741",
  "title": "Питер. Лето. Любовь",
  "release_date": "2014",
  "orig_country": "Россия",
  "lang": "Русский",
  "restrict": "12+",
  "kinopoisk_id": "728414",
  "kinopoisk_rating": "5.35",
  "imdb_rating": "5.7",
  "duration": "4985",
  "category": "Фильмы",
  "genres": "Драмы,Мелодрамы,Русские",
  "vr_identifier": "Питер. Лето. Любовь",
  "iframe": "https://www.ivi.ru/embeds/video/?subsite=1&autostart=0&videoid=116741"
}