{
  "content_id": "73014",
  "title": "Свадебный переполох",
  "orig_title": "The Wedding Planner",
  "release_date": "2001",
  "orig_country": "США",
  "lang": "Английский",
  "restrict": "12+",
  "kinopoisk_id": "7285",
  "kinopoisk_rating": "6.84",
  "imdb_rating": "5.3",
  "duration": "6180",
  "category": "Фильмы",
  "genres": "Зарубежные,Комедии,Мелодрамы",
  "vr_identifier": "Свадебный переполох",
  "iframe": "https://www.ivi.ru/embeds/video/?subsite=1&autostart=0&videoid=73014"
}