{
  "content_id": "412928",
  "title": "Добро пожаловать в Китай",
  "orig_title": "Welcome to China",
  "release_date": "2013",
  "orig_country": "Франция",
  "lang": "Французский",
  "restrict": "12+",
  "kinopoisk_id": "731516",
  "duration": "1329",
  "category": "Фильмы",
  "genres": "Короткометражки",
  "vr_identifier": "Добро пожаловать в Китай",
  "iframe": "https://www.ivi.ru/embeds/video/?subsite=1&autostart=0&videoid=412928"
}