{
  "content_id": "221799",
  "title": "Удивительная жизнь учителей",
  "release_date": "2013",
  "orig_country": "Франция",
  "lang": "Французский",
  "restrict": "18+",
  "kinopoisk_id": "732766",
  "kinopoisk_rating": "0",
  "imdb_rating": "3.7",
  "duration": "6081",
  "category": "Фильмы",
  "genres": "Зарубежные,Комедии",
  "vr_identifier": "Удивительная жизнь учителей",
  "iframe": "https://www.ivi.ru/embeds/video/?subsite=1&autostart=0&videoid=221799"
}