{
  "content_id": "45190",
  "title": "Тузик",
  "release_date": "2001",
  "orig_country": "Россия",
  "lang": "Русский",
  "restrict": "0+",
  "kinopoisk_id": "734985",
  "duration": "420",
  "category": "Мультфильмы",
  "genres": "Для детей,Приключения,Про животных,Русские,Русские мультфильмы",
  "vr_identifier": "Тузик",
  "iframe": "https://www.ivi.ru/embeds/video/?subsite=1&autostart=0&videoid=45190"
}