{
  "content_id": "150866",
  "title": "Невеста моего жениха",
  "release_date": "2013",
  "orig_country": "Россия",
  "lang": "Русский",
  "restrict": "16+",
  "kinopoisk_id": "741192",
  "duration": "5606",
  "category": "Фильмы",
  "genres": "Мелодрамы,Русские",
  "vr_identifier": "Невеста моего жениха",
  "iframe": "https://www.ivi.ru/embeds/video/?subsite=1&autostart=0&videoid=150866"
}