{
  "content_id": "114376",
  "title": "Ив Сен-Лоран",
  "orig_title": "Yves Saint Laurent",
  "release_date": "2014",
  "orig_country": "Франция",
  "lang": "Французский",
  "restrict": "16+",
  "kinopoisk_id": "741205",
  "kinopoisk_rating": "6.15",
  "imdb_rating": "6.2",
  "duration": "6061",
  "category": "Фильмы",
  "genres": "Биография,Драмы,Зарубежные,Мелодрамы",
  "vr_identifier": "Ив Сен-Лоран",
  "iframe": "https://www.ivi.ru/embeds/video/?subsite=1&autostart=0&videoid=114376"
}