{
  "content_id": "137731",
  "title": "Арвентур",
  "release_date": "2015",
  "orig_country": "Россия",
  "lang": "Русский",
  "restrict": "12+",
  "kinopoisk_id": "743035",
  "kinopoisk_rating": "5.76",
  "imdb_rating": "6.9",
  "duration": "4828",
  "category": "Мультфильмы",
  "genres": "Для взрослых,Русские,Фэнтези",
  "vr_identifier": "Арвентур",
  "iframe": "https://www.ivi.ru/embeds/video/?subsite=1&autostart=0&videoid=137731"
}