{
  "content_id": "103289",
  "title": "Остров везения",
  "release_date": "2013",
  "orig_country": "Россия",
  "lang": "Русский",
  "restrict": "12+",
  "kinopoisk_id": "745274",
  "kinopoisk_rating": "3.65",
  "imdb_rating": "3",
  "duration": "4942",
  "category": "Фильмы",
  "genres": "Комедии,Приключения,Русские",
  "vr_identifier": "Остров везения",
  "iframe": "https://www.ivi.ru/embeds/video/?subsite=1&autostart=0&videoid=103289"
}