{
  "content_id": "138307",
  "title": "Каминный гость",
  "release_date": "2013",
  "orig_country": "Украина",
  "lang": "Русский",
  "restrict": "12+",
  "kinopoisk_id": "745479",
  "duration": "5156",
  "category": "Фильмы",
  "genres": "Мелодрамы",
  "vr_identifier": "Каминный гость",
  "iframe": "https://www.ivi.ru/embeds/video/?subsite=1&autostart=0&videoid=138307"
}