{
  "content_id": "173039",
  "title": "Отродье",
  "orig_title": "Kakara",
  "release_date": "2013",
  "orig_country": "Финляндия",
  "lang": "Финский",
  "restrict": "16+",
  "kinopoisk_id": "746753",
  "duration": "762",
  "category": "Фильмы",
  "genres": "Короткометражки",
  "vr_identifier": "Kakara/ Отродье",
  "iframe": "https://www.ivi.ru/embeds/video/?subsite=1&autostart=0&videoid=173039"
}