{
  "content_id": "133774",
  "title": "Газели",
  "orig_title": "Les gazelles",
  "release_date": "2014",
  "orig_country": "Франция",
  "lang": "Французский",
  "restrict": "16+",
  "kinopoisk_id": "749514",
  "kinopoisk_rating": "5.53",
  "imdb_rating": "5.5",
  "duration": "5724",
  "category": "Фильмы",
  "genres": "Зарубежные,Комедии",
  "vr_identifier": "Газели",
  "iframe": "https://www.ivi.ru/embeds/video/?subsite=1&autostart=0&videoid=133774"
}