{
  "content_id": "115626",
  "title": "Я закопаю тебя",
  "orig_title": "Je te survivrai",
  "release_date": "2014",
  "orig_country": "Бельгия",
  "restrict": "12+",
  "kinopoisk_id": "749676",
  "kinopoisk_rating": "5.83",
  "imdb_rating": "6.2",
  "duration": "5289",
  "category": "Фильмы",
  "genres": "Драмы,Зарубежные,Комедии",
  "vr_identifier": "Я закопаю тебя",
  "iframe": "https://www.ivi.ru/embeds/video/?subsite=1&autostart=0&videoid=115626"
}