{
  "content_id": "121497",
  "title": "3 сердца",
  "orig_title": "3 coeurs",
  "release_date": "2014",
  "orig_country": "Франция",
  "lang": "Французский",
  "restrict": "16+",
  "kinopoisk_id": "756075",
  "kinopoisk_rating": "5.81",
  "imdb_rating": "5.9",
  "duration": "6241",
  "category": "Фильмы",
  "genres": "Драмы,Зарубежные,Мелодрамы",
  "vr_identifier": "3 сердца",
  "iframe": "https://www.ivi.ru/embeds/video/?subsite=1&autostart=0&videoid=121497"
}