{
  "content_id": "224250",
  "title": "Любовь из пробирки",
  "release_date": "2013",
  "orig_country": "Россия",
  "lang": "Русский",
  "restrict": "12+",
  "kinopoisk_id": "758003",
  "duration": "6017",
  "category": "Фильмы",
  "genres": "Мелодрамы,Русские",
  "vr_identifier": "Любовь из пробирки",
  "iframe": "https://www.ivi.ru/embeds/video/?subsite=1&autostart=0&videoid=224250"
}