{
  "content_id": "182213",
  "title": "Жизнь после жизни",
  "release_date": "2013",
  "orig_country": "Украина",
  "lang": "Русский",
  "restrict": "12+",
  "kinopoisk_id": "760483",
  "kinopoisk_rating": "5.98",
  "imdb_rating": "5.9",
  "duration": "5406",
  "category": "Фильмы",
  "genres": "Зарубежные,Криминал,Мелодрамы",
  "vr_identifier": "Жизнь после жизни",
  "iframe": "https://www.ivi.ru/embeds/video/?subsite=1&autostart=0&videoid=182213"
}