{
  "content_id": "105696",
  "title": "Эли",
  "orig_title": "Heli",
  "release_date": "2013",
  "orig_country": "Мексика",
  "lang": "Испанский",
  "restrict": "16+",
  "kinopoisk_id": "760574",
  "kinopoisk_rating": "6",
  "imdb_rating": "6.8",
  "duration": "6283",
  "category": "Фильмы",
  "genres": "Драмы,Зарубежные,Криминал,Мелодрамы",
  "vr_identifier": "Эли",
  "iframe": "https://www.ivi.ru/embeds/video/?subsite=1&autostart=0&videoid=105696"
}