{
  "content_id": "409115",
  "title": "Некая справедливость",
  "orig_title": "A Certain Justice",
  "release_date": "2014",
  "orig_country": "США",
  "lang": "Английский",
  "restrict": "18+",
  "kinopoisk_id": "762803",
  "duration": "5572",
  "category": "Фильмы",
  "genres": "Боевики,Драмы,Зарубежные",
  "vr_identifier": "A Certain Justice",
  "iframe": "https://www.ivi.ru/embeds/video/?subsite=1&autostart=0&videoid=409115"
}