{
  "content_id": "126426",
  "title": "Неупокоенная",
  "orig_title": "Dark Summer",
  "release_date": "2014",
  "orig_country": "США",
  "lang": "Английский",
  "restrict": "18+",
  "kinopoisk_id": "763254",
  "kinopoisk_rating": "3.85",
  "imdb_rating": "4.3",
  "duration": "4689",
  "category": "Фильмы",
  "genres": "Зарубежные,Триллеры,Ужасы",
  "vr_identifier": "Неупокоенная",
  "iframe": "https://www.ivi.ru/embeds/video/?subsite=1&autostart=0&videoid=126426"
}