{
  "content_id": "151608",
  "title": "Кровь моей крови",
  "orig_title": "Sangue del mio sangue",
  "release_date": "2015",
  "orig_country": "Италия",
  "restrict": "16+",
  "kinopoisk_id": "764066",
  "kinopoisk_rating": "5.29",
  "imdb_rating": "6.2",
  "duration": "6141",
  "category": "Фильмы",
  "genres": "Драмы,Зарубежные,Исторические",
  "vr_identifier": "Кровь моей крови",
  "iframe": "https://www.ivi.ru/embeds/video/?subsite=1&autostart=0&videoid=151608"
}