{
  "content_id": "138174",
  "title": "Коммунальный детектив",
  "release_date": "2012",
  "orig_country": "Россия",
  "lang": "Русский",
  "restrict": "16+",
  "kinopoisk_id": "766192",
  "duration": "5335",
  "category": "Фильмы",
  "genres": "Детективы,Комедии,Русские",
  "vr_identifier": "Коммунальный детектив",
  "iframe": "https://www.ivi.ru/embeds/video/?subsite=1&autostart=0&videoid=138174"
}