{
  "content_id": "165427",
  "title": "Альдабра. Путешествие к таинственному острову",
  "orig_title": "Aldabra: Once Upon an Island",
  "release_date": "2015",
  "orig_country": "Чехия",
  "restrict": "6+",
  "kinopoisk_id": "766533",
  "kinopoisk_rating": "6.47",
  "imdb_rating": "7.9",
  "duration": "4196",
  "category": "Фильмы",
  "genres": "Для всей семьи,Документальные,Зарубежные,Приключения,Фильмы",
  "vr_identifier": "Альдабра. Путешествие к таинственному острову",
  "iframe": "https://www.ivi.ru/embeds/video/?subsite=1&autostart=0&videoid=165427"
}