{
  "content_id": "221450",
  "title": "Студия Нижний",
  "release_date": "2017",
  "orig_country": "Россия",
  "lang": "Русский",
  "restrict": "16+",
  "kinopoisk_id": "767272",
  "kinopoisk_rating": "5.9",
  "duration": "7027",
  "category": "Фильмы",
  "genres": "Мелодрамы,Русские",
  "vr_identifier": "Студия Нижний",
  "iframe": "https://www.ivi.ru/embeds/video/?subsite=1&autostart=0&videoid=221450"
}