{
  "content_id": "133512",
  "title": "Видения",
  "orig_title": "Visions",
  "release_date": "2015",
  "orig_country": "США",
  "lang": "Английский",
  "restrict": "18+",
  "kinopoisk_id": "770693",
  "kinopoisk_rating": "5.53",
  "imdb_rating": "5.3",
  "duration": "4738",
  "category": "Фильмы",
  "genres": "Детективы,Зарубежные,Ужасы",
  "vr_identifier": "Видения",
  "iframe": "https://www.ivi.ru/embeds/video/?subsite=1&autostart=0&videoid=133512"
}