{
  "content_id": "143147",
  "title": "Каждому свое",
  "orig_title": "Everybody Wants Some!!",
  "release_date": "2016",
  "orig_country": "США",
  "lang": "Английский",
  "restrict": "16+",
  "kinopoisk_id": "770683",
  "kinopoisk_rating": "6.43",
  "imdb_rating": "7",
  "duration": "6710",
  "category": "Фильмы",
  "genres": "Зарубежные,Комедии",
  "vr_identifier": "Каждому свое",
  "iframe": "https://www.ivi.ru/embeds/video/?subsite=1&autostart=0&videoid=143147"
}