{
  "content_id": "411940",
  "title": "Роковой маршрут",
  "orig_title": "Backcountry",
  "release_date": "2014",
  "orig_country": "Канада",
  "lang": "Английский",
  "restrict": "18+",
  "kinopoisk_id": "771083",
  "kinopoisk_rating": "5.86",
  "imdb_rating": "6",
  "duration": "5244",
  "category": "Фильмы",
  "genres": "Драмы,Зарубежные,Приключения,Триллеры,Ужасы",
  "vr_identifier": "РОКОВОЙ МАРШРУТ (ГЛУШЬ)",
  "iframe": "https://www.ivi.ru/embeds/video/?subsite=1&autostart=0&videoid=411940"
}