{
  "content_id": "143468",
  "title": "Голограмма для короля",
  "orig_title": "A Hologram for the King",
  "release_date": "2016",
  "orig_country": "Великобритания",
  "lang": "Английский",
  "restrict": "18+",
  "kinopoisk_id": "771067",
  "kinopoisk_rating": "6.37",
  "imdb_rating": "6.1",
  "duration": "5630",
  "category": "Фильмы",
  "genres": "Драмы,Зарубежные,Комедии",
  "vr_identifier": "Голограмма для короля",
  "iframe": "https://www.ivi.ru/embeds/video/?subsite=1&autostart=0&videoid=143468"
}