{
  "content_id": "100903",
  "title": "Другой мир 2: Эволюция",
  "orig_title": "Underworld: Evolution",
  "release_date": "2005",
  "orig_country": "США",
  "lang": "Английский",
  "restrict": "18+",
  "kinopoisk_id": "77441",
  "kinopoisk_rating": "7.01",
  "imdb_rating": "6.7",
  "duration": "6360",
  "category": "Фильмы",
  "genres": "Боевики,Зарубежные,Приключения,Триллеры,Фантастика,Фэнтези",
  "vr_identifier": "Underworld: Evolution",
  "iframe": "https://www.ivi.ru/embeds/video/?subsite=1&autostart=0&videoid=100903"
}