{
  "content_id": "53382",
  "title": "Тема",
  "release_date": "1979",
  "orig_country": "СССР",
  "lang": "Русский",
  "restrict": "0+",
  "kinopoisk_id": "7755",
  "kinopoisk_rating": "7.42",
  "imdb_rating": "7.3",
  "duration": "5625",
  "category": "Фильмы",
  "genres": "Драмы,Мелодрамы,Советское кино",
  "vr_identifier": "Тема",
  "iframe": "https://www.ivi.ru/embeds/video/?subsite=1&autostart=0&videoid=53382"
}