{
  "content_id": "127022",
  "title": "Факап, или Хуже не бывает (Не мой день)",
  "orig_title": "Nicht mein Tag",
  "release_date": "2014",
  "orig_country": "Германия",
  "restrict": "16+",
  "kinopoisk_id": "777807",
  "kinopoisk_rating": "6.59",
  "imdb_rating": "6.6",
  "duration": "6615",
  "category": "Фильмы",
  "genres": "Боевики,Зарубежные,Комедии,Криминал,Приключения",
  "vr_identifier": "Факап, или Хуже не бывает (Не мой день)",
  "iframe": "https://www.ivi.ru/embeds/video/?subsite=1&autostart=0&videoid=127022"
}