{
  "content_id": "127025",
  "title": "Опасное погружение",
  "orig_title": "Pressure",
  "release_date": "2014",
  "orig_country": "Великобритания",
  "lang": "Английский",
  "restrict": "16+",
  "kinopoisk_id": "779160",
  "kinopoisk_rating": "5.94",
  "imdb_rating": "5.7",
  "duration": "5255",
  "category": "Фильмы",
  "genres": "Драмы,Зарубежные,Триллеры",
  "vr_identifier": "Опасное погружение",
  "iframe": "https://www.ivi.ru/embeds/video/?subsite=1&autostart=0&videoid=127025"
}