{
  "content_id": "214966",
  "title": "Невероятные приключения кота",
  "orig_title": "Oggy et les cafards",
  "release_date": "2013",
  "orig_country": "Франция",
  "lang": "Французский",
  "restrict": "0+",
  "kinopoisk_id": "779289",
  "kinopoisk_rating": "6.19",
  "imdb_rating": "6.2",
  "duration": "5103",
  "category": "Мультфильмы",
  "genres": "Детектив,Для всей семьи,Для детей,Западные мультфильмы,Зарубежные,Комедия,Приключения,Про животных,Фантастика",
  "vr_identifier": "Невероятные приключения кота",
  "iframe": "https://www.ivi.ru/embeds/video/?subsite=1&autostart=0&videoid=214966"
}