{
  "content_id": "149278",
  "title": "Подражатель",
  "orig_title": "The Wannabe",
  "release_date": "2013",
  "orig_country": "США",
  "lang": "Английский",
  "restrict": "16+",
  "kinopoisk_id": "779663",
  "kinopoisk_rating": "4.44",
  "imdb_rating": "5.1",
  "duration": "5400",
  "category": "Фильмы",
  "genres": "Детективы,Драмы,Зарубежные,Криминал,Триллеры",
  "vr_identifier": "Подражатель",
  "iframe": "https://www.ivi.ru/embeds/video/?subsite=1&autostart=0&videoid=149278"
}