{
  "content_id": "133683",
  "title": "14+",
  "release_date": "2015",
  "orig_country": "Россия",
  "lang": "Русский",
  "restrict": "16+",
  "kinopoisk_id": "781432",
  "kinopoisk_rating": "6.62",
  "imdb_rating": "7.1",
  "duration": "6387",
  "category": "Фильмы",
  "genres": "Мелодрамы,Русские",
  "vr_identifier": "14+",
  "iframe": "https://www.ivi.ru/embeds/video/?subsite=1&autostart=0&videoid=133683"
}