{
  "content_id": "133405",
  "title": "Москва – Лопушки",
  "release_date": "2014",
  "orig_country": "Россия",
  "lang": "Русский",
  "restrict": "12+",
  "kinopoisk_id": "783248",
  "kinopoisk_rating": "5.95",
  "imdb_rating": "4.1",
  "duration": "5321",
  "category": "Фильмы",
  "genres": "Комедии,Мелодрамы,Русские",
  "vr_identifier": "Москва-Лопушки",
  "iframe": "https://www.ivi.ru/embeds/video/?subsite=1&autostart=0&videoid=133405"
}