{
  "content_id": "52221",
  "title": "Пианистка",
  "orig_title": "La Pianiste",
  "release_date": "2001",
  "orig_country": "Австрия",
  "lang": "Французский",
  "restrict": "18+",
  "kinopoisk_id": "784",
  "kinopoisk_rating": "7.2",
  "imdb_rating": "7.5",
  "duration": "7833",
  "category": "Фильмы",
  "genres": "Драмы,Зарубежные",
  "vr_identifier": "Пианистка",
  "iframe": "https://www.ivi.ru/embeds/video/?subsite=1&autostart=0&videoid=52221"
}