{
  "content_id": "172439",
  "title": "Жили-были мы",
  "release_date": "2016",
  "orig_country": "Россия",
  "lang": "Русский",
  "restrict": "0+",
  "kinopoisk_id": "784774",
  "duration": "5834",
  "category": "Фильмы",
  "genres": "Для детей,Русские,Фильмы",
  "vr_identifier": "Жили-были мы",
  "iframe": "https://www.ivi.ru/embeds/video/?subsite=1&autostart=0&videoid=172439"
}