{
  "content_id": "127012",
  "title": "Курортный туман",
  "release_date": "2012",
  "orig_country": "Россия",
  "lang": "Русский",
  "restrict": "18+",
  "kinopoisk_id": "784819",
  "kinopoisk_rating": "6.35",
  "duration": "5541",
  "category": "Фильмы",
  "genres": "Детективы,Русские,Триллеры",
  "vr_identifier": "Курортный туман",
  "iframe": "https://www.ivi.ru/embeds/video/?subsite=1&autostart=0&videoid=127012"
}