{
  "content_id": "131258",
  "title": "Иллюзия обмана 2",
  "orig_title": "Now You See Me 2",
  "release_date": "2016",
  "orig_country": "США",
  "lang": "Английский",
  "restrict": "12+",
  "kinopoisk_id": "786958",
  "kinopoisk_rating": "6.59",
  "imdb_rating": "6.5",
  "duration": "7742",
  "category": "Фильмы",
  "genres": "Боевики,Детективы,Зарубежные,Комедии,Криминал,Приключения,Триллеры",
  "vr_identifier": "CP0151",
  "iframe": "https://www.ivi.ru/embeds/video/?subsite=1&autostart=0&videoid=131258"
}