{
  "content_id": "157317",
  "title": "Зодиак: Знаки апокалипсиса",
  "orig_title": "Zodiac: Signs of the Apocalypse",
  "release_date": "2014",
  "orig_country": "Канада",
  "restrict": "16+",
  "kinopoisk_id": "788764",
  "kinopoisk_rating": "3.77",
  "imdb_rating": "3.2",
  "duration": "5159",
  "category": "Фильмы",
  "genres": "Боевики,Зарубежные,Фантастика",
  "vr_identifier": "ZODIAC: SIGNS OF DESTRUCTION",
  "iframe": "https://www.ivi.ru/embeds/video/?subsite=1&autostart=0&videoid=157317"
}