{
  "content_id": "304385",
  "title": "Американский полтергейст",
  "orig_title": "American Poltergeist",
  "release_date": "2015",
  "orig_country": "США",
  "lang": "Английский",
  "restrict": "16+",
  "kinopoisk_id": "788947",
  "imdb_rating": "2.1",
  "duration": "4693",
  "category": "Фильмы",
  "genres": "Зарубежные,Триллеры,Ужасы",
  "vr_identifier": "Американский полтергейст",
  "iframe": "https://www.ivi.ru/embeds/video/?subsite=1&autostart=0&videoid=304385"
}