{
  "content_id": "170491",
  "title": "День мумии",
  "orig_title": "Day of the Mummy",
  "release_date": "2014",
  "orig_country": "США",
  "lang": "Английский",
  "restrict": "16+",
  "kinopoisk_id": "789262",
  "kinopoisk_rating": "2.62",
  "imdb_rating": "2.5",
  "duration": "4803",
  "category": "Фильмы",
  "genres": "Зарубежные,Ужасы",
  "vr_identifier": "День мумии",
  "iframe": "https://www.ivi.ru/embeds/video/?subsite=1&autostart=0&videoid=170491"
}