{
  "content_id": "160601",
  "title": "Потерянная Роуз",
  "orig_title": "Wandering Rose",
  "release_date": "2014",
  "orig_country": "Великобритания",
  "lang": "Английский",
  "restrict": "16+",
  "kinopoisk_id": "790550",
  "kinopoisk_rating": "2.62",
  "imdb_rating": "3.1",
  "duration": "4177",
  "category": "Фильмы",
  "genres": "Зарубежные,Триллеры,Ужасы",
  "vr_identifier": "Потерянная Роуз",
  "iframe": "https://www.ivi.ru/embeds/video/?subsite=1&autostart=0&videoid=160601"
}