{
  "content_id": "160596",
  "title": "Ниндзя: Шаг в неизвестность",
  "orig_title": "Ninja Immovable Heart",
  "release_date": "2014",
  "orig_country": "Австралия",
  "restrict": "16+",
  "kinopoisk_id": "792878",
  "kinopoisk_rating": "0",
  "imdb_rating": "1.9",
  "duration": "5820",
  "category": "Фильмы",
  "genres": "Боевики,Драмы,Зарубежные",
  "vr_identifier": "Ниндзя: шаг в неизвестность",
  "iframe": "https://www.ivi.ru/embeds/video/?subsite=1&autostart=0&videoid=160596"
}