{
  "content_id": "123961",
  "title": "Фото на документы",
  "release_date": "2013",
  "orig_country": "Украина",
  "lang": "Русский",
  "restrict": "12+",
  "kinopoisk_id": "794702",
  "kinopoisk_rating": "6.79",
  "duration": "5413",
  "category": "Фильмы",
  "genres": "Зарубежные,Мелодрамы",
  "vr_identifier": "Фото на документы",
  "iframe": "https://www.ivi.ru/embeds/video/?subsite=1&autostart=0&videoid=123961"
}