{
  "content_id": "128105",
  "title": "Принц",
  "orig_title": "The Prince",
  "release_date": "2014",
  "orig_country": "США",
  "lang": "Английский",
  "restrict": "16+",
  "kinopoisk_id": "796063",
  "kinopoisk_rating": "4.25",
  "imdb_rating": "4.6",
  "duration": "5406",
  "category": "Фильмы",
  "genres": "Боевики,Драмы,Зарубежные,Криминал,Триллеры",
  "vr_identifier": "Принц",
  "iframe": "https://www.ivi.ru/embeds/video/?subsite=1&autostart=0&videoid=128105"
}