{
  "content_id": "219529",
  "title": "Жюль Верн. Путешествие длиною в жизнь",
  "release_date": "2013",
  "orig_country": "Украина",
  "lang": "Русский",
  "restrict": "12+",
  "kinopoisk_id": "796383",
  "duration": "3069",
  "category": "Фильмы",
  "genres": "Биография,Для всей семьи,Документальные,Приключения,Хочу всё знать",
  "vr_identifier": "Жюль Верн. Путешествие длиною в жизнь",
  "iframe": "https://www.ivi.ru/embeds/video/?subsite=1&autostart=0&videoid=219529"
}