{
  "content_id": "57281",
  "title": "Крысиные бега",
  "orig_title": "Rat Race",
  "release_date": "2001",
  "orig_country": "США",
  "lang": "Английский",
  "restrict": "6+",
  "kinopoisk_id": "797",
  "kinopoisk_rating": "7.16",
  "imdb_rating": "6.4",
  "duration": "6449",
  "category": "Фильмы",
  "genres": "Зарубежные,Комедии,Приключения",
  "vr_identifier": "Крысиные бега",
  "iframe": "https://www.ivi.ru/embeds/video/?subsite=1&autostart=0&videoid=57281"
}