{
  "content_id": "180170",
  "title": "Хакер",
  "orig_title": "Hacker",
  "release_date": "2016",
  "orig_country": "США",
  "lang": "Английский",
  "restrict": "16+",
  "kinopoisk_id": "797601",
  "kinopoisk_rating": "5.92",
  "imdb_rating": "6.2",
  "duration": "6451",
  "category": "Фильмы",
  "genres": "Драмы,Зарубежные,Криминал,Триллеры",
  "vr_identifier": "Хакер",
  "iframe": "https://www.ivi.ru/embeds/video/?subsite=1&autostart=0&videoid=180170"
}