{
  "content_id": "414381",
  "title": "Родная кровиночка",
  "release_date": "2013",
  "orig_country": "Россия",
  "lang": "Русский",
  "restrict": "12+",
  "kinopoisk_id": "797897",
  "duration": "5135",
  "category": "Фильмы",
  "genres": "Мелодрамы,Русские",
  "vr_identifier": "Родная кровиночка",
  "iframe": "https://www.ivi.ru/embeds/video/?subsite=1&autostart=0&videoid=414381"
}