{
  "content_id": "170727",
  "title": "Это не свидание",
  "orig_title": "It's Not a Date",
  "release_date": "2014",
  "orig_country": "США",
  "lang": "Английский",
  "restrict": "16+",
  "kinopoisk_id": "798134",
  "kinopoisk_rating": "4.18",
  "imdb_rating": "5",
  "duration": "5580",
  "category": "Фильмы",
  "genres": "Драмы,Зарубежные,Комедии,Мелодрамы",
  "vr_identifier": "Это не свидание",
  "iframe": "https://www.ivi.ru/embeds/video/?subsite=1&autostart=0&videoid=170727"
}