{
  "content_id": "53104",
  "title": "Всадник по имени смерть",
  "release_date": "2004",
  "orig_country": "Россия",
  "lang": "Русский",
  "restrict": "16+",
  "kinopoisk_id": "79928",
  "kinopoisk_rating": "6.38",
  "imdb_rating": "6.3",
  "duration": "6115",
  "category": "Фильмы",
  "genres": "Драмы,Русские",
  "vr_identifier": "Всадник по имени смерть",
  "iframe": "https://www.ivi.ru/embeds/video/?subsite=1&autostart=0&videoid=53104"
}