{
  "content_id": "121560",
  "title": "Смешанные чувства",
  "release_date": "2014",
  "orig_country": "Россия",
  "lang": "Русский",
  "restrict": "16+",
  "kinopoisk_id": "800882",
  "kinopoisk_rating": "4.92",
  "imdb_rating": "3.6",
  "duration": "5103",
  "category": "Фильмы",
  "genres": "Комедии,Русские",
  "vr_identifier": "Смешанные чувства",
  "iframe": "https://www.ivi.ru/embeds/video/?subsite=1&autostart=0&videoid=121560"
}