{
  "content_id": "161323",
  "title": "Пеле: Рождение легенды",
  "orig_title": "Pelé: Birth of a Legend",
  "release_date": "2016",
  "orig_country": "США",
  "lang": "Английский",
  "restrict": "12+",
  "kinopoisk_id": "803422",
  "kinopoisk_rating": "7.53",
  "imdb_rating": "7.2",
  "duration": "6154",
  "category": "Фильмы",
  "genres": "Биография,Драмы,Зарубежные,Спорт",
  "vr_identifier": "Пеле: Рождение легенды",
  "iframe": "https://www.ivi.ru/embeds/video/?subsite=1&autostart=0&videoid=161323"
}