{
  "content_id": "126895",
  "title": "Падение Лондона",
  "orig_title": "London Has Fallen",
  "release_date": "2016",
  "orig_country": "США",
  "lang": "Английский",
  "restrict": "16+",
  "kinopoisk_id": "806977",
  "kinopoisk_rating": "5.74",
  "imdb_rating": "5.9",
  "duration": "5668",
  "category": "Фильмы",
  "genres": "Боевики,Драмы,Зарубежные,Триллеры",
  "vr_identifier": "Падение Лондона",
  "iframe": "https://www.ivi.ru/embeds/video/?subsite=1&autostart=0&videoid=126895"
}