{
  "content_id": "133777",
  "title": "Секрет счастья",
  "orig_title": "El misterio de la felicidad",
  "release_date": "2014",
  "orig_country": "Аргентина",
  "restrict": "12+",
  "kinopoisk_id": "807157",
  "kinopoisk_rating": "5.39",
  "imdb_rating": "6.1",
  "duration": "5936",
  "category": "Фильмы",
  "genres": "Артхаус,Драмы,Зарубежные,Комедии,Мелодрамы",
  "vr_identifier": "Секрет Счастья",
  "iframe": "https://www.ivi.ru/embeds/video/?subsite=1&autostart=0&videoid=133777"
}