{
  "content_id": "138664",
  "title": "Вечная сказка",
  "release_date": "2013",
  "orig_country": "Россия",
  "lang": "Русский",
  "restrict": "12+",
  "kinopoisk_id": "807486",
  "duration": "5543",
  "category": "Фильмы",
  "genres": "Мелодрамы,Русские",
  "vr_identifier": "Вечная сказка",
  "iframe": "https://www.ivi.ru/embeds/video/?subsite=1&autostart=0&videoid=138664"
}