{
  "content_id": "133517",
  "title": "Молодость",
  "orig_title": "Youth",
  "release_date": "2015",
  "orig_country": "Италия",
  "restrict": "18+",
  "kinopoisk_id": "807818",
  "kinopoisk_rating": "7.27",
  "imdb_rating": "7.3",
  "duration": "7123",
  "category": "Фильмы",
  "genres": "Драмы,Зарубежные,Комедии,Мелодрамы,Музыкальные",
  "vr_identifier": "Молодость",
  "iframe": "https://www.ivi.ru/embeds/video/?subsite=1&autostart=0&videoid=133517"
}