{
  "content_id": "128977",
  "title": "Кровавая леди Батори",
  "orig_title": "Lady of Csejte",
  "release_date": "2015",
  "orig_country": "США",
  "lang": "Английский",
  "restrict": "16+",
  "kinopoisk_id": "808179",
  "kinopoisk_rating": "4.15",
  "imdb_rating": "3.7",
  "duration": "6419",
  "category": "Фильмы",
  "genres": "Русские,Триллеры,Ужасы",
  "vr_identifier": "Кровавая леди Батори",
  "iframe": "https://www.ivi.ru/embeds/video/?subsite=1&autostart=0&videoid=128977"
}