{
  "content_id": "160603",
  "title": "Смейся, убийца, смейся",
  "orig_title": "Laugh Killer Laugh",
  "release_date": "2015",
  "orig_country": "США",
  "lang": "Английский",
  "restrict": "16+",
  "kinopoisk_id": "808415",
  "kinopoisk_rating": "5.18",
  "imdb_rating": "5",
  "duration": "5844",
  "category": "Фильмы",
  "genres": "Драмы,Зарубежные,Криминал",
  "vr_identifier": "Смейся, киллер, смейся",
  "iframe": "https://www.ivi.ru/embeds/video/?subsite=1&autostart=0&videoid=160603"
}