{
  "content_id": "59628",
  "title": "Убить короля",
  "orig_title": "To Kill a King",
  "release_date": "2003",
  "orig_country": "Германия",
  "lang": "Немецкий",
  "restrict": "12+",
  "kinopoisk_id": "8107",
  "kinopoisk_rating": "6.63",
  "imdb_rating": "6.2",
  "duration": "5894",
  "category": "Фильмы",
  "genres": "Биография,Военные,Драмы,Зарубежные,Исторические",
  "vr_identifier": "Убить короля",
  "iframe": "https://www.ivi.ru/embeds/video/?subsite=1&autostart=0&videoid=59628"
}