{
  "content_id": "160687",
  "title": "Идеальные каникулы",
  "orig_title": "A Perfect Vacation",
  "release_date": "2015",
  "orig_country": "США",
  "lang": "Английский",
  "restrict": "16+",
  "kinopoisk_id": "811649",
  "kinopoisk_rating": "3.07",
  "imdb_rating": "3.4",
  "duration": "5095",
  "category": "Фильмы",
  "genres": "Боевики,Детективы,Зарубежные,Триллеры,Ужасы",
  "vr_identifier": "Идеальные каникулы",
  "iframe": "https://www.ivi.ru/embeds/video/?subsite=1&autostart=0&videoid=160687"
}