{
  "content_id": "85038",
  "title": "Весенняя сказка",
  "release_date": "1971",
  "orig_country": "СССР",
  "lang": "Русский",
  "restrict": "12+",
  "kinopoisk_id": "81280",
  "kinopoisk_rating": "6.66",
  "imdb_rating": "7.9",
  "duration": "5580",
  "category": "Фильмы",
  "genres": "Для всей семьи,Советское кино,Фэнтези",
  "vr_identifier": "Весенняя сказка",
  "iframe": "https://www.ivi.ru/embeds/video/?subsite=1&autostart=0&videoid=85038"
}