{
  "content_id": "51801",
  "title": "Настройщик",
  "release_date": "2004",
  "orig_country": "Россия",
  "lang": "Русский",
  "restrict": "12+",
  "kinopoisk_id": "81319",
  "kinopoisk_rating": "7.63",
  "imdb_rating": "7.8",
  "duration": "9240",
  "category": "Фильмы",
  "genres": "Драмы,Комедии,Криминал,Русские",
  "vr_identifier": "Настройщик",
  "iframe": "https://www.ivi.ru/embeds/video/?subsite=1&autostart=0&videoid=51801"
}