{
  "content_id": "112484",
  "title": "Богиня: Как я полюбила",
  "release_date": "2004",
  "orig_country": "Россия",
  "lang": "Русский",
  "restrict": "16+",
  "kinopoisk_id": "81339",
  "kinopoisk_rating": "7.54",
  "imdb_rating": "7",
  "duration": "6138",
  "category": "Фильмы",
  "genres": "Артхаус,Драмы,Русские",
  "vr_identifier": "Богиня: Как я полюбила",
  "iframe": "https://www.ivi.ru/embeds/video/?subsite=1&autostart=0&videoid=112484"
}