{
  "content_id": "53133",
  "title": "Формула любви",
  "release_date": "1984",
  "orig_country": "СССР",
  "lang": "Русский",
  "restrict": "12+",
  "kinopoisk_id": "81432",
  "kinopoisk_rating": "8.17",
  "imdb_rating": "8.2",
  "duration": "5181",
  "category": "Фильмы",
  "genres": "Комедии,Мелодрамы,Советское кино",
  "vr_identifier": "Формула любви",
  "iframe": "https://www.ivi.ru/embeds/video/?subsite=1&autostart=0&videoid=53133"
}