{
  "content_id": "60550",
  "title": "Рэмбо 3",
  "orig_title": "Rambo III",
  "release_date": "1988",
  "orig_country": "США",
  "lang": "Английский",
  "restrict": "16+",
  "kinopoisk_id": "8168",
  "kinopoisk_rating": "5.7",
  "imdb_rating": "5.8",
  "duration": "5847",
  "category": "Фильмы",
  "genres": "Боевики,Зарубежные,Приключения,Триллеры",
  "vr_identifier": "Рэмбо 3",
  "iframe": "https://www.ivi.ru/embeds/video/?subsite=1&autostart=0&videoid=60550"
}