{
  "content_id": "124881",
  "title": "Самба",
  "orig_title": "Samba",
  "release_date": "2014",
  "orig_country": "Франция",
  "lang": "Французский",
  "restrict": "12+",
  "kinopoisk_id": "817580",
  "kinopoisk_rating": "6.55",
  "imdb_rating": "6.7",
  "duration": "6818",
  "category": "Фильмы",
  "genres": "Драмы,Зарубежные,Комедии,Мелодрамы",
  "vr_identifier": "Самба",
  "iframe": "https://www.ivi.ru/embeds/video/?subsite=1&autostart=0&videoid=124881"
}