{
  "content_id": "123448",
  "title": "Темнее ночи",
  "orig_title": "Más negro que la noche",
  "release_date": "2014",
  "orig_country": "Мексика",
  "lang": "Испанский",
  "restrict": "16+",
  "kinopoisk_id": "818870",
  "kinopoisk_rating": "4.19",
  "imdb_rating": "4.1",
  "duration": "6270",
  "category": "Фильмы",
  "genres": "Зарубежные,Ужасы",
  "vr_identifier": "Темнее ночи",
  "iframe": "https://www.ivi.ru/embeds/video/?subsite=1&autostart=0&videoid=123448"
}