{
  "content_id": "411882",
  "title": "Ярость 2",
  "orig_title": "Rampage: Capital Punishment",
  "release_date": "2014",
  "orig_country": "Канада",
  "lang": "Английский",
  "restrict": "18+",
  "kinopoisk_id": "819165",
  "kinopoisk_rating": "6.29",
  "imdb_rating": "6.2",
  "duration": "5342",
  "category": "Фильмы",
  "genres": "Боевики,Зарубежные,Криминал,Триллеры",
  "vr_identifier": "ЯРОСТЬ 2",
  "iframe": "https://www.ivi.ru/embeds/video/?subsite=1&autostart=0&videoid=411882"
}