{
  "content_id": "220662",
  "title": "Охота жить",
  "release_date": "2014",
  "orig_country": "Россия",
  "lang": "Русский",
  "restrict": "12+",
  "kinopoisk_id": "819332",
  "kinopoisk_rating": "6.3",
  "duration": "4844",
  "category": "Фильмы",
  "genres": "Комедии,Русские,Экранизации",
  "vr_identifier": "Охота жить",
  "iframe": "https://www.ivi.ru/embeds/video/?subsite=1&autostart=0&videoid=220662"
}