{
  "content_id": "120786",
  "title": "Олли и сокровища пиратов",
  "orig_title": "Dive Olly Dive and the Pirate Treasure",
  "release_date": "2014",
  "orig_country": "США",
  "lang": "Английский",
  "restrict": "0+",
  "kinopoisk_id": "822681",
  "kinopoisk_rating": "6.73",
  "imdb_rating": "5.2",
  "duration": "4600",
  "category": "Мультфильмы",
  "genres": "Для детей,Зарубежные,Полнометражные",
  "vr_identifier": "Олли и сокровища пиратов",
  "iframe": "https://www.ivi.ru/embeds/video/?subsite=1&autostart=0&videoid=120786"
}