{
  "content_id": "155800",
  "title": "Мой личный лось",
  "release_date": "2013",
  "orig_country": "Россия",
  "lang": "Русский",
  "restrict": "6+",
  "kinopoisk_id": "822604",
  "kinopoisk_rating": "7.17",
  "imdb_rating": "6.8",
  "duration": "990",
  "category": "Мультфильмы",
  "genres": "Для детей,Русские,Русские мультфильмы",
  "vr_identifier": "Мой личный лось",
  "iframe": "https://www.ivi.ru/embeds/video/?subsite=1&autostart=0&videoid=155800"
}