{
  "content_id": "192143",
  "title": "Я буду рядом",
  "release_date": "2013",
  "orig_country": "Россия",
  "lang": "Русский",
  "restrict": "12+",
  "kinopoisk_id": "823961",
  "kinopoisk_rating": "5.34",
  "duration": "5479",
  "category": "Фильмы",
  "genres": "Мелодрамы,Русские",
  "vr_identifier": "Я буду рядом",
  "iframe": "https://www.ivi.ru/embeds/video/?subsite=1&autostart=0&videoid=192143"
}