{
  "content_id": "158761",
  "title": "Еще один мальчишник",
  "orig_title": "The night before",
  "release_date": "2015",
  "orig_country": "США",
  "lang": "Английский",
  "restrict": "18+",
  "kinopoisk_id": "825985",
  "kinopoisk_rating": "3.92",
  "imdb_rating": "4",
  "duration": "5135",
  "category": "Фильмы",
  "genres": "Зарубежные,Комедии",
  "vr_identifier": "Еще один мальчишник",
  "iframe": "https://www.ivi.ru/embeds/video/?subsite=1&autostart=0&videoid=158761"
}