{
  "content_id": "138352",
  "title": "Шальное ранение",
  "orig_title": "Blunt Force Trauma",
  "release_date": "2015",
  "orig_country": "Колумбия",
  "restrict": "16+",
  "kinopoisk_id": "827938",
  "kinopoisk_rating": "4.92",
  "imdb_rating": "4.6",
  "duration": "5789",
  "category": "Фильмы",
  "genres": "Боевики,Зарубежные",
  "vr_identifier": "Шальное ранение",
  "iframe": "https://www.ivi.ru/embeds/video/?subsite=1&autostart=0&videoid=138352"
}