{
  "content_id": "211582",
  "title": "Длинный день",
  "release_date": "1961",
  "orig_country": "СССР",
  "lang": "Русский",
  "restrict": "12+",
  "kinopoisk_id": "83679",
  "kinopoisk_rating": "6.7",
  "imdb_rating": "6.2",
  "duration": "4982",
  "category": "Фильмы",
  "genres": "Драмы,Советское кино",
  "vr_identifier": "Длинный день",
  "iframe": "https://www.ivi.ru/embeds/video/?subsite=1&autostart=0&videoid=211582"
}