{
  "content_id": "125063",
  "title": "Альпинисты",
  "release_date": "2013",
  "orig_country": "Россия",
  "lang": "Русский",
  "restrict": "18+",
  "kinopoisk_id": "837871",
  "kinopoisk_rating": "4.9",
  "duration": "5220",
  "category": "Фильмы",
  "genres": "Приключения,Русские",
  "vr_identifier": "Альпинисты",
  "iframe": "https://www.ivi.ru/embeds/video/?subsite=1&autostart=0&videoid=125063"
}