{
  "content_id": "133690",
  "title": "Синдром Петрушки",
  "release_date": "2015",
  "orig_country": "Россия",
  "lang": "Русский",
  "restrict": "16+",
  "kinopoisk_id": "838726",
  "kinopoisk_rating": "6.35",
  "imdb_rating": "5.9",
  "duration": "5865",
  "category": "Фильмы",
  "genres": "Драмы,Русские",
  "vr_identifier": "Синдром Петрушки",
  "iframe": "https://www.ivi.ru/embeds/video/?subsite=1&autostart=0&videoid=133690"
}