{
  "content_id": "136124",
  "title": "Орлеан",
  "release_date": "2015",
  "orig_country": "Россия",
  "lang": "Русский",
  "restrict": "16+",
  "kinopoisk_id": "838963",
  "kinopoisk_rating": "6.09",
  "imdb_rating": "6",
  "duration": "6335",
  "category": "Фильмы",
  "genres": "Комедии,Русские,Триллеры",
  "vr_identifier": "Орлеан",
  "iframe": "https://www.ivi.ru/embeds/video/?subsite=1&autostart=0&videoid=136124"
}