{
  "content_id": "138232",
  "title": "Зеленая карета",
  "release_date": "2015",
  "orig_country": "Россия",
  "lang": "Русский",
  "restrict": "16+",
  "kinopoisk_id": "839018",
  "kinopoisk_rating": "6.57",
  "imdb_rating": "6.5",
  "duration": "5427",
  "category": "Фильмы",
  "genres": "Драмы,Русские",
  "vr_identifier": "Зеленая карета",
  "iframe": "https://www.ivi.ru/embeds/video/?subsite=1&autostart=0&videoid=138232"
}