{
  "content_id": "133799",
  "title": "Форс-мажор",
  "orig_title": "Turist",
  "release_date": "2014",
  "orig_country": "Швеция",
  "restrict": "12+",
  "kinopoisk_id": "839024",
  "kinopoisk_rating": "6.4",
  "imdb_rating": "7.3",
  "duration": "7181",
  "category": "Фильмы",
  "genres": "Драмы,Зарубежные,Комедии",
  "vr_identifier": "Форс Мажор",
  "iframe": "https://www.ivi.ru/embeds/video/?subsite=1&autostart=0&videoid=133799"
}