{
  "content_id": "174540",
  "title": "Страх темноты",
  "orig_title": "The Fear of Darkness",
  "release_date": "2016",
  "orig_country": "Австралия",
  "lang": "Английский",
  "restrict": "16+",
  "kinopoisk_id": "839449",
  "kinopoisk_rating": "4.08",
  "imdb_rating": "4",
  "duration": "5269",
  "category": "Фильмы",
  "genres": "Зарубежные,Триллеры,Ужасы",
  "vr_identifier": "Страх темноты",
  "iframe": "https://www.ivi.ru/embeds/video/?subsite=1&autostart=0&videoid=174540"
}