{
  "content_id": "146639",
  "title": "Землетрясение",
  "release_date": "2016",
  "orig_country": "Россия",
  "lang": "Русский",
  "restrict": "16+",
  "kinopoisk_id": "839961",
  "kinopoisk_rating": "6.79",
  "imdb_rating": "6.4",
  "duration": "6003",
  "category": "Фильмы",
  "genres": "Драмы,Русские,Фильмы-катастрофы",
  "vr_identifier": "Землетрясение",
  "iframe": "https://www.ivi.ru/embeds/video/?subsite=1&autostart=0&videoid=146639"
}