{
  "content_id": "112715",
  "title": "Сколько ты стоишь?",
  "orig_title": "Combien tu m'aimes?",
  "release_date": "2005",
  "orig_country": "Италия",
  "restrict": "18+",
  "kinopoisk_id": "84057",
  "kinopoisk_rating": "6.3",
  "imdb_rating": "5.7",
  "duration": "5382",
  "category": "Фильмы",
  "genres": "Драмы,Зарубежные,Комедии,Мелодрамы",
  "vr_identifier": "Сколько ты стоишь?",
  "iframe": "https://www.ivi.ru/embeds/video/?subsite=1&autostart=0&videoid=112715"
}