{
  "content_id": "133535",
  "title": "Чемпионы: Быстрее. Выше. Сильнее",
  "release_date": "2016",
  "orig_country": "Россия",
  "lang": "Русский",
  "restrict": "6+",
  "kinopoisk_id": "840818",
  "kinopoisk_rating": "6.96",
  "imdb_rating": "6.4",
  "duration": "6221",
  "category": "Фильмы",
  "genres": "Драмы,Русские,Спорт",
  "vr_identifier": "Чемпионы",
  "iframe": "https://www.ivi.ru/embeds/video/?subsite=1&autostart=0&videoid=133535"
}