{
  "content_id": "160987",
  "title": "Человек, который познал бесконечность",
  "orig_title": "The Man Who Knew Infinity",
  "release_date": "2015",
  "orig_country": "Великобритания",
  "lang": "Английский",
  "restrict": "12+",
  "kinopoisk_id": "841613",
  "kinopoisk_rating": "7.13",
  "imdb_rating": "7.2",
  "duration": "6480",
  "category": "Фильмы",
  "genres": "Биография,Драмы,Зарубежные",
  "vr_identifier": "Человек, который познал бесконечность",
  "iframe": "https://www.ivi.ru/embeds/video/?subsite=1&autostart=0&videoid=160987"
}