{
  "content_id": "137352",
  "title": "Йоганутые",
  "orig_title": "Yoga Hosers",
  "release_date": "2015",
  "orig_country": "США",
  "lang": "Английский",
  "restrict": "16+",
  "kinopoisk_id": "841736",
  "kinopoisk_rating": "4.36",
  "imdb_rating": "4.3",
  "duration": "5028",
  "category": "Фильмы",
  "genres": "Зарубежные,Комедии,Триллеры,Ужасы,Фэнтези",
  "vr_identifier": "Йоганутые",
  "iframe": "https://www.ivi.ru/embeds/video/?subsite=1&autostart=0&videoid=137352"
}