{
  "content_id": "173997",
  "title": "Я худею",
  "release_date": "2018",
  "orig_country": "Россия",
  "lang": "Русский",
  "restrict": "16+",
  "kinopoisk_id": "842037",
  "kinopoisk_rating": "6.9",
  "imdb_rating": "6.5",
  "duration": "5909",
  "category": "Фильмы",
  "genres": "Комедии,Русские",
  "vr_identifier": "я худею",
  "iframe": "https://www.ivi.ru/embeds/video/?subsite=1&autostart=0&videoid=173997"
}