{
  "content_id": "133684",
  "title": "No comment",
  "release_date": "2014",
  "orig_country": "Россия",
  "lang": "Русский",
  "restrict": "16+",
  "kinopoisk_id": "842252",
  "kinopoisk_rating": "6.06",
  "imdb_rating": "7.7",
  "duration": "6434",
  "category": "Фильмы",
  "genres": "Драмы,Русские",
  "iframe": "https://www.ivi.ru/embeds/video/?subsite=1&autostart=0&videoid=133684"
}