{
  "content_id": "127033",
  "title": "Оз: Нашествие летучих обезьян",
  "orig_title": "Guardianes de Oz",
  "release_date": "2015",
  "orig_country": "Мексика",
  "lang": "Испанский",
  "restrict": "6+",
  "kinopoisk_id": "842679",
  "kinopoisk_rating": "4.69",
  "imdb_rating": "4.6",
  "duration": "5400",
  "category": "Мультфильмы",
  "genres": "Для всей семьи,Для детей,Комедия,Полнометражные,Приключения,Фэнтези",
  "vr_identifier": "Оз: Нашествие летучих обезьян",
  "iframe": "https://www.ivi.ru/embeds/video/?subsite=1&autostart=0&videoid=127033"
}