{
  "content_id": "127034",
  "title": "Полное превращение",
  "release_date": "2015",
  "orig_country": "Россия",
  "lang": "Русский",
  "restrict": "16+",
  "kinopoisk_id": "843008",
  "kinopoisk_rating": "5.35",
  "imdb_rating": "5.7",
  "duration": "5025",
  "category": "Фильмы",
  "genres": "Комедии,Русские,Фантастика",
  "vr_identifier": "Полное превращение",
  "iframe": "https://www.ivi.ru/embeds/video/?subsite=1&autostart=0&videoid=127034"
}