{
  "content_id": "160604",
  "title": "Шар",
  "orig_title": "The Device",
  "release_date": "2014",
  "orig_country": "США",
  "lang": "Английский",
  "restrict": "16+",
  "kinopoisk_id": "843017",
  "kinopoisk_rating": "3.33",
  "imdb_rating": "3.2",
  "duration": "5435",
  "category": "Фильмы",
  "genres": "Зарубежные,Триллеры,Ужасы,Фантастика",
  "vr_identifier": "Шар",
  "iframe": "https://www.ivi.ru/embeds/video/?subsite=1&autostart=0&videoid=160604"
}