{
  "content_id": "155893",
  "title": "Как разговаривать с девушками на вечеринках",
  "orig_title": "How to Talk to Girls at Parties",
  "release_date": "2018",
  "orig_country": "Великобритания",
  "lang": "Английский",
  "restrict": "18+",
  "kinopoisk_id": "843121",
  "kinopoisk_rating": "6.41",
  "imdb_rating": "5.8",
  "duration": "6137",
  "category": "Фильмы",
  "genres": "Зарубежные,Комедии,Мелодрамы,Музыкальные,Фантастика",
  "vr_identifier": "Как разговаривать с девушками на вечеринках",
  "iframe": "https://www.ivi.ru/embeds/video/?subsite=1&autostart=0&videoid=155893"
}