{
  "content_id": "411330",
  "title": "Келинка Сабина",
  "release_date": "2014",
  "orig_country": "Казахстан",
  "lang": "Русский",
  "restrict": "12+",
  "kinopoisk_id": "843242",
  "kinopoisk_rating": "7.16",
  "imdb_rating": "7",
  "duration": "6231",
  "category": "Фильмы",
  "genres": "Зарубежные,Комедии",
  "vr_identifier": "Келинка Сабина",
  "iframe": "https://www.ivi.ru/embeds/video/?subsite=1&autostart=0&videoid=411330"
}