{
  "content_id": "400954",
  "title": "Красавец и чудовище",
  "release_date": "2014",
  "orig_country": "Россия",
  "lang": "Русский",
  "restrict": "12+",
  "kinopoisk_id": "843313",
  "duration": "6306",
  "category": "Фильмы",
  "genres": "Мелодрамы,Русские",
  "vr_identifier": "Красавец и чудовище",
  "iframe": "https://www.ivi.ru/embeds/video/?subsite=1&autostart=0&videoid=400954"
}