{
  "content_id": "165321",
  "title": "Репродукция",
  "orig_title": "Replicas",
  "release_date": "2018",
  "orig_country": "США",
  "lang": "Английский",
  "restrict": "16+",
  "kinopoisk_id": "843790",
  "kinopoisk_rating": "5.93",
  "imdb_rating": "5.4",
  "duration": "6172",
  "category": "Фильмы",
  "genres": "Зарубежные,Триллеры,Фантастика",
  "vr_identifier": "Репродукция",
  "iframe": "https://www.ivi.ru/embeds/video/?subsite=1&autostart=0&videoid=165321"
}