{
  "content_id": "226604",
  "title": "Муза для Мокроухова",
  "release_date": "2014",
  "orig_country": "Россия",
  "lang": "Русский",
  "restrict": "18+",
  "kinopoisk_id": "844110",
  "kinopoisk_rating": "5.93",
  "duration": "1034",
  "category": "Фильмы",
  "genres": "Комедии,Короткометражки,Русские",
  "vr_identifier": "Муза для Мокроухова",
  "iframe": "https://www.ivi.ru/embeds/video/?subsite=1&autostart=0&videoid=226604"
}