{
  "content_id": "191076",
  "title": "Паранормальное",
  "orig_title": "The Endless",
  "release_date": "2018",
  "orig_country": "США",
  "lang": "Английский",
  "restrict": "16+",
  "kinopoisk_id": "848004",
  "kinopoisk_rating": "6.13",
  "imdb_rating": "6.5",
  "duration": "6442",
  "category": "Фильмы",
  "genres": "Зарубежные,Триллеры,Ужасы,Фантастика,Фэнтези",
  "vr_identifier": "Паранормальное",
  "iframe": "https://www.ivi.ru/embeds/video/?subsite=1&autostart=0&videoid=191076"
}