{
  "content_id": "164266",
  "title": "Вторая жизнь Уве",
  "orig_title": "En man som heter Ove",
  "release_date": "2015",
  "orig_country": "Швеция",
  "restrict": "12+",
  "kinopoisk_id": "848894",
  "kinopoisk_rating": "7.87",
  "imdb_rating": "7.7",
  "duration": "6960",
  "category": "Фильмы",
  "genres": "Драмы,Зарубежные,Комедии,Мелодрамы",
  "vr_identifier": "Вторая жизнь Уве",
  "iframe": "https://www.ivi.ru/embeds/video/?subsite=1&autostart=0&videoid=164266"
}