{
  "content_id": "15021",
  "title": "Волшебная сила",
  "release_date": "1970",
  "orig_country": "СССР",
  "lang": "Русский",
  "restrict": "0+",
  "kinopoisk_id": "85188",
  "kinopoisk_rating": "8.05",
  "imdb_rating": "7.5",
  "duration": "3840",
  "category": "Фильмы",
  "genres": "Для всей семьи,Комедии,Музыкальные,Советское кино",
  "vr_identifier": "Волшебная сила",
  "iframe": "https://www.ivi.ru/embeds/video/?subsite=1&autostart=0&videoid=15021"
}