{
  "content_id": "151864",
  "title": "Пашки",
  "release_date": "2014",
  "orig_country": "Россия",
  "lang": "Русский",
  "restrict": "12+",
  "kinopoisk_id": "851968",
  "kinopoisk_rating": "0",
  "duration": "960",
  "category": "Фильмы",
  "genres": "Документальные",
  "vr_identifier": "Пашки",
  "iframe": "https://www.ivi.ru/embeds/video/?subsite=1&autostart=0&videoid=151864"
}