{
  "content_id": "59451",
  "title": "Основной инстинкт 2: Жажда риска",
  "orig_title": "Basic Instinct 2",
  "release_date": "2006",
  "orig_country": "Великобритания",
  "lang": "Английский",
  "restrict": "18+",
  "kinopoisk_id": "85198",
  "kinopoisk_rating": "5.26",
  "imdb_rating": "4.3",
  "duration": "6560",
  "category": "Фильмы",
  "genres": "Детективы,Драмы,Зарубежные,Триллеры",
  "vr_identifier": "Основной инстинкт 2: Жажда риска",
  "iframe": "https://www.ivi.ru/embeds/video/?subsite=1&autostart=0&videoid=59451"
}