{
  "content_id": "213841",
  "title": "Белль и Себастьян: Приключения продолжаются",
  "orig_title": "Belle et Sébastien, l'aventure continue",
  "release_date": "2015",
  "orig_country": "Франция",
  "restrict": "6+",
  "kinopoisk_id": "854458",
  "kinopoisk_rating": "7.17",
  "imdb_rating": "6.5",
  "duration": "5837",
  "category": "Фильмы",
  "genres": "Для всей семьи,Зарубежные,Приключения,Про животных",
  "vr_identifier": "Белль и Себастьян: Приключения продолжаются",
  "iframe": "https://www.ivi.ru/embeds/video/?subsite=1&autostart=0&videoid=213841"
}