{
  "content_id": "146581",
  "title": "45 лет",
  "orig_title": "45 Years",
  "release_date": "2015",
  "orig_country": "Великобритания",
  "lang": "Английский",
  "restrict": "16+",
  "kinopoisk_id": "855905",
  "kinopoisk_rating": "6.39",
  "imdb_rating": "7.1",
  "duration": "5486",
  "category": "Фильмы",
  "genres": "Драмы,Зарубежные,Мелодрамы",
  "vr_identifier": "45 лет",
  "iframe": "https://www.ivi.ru/embeds/video/?subsite=1&autostart=0&videoid=146581"
}