{
  "content_id": "145339",
  "title": "В плену обмана",
  "release_date": "2014",
  "orig_country": "Россия",
  "lang": "Русский",
  "restrict": "12+",
  "kinopoisk_id": "855911",
  "duration": "5399",
  "category": "Фильмы",
  "genres": "Мелодрамы,Русские",
  "vr_identifier": "В плену обмана",
  "iframe": "https://www.ivi.ru/embeds/video/?subsite=1&autostart=0&videoid=145339"
}