{
  "content_id": "155876",
  "title": "Антон Чехов",
  "orig_title": "Anton Tchékhov 1890",
  "release_date": "2014",
  "orig_country": "Франция",
  "lang": "Французский",
  "restrict": "16+",
  "kinopoisk_id": "857254",
  "kinopoisk_rating": "5.73",
  "imdb_rating": "6.2",
  "duration": "5767",
  "category": "Фильмы",
  "genres": "Биография,Драмы,Зарубежные,Исторические",
  "vr_identifier": "Антон Чехов",
  "iframe": "https://www.ivi.ru/embeds/video/?subsite=1&autostart=0&videoid=155876"
}