{
  "content_id": "151727",
  "title": "Образцовые семьи",
  "orig_title": "Belles familles",
  "release_date": "2015",
  "orig_country": "Франция",
  "lang": "Французский",
  "restrict": "16+",
  "kinopoisk_id": "863199",
  "kinopoisk_rating": "5.73",
  "imdb_rating": "5.9",
  "duration": "6560",
  "category": "Фильмы",
  "genres": "Драмы,Зарубежные,Комедии",
  "vr_identifier": "Образцовые семьи",
  "iframe": "https://www.ivi.ru/embeds/video/?subsite=1&autostart=0&videoid=151727"
}