{
  "content_id": "136361",
  "title": "Антиганг",
  "orig_title": "Antigang",
  "release_date": "2015",
  "orig_country": "Великобритания",
  "lang": "Английский",
  "restrict": "16+",
  "kinopoisk_id": "864288",
  "kinopoisk_rating": "5.51",
  "imdb_rating": "5.7",
  "duration": "5563",
  "category": "Фильмы",
  "genres": "Боевики,Драмы,Зарубежные",
  "vr_identifier": "Антиганг",
  "iframe": "https://www.ivi.ru/embeds/video/?subsite=1&autostart=0&videoid=136361"
}