{
  "content_id": "180558",
  "title": "Кто эти люди?",
  "orig_title": "Loro chi?",
  "release_date": "2015",
  "orig_country": "Италия",
  "lang": "Итальянский",
  "restrict": "16+",
  "kinopoisk_id": "864702",
  "kinopoisk_rating": "6.64",
  "imdb_rating": "6.5",
  "duration": "5733",
  "category": "Фильмы",
  "genres": "Зарубежные,Комедии",
  "vr_identifier": "Кто эти люди?",
  "iframe": "https://www.ivi.ru/embeds/video/?subsite=1&autostart=0&videoid=180558"
}