{
  "content_id": "154328",
  "title": "Сияющие стволы",
  "orig_title": "The Blazing Cannons",
  "release_date": "2017",
  "orig_country": "Великобритания",
  "lang": "Английский",
  "restrict": "18+",
  "kinopoisk_id": "873704",
  "duration": "4901",
  "category": "Фильмы",
  "genres": "Боевики,Зарубежные,Комедии,Триллеры",
  "vr_identifier": "Сияющие стволы",
  "iframe": "https://www.ivi.ru/embeds/video/?subsite=1&autostart=0&videoid=154328"
}