{
  "content_id": "213574",
  "title": "Из первых рук",
  "orig_title": "The Horse's Mouth",
  "release_date": "1958",
  "orig_country": "Великобритания",
  "lang": "Английский",
  "restrict": "12+",
  "kinopoisk_id": "8777",
  "kinopoisk_rating": "7.31",
  "imdb_rating": "7.6",
  "duration": "5721",
  "category": "Фильмы",
  "genres": "Зарубежные,Комедии",
  "vr_identifier": "Из первых рук",
  "iframe": "https://www.ivi.ru/embeds/video/?subsite=1&autostart=0&videoid=213574"
}