{
  "content_id": "59630",
  "title": "Лорд Вор",
  "orig_title": "The Thief Lord",
  "release_date": "2006",
  "orig_country": "Люксембург",
  "lang": "Английский",
  "restrict": "6+",
  "kinopoisk_id": "87871",
  "kinopoisk_rating": "6.85",
  "imdb_rating": "6",
  "duration": "5667",
  "category": "Фильмы",
  "genres": "Для детей,Зарубежные,Приключения,Фильмы",
  "vr_identifier": "Лорд Вор",
  "iframe": "https://www.ivi.ru/embeds/video/?subsite=1&autostart=0&videoid=59630"
}