{
  "content_id": "59618",
  "title": "Поп-звезда",
  "orig_title": "Popstar",
  "release_date": "2005",
  "orig_country": "США",
  "lang": "Английский",
  "restrict": "6+",
  "kinopoisk_id": "88229",
  "kinopoisk_rating": "5.92",
  "imdb_rating": "2.6",
  "duration": "5422",
  "category": "Фильмы",
  "genres": "Для всей семьи,Зарубежные,Комедии,Мелодрамы",
  "vr_identifier": "Попстар",
  "iframe": "https://www.ivi.ru/embeds/video/?subsite=1&autostart=0&videoid=59618"
}