{
  "content_id": "170501",
  "title": "Рэкетир 2",
  "release_date": "2015",
  "orig_country": "Казахстан",
  "lang": "Русский",
  "restrict": "16+",
  "kinopoisk_id": "883918",
  "kinopoisk_rating": "6.61",
  "imdb_rating": "6.3",
  "duration": "6712",
  "category": "Фильмы",
  "genres": "Боевики,Драмы,Зарубежные,Криминал",
  "vr_identifier": "Рэкетир 2",
  "iframe": "https://www.ivi.ru/embeds/video/?subsite=1&autostart=0&videoid=170501"
}