{
  "content_id": "398118",
  "title": "Итальянская гонщица",
  "orig_title": "Veloce come il vento",
  "release_date": "2016",
  "orig_country": "Италия",
  "lang": "Итальянский",
  "restrict": "16+",
  "kinopoisk_id": "886061",
  "kinopoisk_rating": "6.97",
  "imdb_rating": "7.4",
  "duration": "6786",
  "category": "Фильмы",
  "genres": "Драмы,Зарубежные,Спорт",
  "vr_identifier": "Итальянская гонщица",
  "iframe": "https://www.ivi.ru/embeds/video/?subsite=1&autostart=0&videoid=398118"
}