{
  "content_id": "182214",
  "title": "Личный интерес",
  "release_date": "2015",
  "orig_country": "Украина",
  "lang": "Русский",
  "restrict": "12+",
  "kinopoisk_id": "891354",
  "kinopoisk_rating": "5.39",
  "duration": "5270",
  "category": "Фильмы",
  "genres": "Детективы,Зарубежные,Мелодрамы",
  "vr_identifier": "Личный интерес",
  "iframe": "https://www.ivi.ru/embeds/video/?subsite=1&autostart=0&videoid=182214"
}