{
  "content_id": "191504",
  "title": "Осколки хрустальной туфельки",
  "release_date": "2015",
  "orig_country": "Россия",
  "lang": "Русский",
  "restrict": "12+",
  "kinopoisk_id": "893242",
  "kinopoisk_rating": "5.11",
  "duration": "5485",
  "category": "Фильмы",
  "genres": "Мелодрамы,Русские",
  "vr_identifier": "Осколки хрустальной туфельки",
  "iframe": "https://www.ivi.ru/embeds/video/?subsite=1&autostart=0&videoid=191504"
}