{
  "content_id": "143145",
  "title": "Аргентина",
  "orig_title": "Zonda: folclore argentino",
  "release_date": "2015",
  "orig_country": "Аргентина",
  "restrict": "6+",
  "kinopoisk_id": "894453",
  "kinopoisk_rating": "6.1",
  "imdb_rating": "6.7",
  "duration": "5266",
  "category": "Фильмы",
  "genres": "Документальные,Зарубежные,Мюзикл",
  "vr_identifier": "Аргентина",
  "iframe": "https://www.ivi.ru/embeds/video/?subsite=1&autostart=0&videoid=143145"
}