{
  "content_id": "160101",
  "title": "Сент-Амур: Удовольствия любви",
  "orig_title": "Saint Amour",
  "release_date": "2016",
  "orig_country": "Франция",
  "lang": "Французский",
  "restrict": "16+",
  "kinopoisk_id": "897611",
  "kinopoisk_rating": "5.33",
  "imdb_rating": "6.1",
  "duration": "5832",
  "category": "Фильмы",
  "genres": "Драмы,Зарубежные,Комедии",
  "vr_identifier": "Сент-Амур: Удовольствия любви",
  "iframe": "https://www.ivi.ru/embeds/video/?subsite=1&autostart=0&videoid=160101"
}