{
  "content_id": "193802",
  "title": "Дом моих кошмаров",
  "orig_title": "Bethany",
  "release_date": "2017",
  "orig_country": "США",
  "lang": "Английский",
  "restrict": "18+",
  "kinopoisk_id": "901242",
  "kinopoisk_rating": "4.12",
  "imdb_rating": "4.6",
  "duration": "5406",
  "category": "Фильмы",
  "genres": "Зарубежные,Ужасы",
  "vr_identifier": "Дом моих кошмаров",
  "iframe": "https://www.ivi.ru/embeds/video/?subsite=1&autostart=0&videoid=193802"
}