{
  "content_id": "154998",
  "title": "Новая эра Z",
  "orig_title": "The Girl with All the Gifts",
  "release_date": "2016",
  "orig_country": "США",
  "lang": "Английский",
  "restrict": "16+",
  "kinopoisk_id": "902223",
  "kinopoisk_rating": "6.13",
  "imdb_rating": "6.7",
  "duration": "6380",
  "category": "Фильмы",
  "genres": "Драмы,Зарубежные,Триллеры,Ужасы",
  "vr_identifier": "Новая эра Z",
  "iframe": "https://www.ivi.ru/embeds/video/?subsite=1&autostart=0&videoid=154998"
}