{
  "content_id": "64181",
  "title": "Отдаленный склон",
  "orig_title": "Off Piste",
  "release_date": "2016",
  "orig_country": "Великобритания",
  "lang": "Английский",
  "restrict": "18+",
  "kinopoisk_id": "902426",
  "duration": "5435",
  "category": "Фильмы",
  "genres": "Боевики,Драмы,Зарубежные,Триллеры",
  "vr_identifier": "Отдаленный склон",
  "iframe": "https://www.ivi.ru/embeds/video/?subsite=1&autostart=0&videoid=64181"
}