{
  "content_id": "154325",
  "title": "Миф о безнадежности",
  "orig_title": "Broken",
  "release_date": "2016",
  "orig_country": "Великобритания",
  "lang": "Английский",
  "restrict": "18+",
  "kinopoisk_id": "903017",
  "duration": "5880",
  "category": "Фильмы",
  "genres": "Драмы,Зарубежные,Триллеры",
  "vr_identifier": "Миф о безнадежности",
  "iframe": "https://www.ivi.ru/embeds/video/?subsite=1&autostart=0&videoid=154325"
}