{
  "content_id": "224337",
  "title": "Тим Талер, или Проданный смех",
  "orig_title": "Timm Thaler oder das verkaufte Lachen",
  "release_date": "2017",
  "orig_country": "Германия",
  "lang": "Немецкий",
  "restrict": "6+",
  "kinopoisk_id": "904247",
  "kinopoisk_rating": "6.48",
  "imdb_rating": "5.9",
  "duration": "6156",
  "category": "Фильмы",
  "genres": "Для всей семьи,Зарубежные,Комедии,Приключения,Фэнтези",
  "vr_identifier": "Тим Талер или Проданный Смех",
  "iframe": "https://www.ivi.ru/embeds/video/?subsite=1&autostart=0&videoid=224337"
}