{
  "content_id": "176932",
  "title": "Фиксики: Большой секрет",
  "release_date": "2017",
  "orig_country": "Россия",
  "lang": "Русский",
  "restrict": "6+",
  "kinopoisk_id": "905038",
  "kinopoisk_rating": "5.94",
  "imdb_rating": "5.7",
  "duration": "4677",
  "category": "Мультфильмы",
  "genres": "Для всей семьи,Для детей,Комедия,Полнометражные,Приключения,Русские мультфильмы",
  "vr_identifier": "Фиксики. Большой секрет",
  "iframe": "https://www.ivi.ru/embeds/video/?subsite=1&autostart=0&videoid=176932"
}