{
  "content_id": "184430",
  "title": "Яна+Янко",
  "release_date": "2016",
  "orig_country": "Россия",
  "lang": "Русский",
  "restrict": "12+",
  "kinopoisk_id": "905040",
  "kinopoisk_rating": "6.12",
  "imdb_rating": "5.7",
  "duration": "5781",
  "category": "Фильмы",
  "genres": "Для всей семьи,Комедии,Русские",
  "vr_identifier": "Яна+Янко",
  "iframe": "https://www.ivi.ru/embeds/video/?subsite=1&autostart=0&videoid=184430"
}