{
  "content_id": "160671",
  "title": "Ценный груз",
  "orig_title": "Precious Cargo",
  "release_date": "2016",
  "orig_country": "Канада",
  "lang": "Английский",
  "restrict": "16+",
  "kinopoisk_id": "905709",
  "kinopoisk_rating": "4.73",
  "imdb_rating": "4.6",
  "duration": "5186",
  "category": "Фильмы",
  "genres": "Боевики,Драмы,Зарубежные,Комедии,Криминал,Триллеры",
  "vr_identifier": "Ценный груз",
  "iframe": "https://www.ivi.ru/embeds/video/?subsite=1&autostart=0&videoid=160671"
}