{
  "content_id": "133538",
  "title": "8 лучших свиданий",
  "release_date": "2016",
  "orig_country": "Россия",
  "lang": "Русский",
  "restrict": "12+",
  "kinopoisk_id": "908406",
  "kinopoisk_rating": "3.13",
  "imdb_rating": "4.1",
  "duration": "5576",
  "category": "Фильмы",
  "genres": "Комедии,Мелодрамы,Русские",
  "vr_identifier": "8 лучших свиданий",
  "iframe": "https://www.ivi.ru/embeds/video/?subsite=1&autostart=0&videoid=133538"
}