{
  "content_id": "175049",
  "title": "Ура! Каникулы!",
  "release_date": "2016",
  "orig_country": "Россия",
  "lang": "Русский",
  "restrict": "6+",
  "kinopoisk_id": "908784",
  "kinopoisk_rating": "5.23",
  "duration": "5677",
  "category": "Фильмы",
  "genres": "Для всей семьи,Для детей,Комедии,Приключения,Русские,Фильмы",
  "vr_identifier": "Ура! Каникулы",
  "iframe": "https://www.ivi.ru/embeds/video/?subsite=1&autostart=0&videoid=175049"
}