{
  "content_id": "151888",
  "title": "Хороший мальчик",
  "release_date": "2016",
  "orig_country": "Россия",
  "lang": "Русский",
  "restrict": "12+",
  "kinopoisk_id": "915270",
  "kinopoisk_rating": "6.59",
  "imdb_rating": "6.5",
  "duration": "5710",
  "category": "Фильмы",
  "genres": "Комедии,Русские",
  "vr_identifier": "Хороший мальчик",
  "iframe": "https://www.ivi.ru/embeds/video/?subsite=1&autostart=0&videoid=151888"
}