{
  "content_id": "185411",
  "title": "Мужчина встречает женщину",
  "release_date": "2014",
  "orig_country": "Россия",
  "lang": "Русский",
  "restrict": "18+",
  "kinopoisk_id": "915286",
  "kinopoisk_rating": "0",
  "duration": "1002",
  "category": "Мультфильмы",
  "genres": "Русские",
  "vr_identifier": "Мужчина встречает женщину",
  "iframe": "https://www.ivi.ru/embeds/video/?subsite=1&autostart=0&videoid=185411"
}