{
  "content_id": "338475",
  "title": "Дети горы",
  "orig_title": "Children of the Mountain",
  "release_date": "2016",
  "orig_country": "Гана",
  "restrict": "16+",
  "kinopoisk_id": "916074",
  "kinopoisk_rating": "0",
  "imdb_rating": "7.8",
  "duration": "6056",
  "category": "Фильмы",
  "genres": "Драмы,Зарубежные",
  "vr_identifier": "Дети горы",
  "iframe": "https://www.ivi.ru/embeds/video/?subsite=1&autostart=0&videoid=338475"
}