{
  "content_id": "190294",
  "title": "Леди Макбет",
  "orig_title": "Lady Macbeth",
  "release_date": "2016",
  "orig_country": "Великобритания",
  "lang": "Английский",
  "restrict": "18+",
  "kinopoisk_id": "916416",
  "kinopoisk_rating": "6.38",
  "imdb_rating": "6.8",
  "duration": "5139",
  "category": "Фильмы",
  "genres": "Драмы,Зарубежные,Мелодрамы,Экранизации",
  "vr_identifier": "Леди Макбет",
  "iframe": "https://www.ivi.ru/embeds/video/?subsite=1&autostart=0&videoid=190294"
}