{
  "content_id": "138360",
  "title": "Лабиринты любви",
  "release_date": "2015",
  "orig_country": "Россия",
  "lang": "Русский",
  "restrict": "12+",
  "kinopoisk_id": "923490",
  "kinopoisk_rating": "4.46",
  "imdb_rating": "5.5",
  "duration": "5417",
  "category": "Фильмы",
  "genres": "Мелодрамы,Русские",
  "vr_identifier": "Лабиринты любви",
  "iframe": "https://www.ivi.ru/embeds/video/?subsite=1&autostart=0&videoid=138360"
}