{
  "content_id": "233160",
  "title": "Астрал: Новое измерение",
  "orig_title": "Astral",
  "release_date": "2018",
  "orig_country": "Великобритания",
  "lang": "Английский",
  "restrict": "16+",
  "kinopoisk_id": "926782",
  "kinopoisk_rating": "4.14",
  "imdb_rating": "5.8",
  "duration": "4825",
  "category": "Фильмы",
  "genres": "Зарубежные,Ужасы",
  "vr_identifier": "Астрал: Новое измерение",
  "iframe": "https://www.ivi.ru/embeds/video/?subsite=1&autostart=0&videoid=233160"
}