{
  "content_id": "160609",
  "title": "Монстры Юга",
  "orig_title": "Southbound",
  "release_date": "2015",
  "orig_country": "США",
  "lang": "Английский",
  "restrict": "18+",
  "kinopoisk_id": "928053",
  "kinopoisk_rating": "5.7",
  "imdb_rating": "5.9",
  "duration": "5328",
  "category": "Фильмы",
  "genres": "Зарубежные,Триллеры,Ужасы,Фэнтези",
  "vr_identifier": "Монстры Юга",
  "iframe": "https://www.ivi.ru/embeds/video/?subsite=1&autostart=0&videoid=160609"
}