{
  "content_id": "87661",
  "title": "Я и ты и все, кого мы знаем",
  "orig_title": "Me and You and Everyone We Know",
  "release_date": "2005",
  "orig_country": "США",
  "lang": "Английский",
  "restrict": "16+",
  "kinopoisk_id": "93038",
  "kinopoisk_rating": "6.64",
  "imdb_rating": "7.3",
  "duration": "5220",
  "category": "Фильмы",
  "genres": "Зарубежные,Комедии,Мелодрамы",
  "vr_identifier": "Я, ты, и все, кого мы знаем",
  "iframe": "https://www.ivi.ru/embeds/video/?subsite=1&autostart=0&videoid=87661"
}