{
  "content_id": "191506",
  "title": "Весомое чувство",
  "release_date": "2013",
  "orig_country": "Россия",
  "lang": "Русский",
  "restrict": "12+",
  "kinopoisk_id": "932122",
  "kinopoisk_rating": "4.68",
  "duration": "5241",
  "category": "Фильмы",
  "genres": "Мелодрамы,Русские",
  "vr_identifier": "Весомое чувство",
  "iframe": "https://www.ivi.ru/embeds/video/?subsite=1&autostart=0&videoid=191506"
}