{
  "content_id": "167505",
  "title": "Городские птички",
  "release_date": "2016",
  "orig_country": "Россия",
  "lang": "Русский",
  "restrict": "16+",
  "kinopoisk_id": "932457",
  "kinopoisk_rating": "5.39",
  "duration": "5047",
  "category": "Фильмы",
  "genres": "Комедии,Мелодрамы,Русские",
  "vr_identifier": "Городские птички",
  "iframe": "https://www.ivi.ru/embeds/video/?subsite=1&autostart=0&videoid=167505"
}