{
  "content_id": "192124",
  "title": "Самое главное",
  "release_date": "2013",
  "orig_country": "Россия",
  "lang": "Русский",
  "restrict": "12+",
  "kinopoisk_id": "933225",
  "kinopoisk_rating": "6.06",
  "duration": "5614",
  "category": "Фильмы",
  "genres": "Мелодрамы,Русские",
  "vr_identifier": "Самое главное",
  "iframe": "https://www.ivi.ru/embeds/video/?subsite=1&autostart=0&videoid=192124"
}