{
  "content_id": "161654",
  "title": "Опасная игра Слоун",
  "orig_title": "Miss Sloane",
  "release_date": "2016",
  "orig_country": "США",
  "lang": "Английский",
  "restrict": "18+",
  "kinopoisk_id": "933307",
  "kinopoisk_rating": "7.62",
  "imdb_rating": "7.5",
  "duration": "7621",
  "category": "Фильмы",
  "genres": "Драмы,Зарубежные,Триллеры",
  "vr_identifier": "Опасная игра Слоун",
  "iframe": "https://www.ivi.ru/embeds/video/?subsite=1&autostart=0&videoid=161654"
}