{
  "content_id": "172627",
  "title": "Не чужие",
  "release_date": "2018",
  "orig_country": "Россия",
  "lang": "Русский",
  "restrict": "16+",
  "kinopoisk_id": "933787",
  "kinopoisk_rating": "5.8",
  "duration": "4716",
  "category": "Фильмы",
  "genres": "Драмы,Русские",
  "vr_identifier": "Не чужие",
  "iframe": "https://www.ivi.ru/embeds/video/?subsite=1&autostart=0&videoid=172627"
}