{
  "content_id": "172184",
  "title": "Мотылек",
  "release_date": "2017",
  "orig_country": "Россия",
  "lang": "Русский",
  "restrict": "16+",
  "kinopoisk_id": "934207",
  "kinopoisk_rating": "5.55",
  "imdb_rating": "6",
  "duration": "5604",
  "category": "Фильмы",
  "genres": "Драмы,Русские",
  "vr_identifier": "Мотылек",
  "iframe": "https://www.ivi.ru/embeds/video/?subsite=1&autostart=0&videoid=172184"
}