{
  "content_id": "151713",
  "title": "Побег за мечтой",
  "release_date": "2015",
  "orig_country": "Россия",
  "lang": "Русский",
  "restrict": "16+",
  "kinopoisk_id": "938870",
  "kinopoisk_rating": "5.86",
  "duration": "4546",
  "category": "Фильмы",
  "genres": "Драмы,Криминал,Русские",
  "vr_identifier": "Побег за мечтой",
  "iframe": "https://www.ivi.ru/embeds/video/?subsite=1&autostart=0&videoid=151713"
}