{
  "content_id": "165301",
  "title": "Сага о чудовище. Сумерки",
  "orig_title": "Wildling",
  "release_date": "2018",
  "orig_country": "США",
  "lang": "Английский",
  "restrict": "18+",
  "kinopoisk_id": "939579",
  "kinopoisk_rating": "5.19",
  "imdb_rating": "5.5",
  "duration": "5331",
  "category": "Фильмы",
  "genres": "Драмы,Зарубежные,Мистические,Фэнтези",
  "vr_identifier": "Сага о чудовище. Сумерки",
  "iframe": "https://www.ivi.ru/embeds/video/?subsite=1&autostart=0&videoid=165301"
}