{
  "content_id": "199474",
  "title": "Фантом-соблазнитель 2",
  "orig_title": "Fantom Seducer 2",
  "release_date": "2005",
  "orig_country": "Польша",
  "lang": "Английский",
  "restrict": "18+",
  "kinopoisk_id": "939880",
  "kinopoisk_rating": "0",
  "imdb_rating": "4.7",
  "duration": "3882",
  "category": "Фильмы",
  "genres": "Эротика",
  "vr_identifier": "Фантом соблазнитель",
  "iframe": "https://www.ivi.ru/embeds/video/?subsite=1&autostart=0&videoid=199474"
}