{
  "content_id": "226639",
  "title": "Коробочка",
  "release_date": "2013",
  "orig_country": "Россия",
  "lang": "Русский",
  "restrict": "16+",
  "kinopoisk_id": "942293",
  "kinopoisk_rating": "0",
  "duration": "1031",
  "category": "Фильмы",
  "genres": "Комедии,Короткометражки,Русские",
  "vr_identifier": "Коробочка",
  "iframe": "https://www.ivi.ru/embeds/video/?subsite=1&autostart=0&videoid=226639"
}