{
  "content_id": "218315",
  "title": "Проверено - мин нет",
  "release_date": "1965",
  "orig_country": "Югославия",
  "lang": "Русский",
  "restrict": "16+",
  "kinopoisk_id": "94279",
  "kinopoisk_rating": "7.3",
  "imdb_rating": "8.2",
  "duration": "4916",
  "category": "Фильмы",
  "genres": "Военные,Драмы,Советское кино",
  "vr_identifier": "Проверено-мин нет",
  "iframe": "https://www.ivi.ru/embeds/video/?subsite=1&autostart=0&videoid=218315"
}