{
  "content_id": "158741",
  "title": "КЕ-ДЫ",
  "release_date": "2016",
  "orig_country": "Россия",
  "lang": "Русский",
  "restrict": "16+",
  "kinopoisk_id": "943108",
  "kinopoisk_rating": "4.33",
  "imdb_rating": "4.8",
  "duration": "5811",
  "category": "Фильмы",
  "genres": "Драмы",
  "vr_identifier": "Ке-ды",
  "iframe": "https://www.ivi.ru/embeds/video/?subsite=1&autostart=0&videoid=158741"
}