{
  "content_id": "211606",
  "title": "Прощание славянки",
  "release_date": "1985",
  "orig_country": "СССР",
  "lang": "Русский",
  "restrict": "6+",
  "kinopoisk_id": "94337",
  "kinopoisk_rating": "7.3",
  "imdb_rating": "7.1",
  "duration": "4747",
  "category": "Фильмы",
  "genres": "Драмы,Советское кино",
  "vr_identifier": "Прощание славянки",
  "iframe": "https://www.ivi.ru/embeds/video/?subsite=1&autostart=0&videoid=211606"
}