{
  "content_id": "191400",
  "title": "Алла в поисках Аллы",
  "release_date": "2015",
  "orig_country": "Россия",
  "lang": "Русский",
  "restrict": "12+",
  "kinopoisk_id": "943413",
  "kinopoisk_rating": "5.9",
  "duration": "5388",
  "category": "Фильмы",
  "genres": "Мелодрамы,Русские",
  "vr_identifier": "Алла в поисках Аллы",
  "iframe": "https://www.ivi.ru/embeds/video/?subsite=1&autostart=0&videoid=191400"
}