{
  "content_id": "227505",
  "title": "На чашах весов",
  "release_date": "2014",
  "orig_country": "Россия",
  "lang": "Русский",
  "restrict": "12+",
  "kinopoisk_id": "944834",
  "kinopoisk_rating": "0",
  "duration": "1144",
  "category": "Фильмы",
  "genres": "Драмы,Короткометражки,Русские",
  "vr_identifier": "На чашах весов",
  "iframe": "https://www.ivi.ru/embeds/video/?subsite=1&autostart=0&videoid=227505"
}