{
  "content_id": "128850",
  "title": "Про кота...",
  "release_date": "1985",
  "orig_country": "СССР",
  "lang": "Русский",
  "restrict": "12+",
  "kinopoisk_id": "94630",
  "kinopoisk_rating": "6.85",
  "imdb_rating": "6.2",
  "duration": "4036",
  "category": "Фильмы",
  "genres": "Для всей семьи,Мюзикл,Советское кино",
  "vr_identifier": "Про кота...",
  "iframe": "https://www.ivi.ru/embeds/video/?subsite=1&autostart=0&videoid=128850"
}