{
  "content_id": "223546",
  "title": "Похитители носков",
  "orig_title": "Lichozrouti",
  "release_date": "2016",
  "orig_country": "Чехия",
  "lang": "Чешский",
  "restrict": "6+",
  "kinopoisk_id": "947047",
  "kinopoisk_rating": "6.1",
  "imdb_rating": "5.9",
  "duration": "5181",
  "category": "Мультфильмы",
  "genres": "Для всей семьи,Для детей,Зарубежные,Приключения,Фэнтези",
  "vr_identifier": "Похитители носков",
  "iframe": "https://www.ivi.ru/embeds/video/?subsite=1&autostart=0&videoid=223546"
}