{
  "content_id": "13849",
  "title": "Винсент и Тео",
  "orig_title": "Vincent & Theo",
  "release_date": "1990",
  "orig_country": "Франция",
  "lang": "Французский",
  "restrict": "12+",
  "kinopoisk_id": "9479",
  "kinopoisk_rating": "7.45",
  "imdb_rating": "7",
  "duration": "11640",
  "category": "Фильмы",
  "genres": "Биография,Драмы,Зарубежные",
  "vr_identifier": "Винсент и Тео",
  "iframe": "https://www.ivi.ru/embeds/video/?subsite=1&autostart=0&videoid=13849"
}