{
  "content_id": "211617",
  "title": "Ты есть...",
  "release_date": "1993",
  "orig_country": "Россия",
  "lang": "Русский",
  "restrict": "12+",
  "kinopoisk_id": "94818",
  "kinopoisk_rating": "7.92",
  "imdb_rating": "7.6",
  "duration": "5657",
  "category": "Фильмы",
  "genres": "Для всей семьи,Драмы,Русские,Экранизации",
  "vr_identifier": "Ты есть…",
  "iframe": "https://www.ivi.ru/embeds/video/?subsite=1&autostart=0&videoid=211617"
}