{
  "content_id": "15100",
  "title": "Барышня и хулиган",
  "release_date": "1970",
  "orig_country": "СССР",
  "lang": "Русский",
  "restrict": "0+",
  "kinopoisk_id": "94956",
  "kinopoisk_rating": "0",
  "duration": "3634",
  "category": "Фильмы",
  "genres": "Драмы,Советское кино,Фильмы-спектакли",
  "vr_identifier": "Барышня и хулиган",
  "iframe": "https://www.ivi.ru/embeds/video/?subsite=1&autostart=0&videoid=15100"
}