{
  "content_id": "413018",
  "title": "Первый день",
  "orig_title": "Premier Jour",
  "release_date": "2016",
  "orig_country": "Франция",
  "lang": "Французский",
  "restrict": "12+",
  "kinopoisk_id": "950118",
  "duration": "847",
  "category": "Фильмы",
  "genres": "Короткометражки",
  "vr_identifier": "Первый день",
  "iframe": "https://www.ivi.ru/embeds/video/?subsite=1&autostart=0&videoid=413018"
}