{
  "content_id": "85121",
  "title": "Возвращение Суперфлая",
  "orig_title": "The Return of Superfly",
  "release_date": "1990",
  "orig_country": "США",
  "lang": "Английский",
  "restrict": "18+",
  "kinopoisk_id": "9537",
  "kinopoisk_rating": "4.55",
  "imdb_rating": "5",
  "duration": "5733",
  "category": "Фильмы",
  "genres": "Боевики,Детективы,Драмы,Зарубежные",
  "vr_identifier": "Возвращение Суперфлая",
  "iframe": "https://www.ivi.ru/embeds/video/?subsite=1&autostart=0&videoid=85121"
}