{
  "content_id": "413012",
  "title": "Конец",
  "orig_title": "Over",
  "release_date": "2016",
  "orig_country": "Великобритания",
  "lang": "Английский",
  "restrict": "12+",
  "kinopoisk_id": "957531",
  "duration": "829",
  "category": "Фильмы",
  "genres": "Короткометражки",
  "vr_identifier": "Конец",
  "iframe": "https://www.ivi.ru/embeds/video/?subsite=1&autostart=0&videoid=413012"
}