{
  "content_id": "180557",
  "title": "Счастье быть одной",
  "orig_title": "Assolo",
  "release_date": "2016",
  "orig_country": "Италия",
  "lang": "Итальянский",
  "restrict": "16+",
  "kinopoisk_id": "957643",
  "kinopoisk_rating": "6.51",
  "imdb_rating": "5.6",
  "duration": "5875",
  "category": "Фильмы",
  "genres": "Зарубежные,Комедии,Мелодрамы",
  "vr_identifier": "Счастье быть одной",
  "iframe": "https://www.ivi.ru/embeds/video/?subsite=1&autostart=0&videoid=180557"
}