{
  "content_id": "166984",
  "title": "Супергерои",
  "orig_title": "Bling",
  "release_date": "2016",
  "orig_country": "США",
  "lang": "Английский",
  "restrict": "6+",
  "kinopoisk_id": "957627",
  "kinopoisk_rating": "4.63",
  "imdb_rating": "4.5",
  "duration": "4681",
  "category": "Мультфильмы",
  "genres": "Для всей семьи,Для детей,Западные мультфильмы,Зарубежные,Комедия,Приключения,Фантастика",
  "vr_identifier": "Супергерои",
  "iframe": "https://www.ivi.ru/embeds/video/?subsite=1&autostart=0&videoid=166984"
}