{
  "content_id": "160059",
  "title": "Уроки выживания",
  "release_date": "2015",
  "orig_country": "Россия",
  "lang": "Русский",
  "restrict": "6+",
  "kinopoisk_id": "957871",
  "kinopoisk_rating": "4.84",
  "imdb_rating": "5.6",
  "duration": "5160",
  "category": "Фильмы",
  "genres": "Для всей семьи,Для детей,Комедии,Приключения,Русские",
  "vr_identifier": "Уроки выживания",
  "iframe": "https://www.ivi.ru/embeds/video/?subsite=1&autostart=0&videoid=160059"
}