{
  "content_id": "214307",
  "title": "Невидимый гость",
  "orig_title": "Contratiempo",
  "release_date": "2016",
  "orig_country": "Испания",
  "lang": "Испанский",
  "restrict": "16+",
  "kinopoisk_id": "959365",
  "kinopoisk_rating": "7.73",
  "imdb_rating": "8.1",
  "duration": "6360",
  "category": "Фильмы",
  "genres": "Детективы,Зарубежные,Криминал,Триллеры",
  "vr_identifier": "Невидимый гость",
  "iframe": "https://www.ivi.ru/embeds/video/?subsite=1&autostart=0&videoid=214307"
}