{
  "content_id": "183488",
  "title": "Я и Ты",
  "orig_title": "Sage femme",
  "release_date": "2017",
  "orig_country": "Франция",
  "lang": "Французский",
  "restrict": "16+",
  "kinopoisk_id": "961957",
  "kinopoisk_rating": "6.69",
  "imdb_rating": "6.7",
  "duration": "6734",
  "category": "Фильмы",
  "genres": "Драмы,Зарубежные,Мелодрамы",
  "vr_identifier": "Я и Ты",
  "iframe": "https://www.ivi.ru/embeds/video/?subsite=1&autostart=0&videoid=183488"
}