{
  "content_id": "192127",
  "title": "Соучастники",
  "release_date": "2015",
  "orig_country": "Россия",
  "lang": "Русский",
  "restrict": "12+",
  "kinopoisk_id": "962361",
  "kinopoisk_rating": "5.64",
  "duration": "5537",
  "category": "Фильмы",
  "genres": "Криминал,Мелодрамы,Русские",
  "vr_identifier": "Соучастники",
  "iframe": "https://www.ivi.ru/embeds/video/?subsite=1&autostart=0&videoid=192127"
}