{
  "content_id": "225500",
  "title": "Андрей Миронов: Обыкновенное чудо",
  "release_date": "2007",
  "orig_country": "Россия",
  "lang": "Русский",
  "restrict": "12+",
  "kinopoisk_id": "962498",
  "duration": "2668",
  "category": "Фильмы",
  "genres": "Биография,Документальные,Русские",
  "vr_identifier": "Андрей Миронов: Обыкновенное чудо",
  "iframe": "https://www.ivi.ru/embeds/video/?subsite=1&autostart=0&videoid=225500"
}