{
  "content_id": "208160",
  "title": "Махнем на Луну!",
  "orig_title": "Condorito: La Película",
  "release_date": "2017",
  "orig_country": "Перу",
  "lang": "Испанский",
  "restrict": "6+",
  "kinopoisk_id": "969253",
  "kinopoisk_rating": "5.1",
  "imdb_rating": "5.3",
  "duration": "5087",
  "category": "Мультфильмы",
  "genres": "Для всей семьи,Западные мультфильмы,Комедия,Приключения,Фантастика",
  "vr_identifier": "Махнем на луну",
  "iframe": "https://www.ivi.ru/embeds/video/?subsite=1&autostart=0&videoid=208160"
}