{
  "content_id": "208836",
  "title": "Даша и людоед",
  "release_date": "2015",
  "orig_country": "Россия",
  "lang": "Русский",
  "restrict": "0+",
  "kinopoisk_id": "970908",
  "kinopoisk_rating": "5.38",
  "duration": "324",
  "category": "Мультфильмы",
  "genres": "Для детей,Русские,Русские мультфильмы",
  "vr_identifier": "Даша и людоед",
  "iframe": "https://www.ivi.ru/embeds/video/?subsite=1&autostart=0&videoid=208836"
}