{
  "content_id": "170520",
  "title": "Временные трудности",
  "release_date": "2018",
  "orig_country": "Россия",
  "lang": "Русский",
  "restrict": "12+",
  "kinopoisk_id": "972745",
  "kinopoisk_rating": "6.3",
  "imdb_rating": "3.1",
  "duration": "5009",
  "category": "Фильмы",
  "genres": "Драмы,Русские",
  "vr_identifier": "Временные трудности",
  "iframe": "https://www.ivi.ru/embeds/video/?subsite=1&autostart=0&videoid=170520"
}