{
  "content_id": "184573",
  "title": "Белое вино из Баббудойу",
  "orig_title": "Bianco di Babbudoiu",
  "release_date": "2016",
  "orig_country": "Италия",
  "lang": "Итальянский",
  "restrict": "16+",
  "kinopoisk_id": "973096",
  "imdb_rating": "5.4",
  "duration": "5580",
  "category": "Фильмы",
  "genres": "Зарубежные,Комедии",
  "vr_identifier": "Белое вино из Баббудойу",
  "iframe": "https://www.ivi.ru/embeds/video/?subsite=1&autostart=0&videoid=184573"
}