{
  "content_id": "217845",
  "title": "Я не оставлю тебя!",
  "release_date": "2015",
  "orig_country": "Россия",
  "lang": "Русский",
  "restrict": "12+",
  "kinopoisk_id": "973247",
  "kinopoisk_rating": "0",
  "duration": "5986",
  "category": "Фильмы",
  "genres": "Артхаус,Для всей семьи,Мелодрамы,Русские,Триллеры",
  "vr_identifier": "Я не оставлю тебя!",
  "iframe": "https://www.ivi.ru/embeds/video/?subsite=1&autostart=0&videoid=217845"
}