{
  "content_id": "213850",
  "title": "Большая афера в маленьком городе",
  "orig_title": "Un paese quasi perfetto",
  "release_date": "2016",
  "orig_country": "Италия",
  "lang": "Итальянский",
  "restrict": "16+",
  "kinopoisk_id": "973392",
  "kinopoisk_rating": "6.3",
  "imdb_rating": "6",
  "duration": "5875",
  "category": "Фильмы",
  "genres": "Зарубежные,Комедии",
  "vr_identifier": "Большая афера в маленьком городе",
  "iframe": "https://www.ivi.ru/embeds/video/?subsite=1&autostart=0&videoid=213850"
}