{
  "content_id": "220693",
  "title": "Будь здоров!",
  "release_date": "1982",
  "orig_country": "СССР",
  "lang": "Русский",
  "restrict": "0+",
  "kinopoisk_id": "974198",
  "duration": "501",
  "category": "Мультфильмы",
  "genres": "Для всей семьи,Для детей,Про животных,Русские,Русские мультфильмы,Советские",
  "vr_identifier": "Будь здоров!",
  "iframe": "https://www.ivi.ru/embeds/video/?subsite=1&autostart=0&videoid=220693"
}