{
  "content_id": "167273",
  "title": "Спарта",
  "release_date": "2016",
  "orig_country": "Россия",
  "lang": "Русский",
  "restrict": "16+",
  "kinopoisk_id": "974203",
  "kinopoisk_rating": "4.29",
  "imdb_rating": "6.8",
  "duration": "4927",
  "category": "Фильмы",
  "genres": "Боевики,Драмы,Русские",
  "vr_identifier": "Спарта",
  "iframe": "https://www.ivi.ru/embeds/video/?subsite=1&autostart=0&videoid=167273"
}