{
  "content_id": "213988",
  "title": "Точка возврата",
  "orig_title": "Backtrace",
  "release_date": "2018",
  "orig_country": "США",
  "lang": "Английский",
  "restrict": "18+",
  "kinopoisk_id": "974902",
  "kinopoisk_rating": "4.23",
  "imdb_rating": "3.7",
  "duration": "5761",
  "category": "Фильмы",
  "genres": "Боевики,Зарубежные,Криминал",
  "vr_identifier": "Точка возврата",
  "iframe": "https://www.ivi.ru/embeds/video/?subsite=1&autostart=0&videoid=213988"
}