{
  "content_id": "170518",
  "title": "Призраки Исмаэля",
  "orig_title": "Les Fantomes d'Ismael",
  "release_date": "2017",
  "orig_country": "Франция",
  "lang": "Французский",
  "restrict": "16+",
  "kinopoisk_id": "977335",
  "kinopoisk_rating": "5.58",
  "imdb_rating": "5.6",
  "duration": "6552",
  "category": "Фильмы",
  "genres": "Драмы,Зарубежные,Мелодрамы",
  "vr_identifier": "Призраки Исмаэля",
  "iframe": "https://www.ivi.ru/embeds/video/?subsite=1&autostart=0&videoid=170518"
}