{
  "content_id": "191394",
  "title": "Выше на этаж",
  "release_date": "2016",
  "orig_country": "Россия",
  "lang": "Русский",
  "restrict": "16+",
  "kinopoisk_id": "977521",
  "duration": "1147",
  "category": "Фильмы",
  "genres": "Короткометражки,Русские",
  "vr_identifier": "Выше на этаж",
  "iframe": "https://www.ivi.ru/embeds/video/?subsite=1&autostart=0&videoid=191394"
}