{
  "content_id": "172254",
  "title": "Добрый вечер",
  "release_date": "2017",
  "orig_country": "Россия",
  "lang": "Русский",
  "restrict": "18+",
  "kinopoisk_id": "977752",
  "kinopoisk_rating": "4.37",
  "imdb_rating": "3.8",
  "duration": "4800",
  "category": "Фильмы",
  "genres": "Комедии,Криминал,Русские",
  "vr_identifier": "Добрый вечер",
  "iframe": "https://www.ivi.ru/embeds/video/?subsite=1&autostart=0&videoid=172254"
}