{
  "content_id": "208840",
  "title": "Питон и сторож",
  "release_date": "2015",
  "orig_country": "Россия",
  "lang": "Русский",
  "restrict": "0+",
  "kinopoisk_id": "977965",
  "duration": "857",
  "category": "Мультфильмы",
  "genres": "Для детей,Русские,Русские мультфильмы",
  "vr_identifier": "Питон и сторож",
  "iframe": "https://www.ivi.ru/embeds/video/?subsite=1&autostart=0&videoid=208840"
}