{
  "content_id": "70343",
  "title": "В стенах монастыря (Внутри монастыря)",
  "orig_title": "Interno di un convento",
  "release_date": "1977",
  "orig_country": "Италия",
  "lang": "Итальянский",
  "restrict": "18+",
  "kinopoisk_id": "98073",
  "kinopoisk_rating": "4.69",
  "imdb_rating": "5.1",
  "duration": "5700",
  "category": "Фильмы",
  "genres": "Эротика",
  "vr_identifier": "SECRET OF A CLOISTER",
  "iframe": "https://www.ivi.ru/embeds/video/?subsite=1&autostart=0&videoid=70343"
}