{
  "content_id": "184775",
  "title": "Мистер Штайн идет в онлайн",
  "orig_title": "Un profil pour deux",
  "release_date": "2017",
  "orig_country": "Франция",
  "lang": "Французский",
  "restrict": "16+",
  "kinopoisk_id": "986526",
  "kinopoisk_rating": "6.7",
  "imdb_rating": "6.4",
  "duration": "5782",
  "category": "Фильмы",
  "genres": "Зарубежные,Комедии",
  "vr_identifier": "Мистер Штайн идет в онлайн",
  "iframe": "https://www.ivi.ru/embeds/video/?subsite=1&autostart=0&videoid=184775"
}