{
  "content_id": "211946",
  "title": "Вествуд: Панк, икона, активист (на английском языке с русскими субтитрами)",
  "orig_title": "Westwood: Punk, Icon, Activist",
  "release_date": "2018",
  "orig_country": "Великобритания",
  "lang": "Английский",
  "restrict": "18+",
  "kinopoisk_id": "986511",
  "kinopoisk_rating": "7.08",
  "imdb_rating": "5.9",
  "duration": "5010",
  "category": "Фильмы",
  "genres": "Биография,Документальные,Зарубежные",
  "vr_identifier": "Вествуд: Панк, икона, активист",
  "iframe": "https://www.ivi.ru/embeds/video/?subsite=1&autostart=0&videoid=211946"
}