{
  "content_id": "202212",
  "title": "Трон эльфов",
  "orig_title": "Throne of Elves",
  "release_date": "2017",
  "orig_country": "Китай",
  "lang": "Китайский",
  "restrict": "6+",
  "kinopoisk_id": "988959",
  "kinopoisk_rating": "6.2",
  "imdb_rating": "6.2",
  "duration": "5942",
  "category": "Мультфильмы",
  "genres": "Для всей семьи,Для детей,Западные мультфильмы,Полнометражные,Приключения,Фэнтези",
  "vr_identifier": "Трон эльфов",
  "iframe": "https://www.ivi.ru/embeds/video/?subsite=1&autostart=0&videoid=202212"
}