{
  "content_id": "174372",
  "title": "Девица",
  "orig_title": "Damsel",
  "release_date": "2018",
  "orig_country": "США",
  "lang": "Английский",
  "restrict": "16+",
  "kinopoisk_id": "992653",
  "kinopoisk_rating": "5.78",
  "imdb_rating": "5.6",
  "duration": "6505",
  "category": "Фильмы",
  "genres": "Артхаус,Вестерн,Зарубежные,Комедии",
  "vr_identifier": "Девица",
  "iframe": "https://www.ivi.ru/embeds/video/?subsite=1&autostart=0&videoid=174372"
}