{
  "content_id": "227854",
  "title": "Захочу и соскочу. Супергерои",
  "orig_title": "Smetto quando voglio: Ad honorem",
  "release_date": "2017",
  "orig_country": "Италия",
  "lang": "Итальянский",
  "restrict": "16+",
  "kinopoisk_id": "993235",
  "kinopoisk_rating": "5.81",
  "imdb_rating": "6.9",
  "duration": "6120",
  "category": "Фильмы",
  "genres": "Зарубежные,Комедии,Криминал",
  "vr_identifier": "Захочу и соскочу. Супергерои",
  "iframe": "https://www.ivi.ru/embeds/video/?subsite=1&autostart=0&videoid=227854"
}