{
  "content_id": "186918",
  "title": "Жил-был кот",
  "orig_title": "Rudolf The Black Cat",
  "release_date": "2016",
  "orig_country": "Япония",
  "restrict": "0+",
  "kinopoisk_id": "993612",
  "kinopoisk_rating": "6.74",
  "imdb_rating": "6.6",
  "duration": "5273",
  "category": "Мультфильмы",
  "genres": "Для всей семьи,Для детей,Западные мультфильмы,Зарубежные,Комедия,Полнометражные,Приключения,Про животных",
  "vr_identifier": "Жил-был кот",
  "iframe": "https://www.ivi.ru/embeds/video/?subsite=1&autostart=0&videoid=186918"
}