{
  "content_id": "414316",
  "title": "INTO_нация Большой Одессы",
  "release_date": "2019",
  "orig_country": "Россия",
  "lang": "Русский",
  "restrict": "16+",
  "kinopoisk_id": "996620",
  "duration": "5652",
  "category": "Фильмы",
  "genres": "Документальные,Русские",
  "vr_identifier": "INTO_нация Большой Одессы",
  "iframe": "https://www.ivi.ru/embeds/video/?subsite=1&autostart=0&videoid=414316"
}