{
  "content_id": "177800",
  "title": "Жили-были",
  "release_date": "2017",
  "orig_country": "Россия",
  "lang": "Русский",
  "restrict": "12+",
  "kinopoisk_id": "997480",
  "kinopoisk_rating": "7.04",
  "imdb_rating": "6.2",
  "duration": "5218",
  "category": "Фильмы",
  "genres": "Драмы,Комедии,Русские",
  "vr_identifier": "Жили-были",
  "iframe": "https://www.ivi.ru/embeds/video/?subsite=1&autostart=0&videoid=177800"
}