{
  "content_id": "198711",
  "title": "Гангстердам",
  "orig_title": "Gangsterdam",
  "release_date": "2017",
  "orig_country": "Франция",
  "lang": "Французский",
  "restrict": "18+",
  "kinopoisk_id": "998078",
  "kinopoisk_rating": "5.44",
  "imdb_rating": "4.2",
  "duration": "5875",
  "category": "Фильмы",
  "genres": "Зарубежные,Комедии",
  "vr_identifier": "Гангстердам",
  "iframe": "https://www.ivi.ru/embeds/video/?subsite=1&autostart=0&videoid=198711"
}