{
  "content_id": "175032",
  "title": "Оно приходит ночью",
  "orig_title": "It Comes at Night",
  "release_date": "2017",
  "orig_country": "США",
  "lang": "Английский",
  "restrict": "18+",
  "kinopoisk_id": "998552",
  "kinopoisk_rating": "5.88",
  "imdb_rating": "6.2",
  "duration": "5275",
  "category": "Фильмы",
  "genres": "Детективы,Драмы,Зарубежные,Ужасы",
  "vr_identifier": "Оно приходит ночью",
  "iframe": "https://www.ivi.ru/embeds/video/?subsite=1&autostart=0&videoid=175032"
}